Division,WeightClassKg,Place,Name,Team,BodyweightKg,Best3SquatKg,Best3BenchKg,Best3DeadliftKg,TotalKg,Equipment,Event,Sex
Boys,51.71,1,Mark Valdez,Brady,51.71,106.59,63.5,140.61,310.71,Single-ply,SBD,M
Boys,51.71,2,Enrique Davila,San Saba,51.71,108.86,56.7,136.08,301.64,Single-ply,SBD,M
Boys,51.71,3,Kj Stevens,Lampasas,51.26,104.33,52.16,113.4,269.89,Single-ply,SBD,M
Boys,51.71,4,Erinque Reyes,Marble Falls,51.62,102.06,49.9,99.79,251.74,Single-ply,SBD,M
Boys,51.71,5,Luke Talley,Lago Vista,44.45,83.91,56.7,95.25,235.87,Single-ply,SBD,M
Boys,51.71,6,Corbin Cline,Lometa,50.26,79.38,43.09,83.91,206.38,Single-ply,SBD,M
Boys,55.79,1,Preston Fox,Lampasas,55.34,142.88,92.99,158.76,394.63,Single-ply,SBD,M
Boys,55.79,2,Radek Spatz,Miles,55.79,142.88,77.11,140.61,360.61,Single-ply,SBD,M
Boys,55.79,3,Hanner Campbell,Early,54.34,136.08,65.77,142.88,344.73,Single-ply,SBD,M
Boys,55.79,4,Luke Keller,Llano,53.52,138.35,70.31,133.81,342.46,Single-ply,SBD,M
Boys,55.79,5,Tyler Anglin,Bangs,53.71,68.04,34.02,83.91,185.97,Single-ply,SBD,M
Boys,59.87,1,Tommy Johnson,Marble Falls,58.97,142.88,88.45,170.1,401.43,Single-ply,SBD,M
Boys,59.87,2,Kyle Arriola,Lampasas,58.88,149.69,90.72,154.22,394.63,Single-ply,SBD,M
Boys,59.87,3,Kaden Bessent,Brownwood,58.97,124.74,79.38,136.08,340.19,Single-ply,SBD,M
Boys,59.87,4,Jaydon Brandon,Bangs,59.78,127.01,56.7,145.15,328.85,Single-ply,SBD,M
Boys,59.87,5,Brandon Sisson,Bangs,59.78,113.4,70.31,142.88,326.59,Single-ply,SBD,M
Boys,59.87,6,Elijah Dyer,Early,56.06,113.4,74.84,122.47,310.71,Single-ply,SBD,M
Boys,59.87,7,Adan Huron,San Saba,59.06,90.72,63.5,124.74,278.96,Single-ply,SBD,M
Boys,59.87,8,Brian Otte,Lohn,55.97,86.18,61.23,108.86,256.28,Single-ply,SBD,M
Boys,67.13,1,Seth Anderson,Bangs,66.9,183.7,113.4,204.12,501.22,Single-ply,SBD,M
Boys,67.13,2,Anthony Seider,Lometa,65.95,156.49,92.99,185.97,435.45,Single-ply,SBD,M
Boys,67.13,3,Cale Wade,Early,60.15,165.56,111.13,149.69,426.38,Single-ply,SBD,M
Boys,67.13,4,Fidel Casteneda,Bangs,64.41,151.95,90.72,161.03,403.7,Single-ply,SBD,M
Boys,67.13,5,Uriah King,Brownwood,65.59,145.15,97.52,154.22,396.89,Single-ply,SBD,M
Boys,67.13,6,Jd Bourke,San Saba,66.68,147.42,72.57,163.29,383.29,Single-ply,SBD,M
Boys,67.13,7,Dylan Mickler,Coleman,62.78,129.27,83.91,149.69,362.87,Single-ply,SBD,M
Boys,67.13,8,Hayden Chapman,Lago Vista,67.04,147.42,83.91,131.54,362.87,Single-ply,SBD,M
Boys,67.13,9,Emmitt Venable,Llano,61.05,136.08,77.11,138.35,351.53,Single-ply,SBD,M
Boys,67.13,10,Leonardo Hilario,San Saba,66.32,133.81,68.04,140.61,342.46,Single-ply,SBD,M
Boys,67.13,11,Alek Torres,Brady,62.14,124.74,74.84,133.81,333.39,Single-ply,SBD,M
Boys,67.13,12,Mario Martinez,Brady,62.14,117.93,68.04,145.15,331.12,Single-ply,SBD,M
Boys,67.13,13,Francisco Jaimes,Lometa,62.96,108.86,68.04,124.74,301.64,Single-ply,SBD,M
Boys,67.13,14,Cordyn Alderman,Marble Falls,61.23,102.06,81.65,108.86,292.57,Single-ply,SBD,M
Boys,67.13,15,Dj Smart,Lometa,66.04,95.25,68.04,115.67,278.96,Single-ply,SBD,M
Boys,67.13,16,Jory Richardson,Lohn,65.23,86.18,52.16,136.08,274.42,Single-ply,SBD,M
Boys,67.13,17,Donnie Smart,Lometa,63.41,97.52,58.97,115.67,272.16,Single-ply,SBD,M
Boys,67.13,DQ,Larry Telles,Junction,65.32,,86.18,151.95,,Single-ply,SBD,M
Boys,67.13,DQ,Luis Ramírez,San Saba,66.13,,77.11,,,Single-ply,SBD,M
Boys,67.13,DQ,Major Bowden,Brownwood,66.5,151.95,,,,Single-ply,SBD,M
Boys,74.84,1,Jack Jerome,Lampasas,71.3,226.8,133.81,199.58,560.19,Single-ply,SBD,M
Boys,74.84,2,Jesson Tarrant,Early,69.49,210.92,133.81,190.51,535.24,Single-ply,SBD,M
Boys,74.84,3,Javier Baez,San Saba,73.39,174.63,97.52,208.65,480.81,Single-ply,SBD,M
Boys,74.84,4,Brandon Robinson,Bangs,74.03,167.83,99.79,188.24,455.86,Single-ply,SBD,M
Boys,74.84,5,Koby Allen,Lampasas,73.94,170.1,113.4,170.1,453.59,Single-ply,SBD,M
Boys,74.84,6,Sakima Herrera,San Saba,70.03,158.76,95.25,188.24,442.25,Single-ply,SBD,M
Boys,74.84,7,Joe Maldonado,Marble Falls,73.84,172.37,92.99,170.1,435.45,Single-ply,SBD,M
Boys,74.84,8,Jake Self,Llano,71.67,151.95,104.33,165.56,421.84,Single-ply,SBD,M
Boys,74.84,9,Gilberto Baez,San Saba,72.57,151.95,83.91,183.7,419.57,Single-ply,SBD,M
Boys,74.84,10,Jimmy Turner,Brady,73.03,154.22,90.72,172.37,417.3,Single-ply,SBD,M
Boys,74.84,11,Daniel Medina,Ballinger,74.48,151.95,95.25,170.1,417.3,Single-ply,SBD,M
Boys,74.84,12,Dylan Diaz,Coleman,69.22,145.15,104.33,149.69,399.16,Single-ply,SBD,M
Boys,74.84,13,William O'Dell,Brownwood,71.85,129.27,99.79,133.81,362.87,Single-ply,SBD,M
Boys,74.84,14,Christian Beall,Lago Vista,70.13,124.74,86.18,145.15,356.07,Single-ply,SBD,M
Boys,74.84,15,Adrian Tapia,Ballinger,71.3,120.2,83.91,151.95,356.07,Single-ply,SBD,M
Boys,74.84,16,Elias Sanchez,Miles,74.12,111.13,61.23,140.61,312.98,Single-ply,SBD,M
Boys,74.84,17,Michael Naja,Llano,74.3,113.4,70.31,124.74,308.44,Single-ply,SBD,M
Boys,74.84,DQ,Javier Gutierrez,Junction,69.67,,,,,Single-ply,SBD,M
Boys,82.1,1,Case Brister,Lampasas,75.66,201.85,115.67,204.12,521.63,Single-ply,SBD,M
Boys,82.1,2,Andrew Herpeche,Miles,81.01,188.24,122.47,204.12,514.83,Single-ply,SBD,M
Boys,82.1,3,Colby Henry,Lometa,77.02,179.17,136.08,185.97,501.22,Single-ply,SBD,M
Boys,82.1,4,Julio Acevedo,Roby,81.92,215.46,102.06,181.44,498.95,Single-ply,SBD,M
Boys,82.1,5,Keagan Richardson,Lampasas,78.11,179.17,108.86,176.9,464.93,Single-ply,SBD,M
Boys,82.1,6,Brian Ramirez,Brady,78.93,174.63,113.4,147.42,435.45,Single-ply,SBD,M
Boys,82.1,7,Fabian Rubio,Ballinger,78.93,172.37,92.99,142.88,408.23,Single-ply,SBD,M
Boys,82.1,8,Luke Boggess,Ballinger,81.74,158.76,102.06,147.42,408.23,Single-ply,SBD,M
Boys,82.1,10,Voice Tuttle,Marble Falls,77.93,136.08,99.79,147.42,383.29,Single-ply,SBD,M
Boys,82.1,11,Brigham Grover,Marble Falls,81.01,124.74,79.38,163.29,367.41,Single-ply,SBD,M
Boys,82.1,12,Jonathan Dotson,Lohn,82.1,95.25,49.9,124.74,269.89,Single-ply,SBD,M
Boys,82.1,13,Wyatt Puryear,Coleman,75.66,102.06,45.36,117.93,265.35,Single-ply,SBD,M
Boys,82.1,DQ,Tristan Alejandro,Ballinger,76.11,151.95,,,,Single-ply,SBD,M
Boys,89.81,1,Glenn Thomas,Marble Falls,89.09,226.8,106.59,208.65,542.04,Single-ply,SBD,M
Boys,89.81,2,Logan Duggar,Llano,82.55,210.92,102.06,208.65,521.63,Single-ply,SBD,M
Boys,89.81,3,Jacob Maldonado,Marble Falls,88.72,204.12,113.4,199.58,517.1,Single-ply,SBD,M
Boys,89.81,4,Hunter Lawrence,Bangs,85.09,213.19,90.72,192.78,496.68,Single-ply,SBD,M
Boys,89.81,5,Shawn Howell,Roby,84.64,208.65,92.99,183.7,485.34,Single-ply,SBD,M
Boys,89.81,6,Coleton Williams,Miles,84.64,167.83,117.93,181.44,467.2,Single-ply,SBD,M
Boys,89.81,7,Christian Gutierrez,Miles,88.72,192.78,108.86,163.29,464.93,Single-ply,SBD,M
Boys,89.81,8,Daniel Hernandez,Brady,83.91,174.63,97.52,190.51,462.66,Single-ply,SBD,M
Boys,89.81,9,Jesus Cervantes,San Saba,86.64,154.22,108.86,197.31,460.4,Single-ply,SBD,M
Boys,89.81,9,Joel Garcia,Miles,87.54,149.69,81.65,174.63,405.97,Single-ply,SBD,M
Boys,89.81,10,Hayden King,Bangs,85.55,161.03,86.18,188.24,435.45,Single-ply,SBD,M
Boys,89.81,11,Shaydon Pearl,Junction,87.36,149.69,92.99,154.22,396.89,Single-ply,SBD,M
Boys,89.81,12,Samuel Farrell,Marble Falls,83.46,140.61,92.99,145.15,378.75,Single-ply,SBD,M
Boys,89.81,13,Jesus Chacon,Llano,84.55,149.69,74.84,154.22,378.75,Single-ply,SBD,M
Boys,89.81,14,Zane Gillaspia,Brady,83.01,140.61,79.38,147.42,367.41,Single-ply,SBD,M
Boys,89.81,15,Dax Lawhn,Lago Vista,86.64,129.27,90.72,120.2,340.19,Single-ply,SBD,M
Boys,89.81,DQ,Charlie Smith,Bangs,89.63,149.69,,,,Single-ply,SBD,M
Boys,89.81,DQ,Chris Llanas,Miles,89.54,,106.59,136.08,,Single-ply,SBD,M
Boys,99.79,1,Brady Herbst,Junction,97.34,215.46,163.29,213.19,591.94,Single-ply,SBD,M
Boys,99.79,2,Jadyn Lehde,Early,97.98,240.4,129.27,213.19,582.87,Single-ply,SBD,M
Boys,99.79,3,Joseph Watson,San Saba,93.44,199.58,140.61,226.8,566.99,Single-ply,SBD,M
Boys,99.79,4,Bladen Calley,San Saba,91.63,217.72,92.99,192.78,503.49,Single-ply,SBD,M
Boys,99.79,5,Owen Seaver,Lampasas,93.53,174.63,140.61,170.1,485.34,Single-ply,SBD,M
Boys,99.79,6,Ethan Pesina,Brownwood,98.34,185.97,115.67,170.1,471.74,Single-ply,SBD,M
Boys,99.79,7,Jose Vasquez,Marble Falls,91.72,138.35,90.72,165.56,394.63,Single-ply,SBD,M
Boys,99.79,8,Matthew Kloepper,Llano,92.62,151.95,90.72,145.15,387.82,Single-ply,SBD,M
Boys,99.79,9,Zach Watson,Llano,95.89,124.74,90.72,147.42,362.87,Single-ply,SBD,M
Boys,99.79,10,Riley Chapman,Miles,94.98,142.88,79.38,133.81,356.07,Single-ply,SBD,M
Boys,99.79,11,Kevin Garcia,Junction,96.07,142.88,81.65,113.4,337.93,Single-ply,SBD,M
Boys,99.79,DQ,John Acevedo,Roby,97.79,145.15,74.84,,,Single-ply,SBD,M
Boys,99.79,DQ,Brandon Farrow #2,Brownwood,91.53,161.03,92.99,,,Single-ply,SBD,M
Boys,109.77,1,Jeremy Rodgers,Lampasas,108.23,231.33,138.35,251.74,621.42,Single-ply,SBD,M
Boys,109.77,2,Zeke Ibarra,Brownwood,105.96,215.46,151.95,201.85,569.26,Single-ply,SBD,M
Boys,109.77,3,Landin Short,San Saba,105.32,183.7,136.08,210.92,530.7,Single-ply,SBD,M
Boys,109.77,4,Ethen Portillio,Early,108.5,204.12,106.59,199.58,510.29,Single-ply,SBD,M
Boys,109.77,5,Josue Paulino,Llano,104.96,185.97,95.25,158.76,439.98,Single-ply,SBD,M
Boys,124.74,1,Clayton Pierce,San Saba,110.77,263.08,158.76,231.33,653.17,Single-ply,SBD,M
Boys,124.74,2,Logan Gillem,Early,118.48,240.4,151.95,238.14,630.49,Single-ply,SBD,M
Boys,124.74,3,Griffin Beard,Lago Vista,122.02,249.48,120.2,210.92,580.6,Single-ply,SBD,M
Boys,124.74,4,Brad Robinson,Brownwood,110.5,226.8,136.08,181.44,544.31,Single-ply,SBD,M
Boys,124.74,5,Adam Murphy,Lampasas,114.94,197.31,133.81,201.85,532.97,Single-ply,SBD,M
Boys,124.74,6,Bryan Reza,San Saba,120.38,183.7,131.54,204.12,519.36,Single-ply,SBD,M
Boys,124.74,7,Cesar Reza,Brady,120.38,195.04,113.4,208.65,517.1,Single-ply,SBD,M
Boys,124.74,8,Jayden Hostetter,Ballinger,116.57,197.31,122.47,179.17,498.95,Single-ply,SBD,M
Boys,124.74,9,Alex Reyna,Brownwood,110.31,190.51,113.4,181.44,485.34,Single-ply,SBD,M
Boys,124.74,10,Jett Hibler,San Saba,111.13,188.24,106.59,183.7,478.54,Single-ply,SBD,M
Boys,124.74,11,Cesar Avila,Junction,115.03,208.65,88.45,170.1,467.2,Single-ply,SBD,M
Boys,124.74,12,Juan Leon,Brady,111.58,158.76,106.59,174.63,439.98,Single-ply,SBD,M
Boys,124.74,13,Jeryd Fain,Coleman,124.1,170.1,97.52,170.1,437.72,Single-ply,SBD,M
Boys,124.74,14,Lewis McTighe,Llano,116.75,167.83,92.99,172.37,433.18,Single-ply,SBD,M
Boys,124.74,15,Trey Ivey,Bangs,113.58,170.1,111.13,149.69,430.91,Single-ply,SBD,M
Boys,124.74,16,Gus Allen,Coleman,111.58,149.69,95.25,151.95,396.89,Single-ply,SBD,M
Boys,124.74+,1,Brody Adams,Junction,139.25,247.21,163.29,217.72,628.23,Single-ply,SBD,M
Boys,124.74+,2,John Long,Lampasas,137.89,217.72,161.03,199.58,578.33,Single-ply,SBD,M
Boys,124.74+,3,Carlos Salazar,Brownwood,138.35,192.78,120.2,197.31,510.29,Single-ply,SBD,M
Boys,124.74+,4,Raymond Gloria,Brady,132,136.08,88.45,163.29,387.82,Single-ply,SBD,M
