Tested,Equipment,Place,Name,Division,BirthYear,Country,BodyweightKg,Squat1Kg,Squat2Kg,Squat3Kg,Best3SquatKg,Bench1Kg,Bench2Kg,Bench3Kg,Best3BenchKg,Bench4Kg,Deadlift1Kg,Deadlift2Kg,Deadlift3Kg,Best3DeadliftKg,Deadlift4Kg,TotalKg,WeightClassKg,Sex,CyrillicName,Event
Yes,Raw,1,Svetlana Mokryakova,Amateur Open,1988,Russia,47.50,47.5,50.0,52.5,52.5,30.0,32.5,-35.0,32.5,,72.5,80.0,87.5,87.5,,172.5,48,F,Светлана Мокрякова,SBD
Yes,Raw,2,Natalya Pavlovskaya,Amateur Open,1986,Russia,45.20,50.0,52.5,55.0,55.0,30.0,32.5,35.0,35.0,,60.0,65.0,70.0,70.0,,160.0,48,F,Наталья Павловская,SBD
Yes,Raw,3,Tatyana Golichenkova,Amateur Open,1987,Russia,46.80,52.5,-55.0,55.0,55.0,30.0,-32.5,-32.5,30.0,,57.5,62.5,-65.0,62.5,,147.5,48,F,Татьяна Голиченкова,SBD
Yes,Raw,1,Milana Isaeva,Amateur Open,1989,Russia,50.50,-60.0,60.0,65.0,65.0,42.5,45.0,47.5,47.5,,80.0,90.0,-97.5,90.0,,202.5,52,F,Милана Исаева,SBD
Yes,Raw,2,Vladislava Mikhaylovskaya,Amateur Open,1982,Russia,50.00,57.5,60.0,62.5,62.5,32.5,35.0,-37.5,35.0,,67.5,72.5,75.0,75.0,,172.5,52,F,Владислава Михайловская,SBD
Yes,Raw,1,Viktoriya Kosacheva,Amateur Juniors 20-23,1990,Russia,55.40,-40.0,45.0,50.0,50.0,25.0,30.0,-32.5,30.0,,60.0,70.0,80.0,80.0,,160.0,56,F,Виктория Косачева,SBD
Yes,Raw,1,Nataliya Sorochinskaya,Amateur Masters 40-44,1974,Russia,54.60,85.0,90.0,95.0,95.0,57.5,60.0,-62.5,60.0,,105.0,112.5,117.5,117.5,,272.5,56,F,Наталия Сорочинская,SBD
Yes,Raw,1,Mariya Kolyadina,Amateur Teen 18-19,1995,Russia,60.00,65.0,70.0,75.0,75.0,37.5,40.0,-42.5,40.0,,90.0,97.5,100.0,100.0,,215.0,60,F,Мария Колядина,SBD
Yes,Raw,1,Marina Sycheva,Amateur Open,1982,Russia,58.70,75.0,85.0,-95.0,85.0,40.0,47.5,-50.0,47.5,,110.0,120.0,-125.0,120.0,,252.5,60,F,Марина Сычева,SBD
Yes,Raw,2,Ekaterina Kolybelkina,Amateur Open,1990,Russia,59.00,80.0,87.5,-92.5,87.5,55.0,57.5,-60.0,57.5,,85.0,92.5,97.5,97.5,,242.5,60,F,Екатерина Колыбелкина,SBD
Yes,Raw,1,Ekaterina Pozdnyakova,Amateur Juniors 20-23,1991,Russia,65.40,-100.0,100.0,-115.0,100.0,50.0,55.0,-60.0,55.0,,110.0,-122.5,-122.5,110.0,,265.0,67.5,F,Екатерина Позднякова,SBD
Yes,Raw,1,Ekaterina Kostina,Amateur Open,1989,Russia,66.00,110.0,-120.0,-120.0,110.0,-60.0,60.0,-65.0,60.0,,130.0,140.0,-150.0,140.0,,310.0,67.5,F,Екатерина Костина,SBD
Yes,Raw,2,Angelina Goncharova,Amateur Open,1983,Russia,64.00,90.0,100.0,-102.5,100.0,65.0,70.0,72.5,72.5,,-120.0,130.0,135.0,135.0,,307.5,67.5,F,Ангелина Гончарова,SBD
Yes,Raw,3,Tatyana Obraztsova,Amateur Open,1978,Russia,65.20,90.0,-100.0,-100.0,90.0,60.0,62.5,65.0,65.0,,90.0,110.0,120.0,120.0,,275.0,67.5,F,Татьяна Образцова,SBD
Yes,Raw,4,Kseniya Chebotnikova,Amateur Open,1988,Russia,67.20,-75.0,-80.0,80.0,80.0,45.0,47.5,-50.0,47.5,,-120.0,120.0,-130.0,120.0,,247.5,67.5,F,Ксения Чеботникова,SBD
Yes,Raw,5,Yana Pronina,Amateur Open,1989,Russia,63.60,82.5,92.5,-100.0,92.5,-45.0,47.5,-55.0,47.5,,95.0,102.5,-107.5,102.5,,242.5,67.5,F,Яна Пронина,SBD
Yes,Raw,6,Natalya Karmen,Amateur Open,1986,Russia,65.30,-85.0,85.0,87.5,87.5,-60.0,60.0,-62.5,60.0,,85.0,87.5,90.0,90.0,,237.5,67.5,F,Наталья Кармен,SBD
Yes,Raw,DQ,Anastasiya Burkovskaya,Amateur Juniors 20-23,1993,Russia,73.90,-110.0,-110.0,-110.0,,,,,,,,,,,,,75,F,Анастасия Бурковская,SBD
Yes,Raw,1,Anastasiya Pykhova,Amateur Open,1989,Russia,73.40,85.0,95.0,100.0,100.0,55.0,60.0,-62.5,60.0,,130.0,145.0,-152.5,145.0,,305.0,75,F,Анастасия Пыхова,SBD
Yes,Raw,2,Oksana Fomenko,Amateur Open,1988,Russia,71.10,-85.0,92.5,-100.0,92.5,50.0,-57.5,-57.5,50.0,,110.0,-120.0,120.0,120.0,,262.5,75,F,Оксана Фоменко,SBD
Yes,Raw,1,Dmitriy Sindeev,Amateur Teen 13-15,2000,Russia,56.00,-70.0,-70.0,70.0,70.0,60.0,65.0,-70.0,65.0,,85.0,95.0,105.0,105.0,,240.0,56,M,Дмитрий Синдеев,SBD
Yes,Raw,1,Pavel Derzhakov,Amateur Juniors 20-23,1992,Russia,56.00,110.0,-120.0,-125.0,110.0,95.0,100.0,105.0,105.0,,125.0,140.0,150.0,150.0,,365.0,56,M,Павел Держаков,SBD
Yes,Raw,1,Artem Sinitsyn,Amateur Teen 13-15,1998,Russia,58.70,90.0,100.0,-110.0,100.0,55.0,65.0,70.0,70.0,,105.0,112.5,117.5,117.5,,287.5,60,M,Артем Синицын,SBD
Yes,Raw,1,Egor Volkov,Amateur Teen 18-19,1996,Russia,62.50,-100.0,110.0,-125.0,110.0,70.0,80.0,90.0,90.0,,-120.0,125.5,140.0,140.0,,340.0,67.5,M,Егор Волков,SBD
Yes,Raw,1,Aleksandr Dyakov,Amateur Juniors 20-23,1994,Russia,66.95,170.0,-180.0,-180.0,170.0,125.0,132.5,-137.5,132.5,,170.0,-187.5,187.5,187.5,,490.0,67.5,M,Александр Дьяков,SBD
Yes,Raw,1,Aleksey Yushin,Amateur Open,1982,Russia,66.80,145.0,-155.0,155.0,155.0,127.5,135.0,-140.0,135.0,,170.0,180.0,190.0,190.0,,480.0,67.5,M,Алексей Юшин,SBD
Yes,Raw,1,Timur Lapshin,Amateur Teen 13-15,1999,Russia,68.90,-150.0,-150.0,150.0,150.0,80.0,92.5,100.0,100.0,,150.0,-160.0,162.5,162.5,,412.5,75,M,Тимур Лапшин,SBD
Yes,Raw,1,Mikhail Volkov,Amateur Teen 16-17,1996,Russia,74.40,-130.0,135.0,145.0,145.0,90.0,-100.0,-100.0,90.0,,140.0,150.0,-165.0,150.0,,385.0,75,M,Михаил Волков,SBD
Yes,Raw,2,Mikhail Zhigalov,Amateur Teen 16-17,1997,Russia,72.70,-120.0,-130.0,130.0,130.0,65.0,75.0,-80.0,75.0,,-160.0,170.0,-180.0,170.0,,375.0,75,M,Михаил Жигалов,SBD
Yes,Raw,1,Maksim Pisarevskiy,Amateur Juniors 20-23,1991,Russia,73.60,140.0,150.0,-160.0,150.0,120.0,127.5,-130.0,127.5,,190.0,205.0,212.5,212.5,,490.0,75,M,Максим Писаревский,SBD
Yes,Raw,2,Vasiliy Olari,Amateur Juniors 20-23,1994,Russia,68.10,-125.0,125.0,,125.0,-95.0,-95.0,95.0,95.0,,160.0,175.0,-185.0,175.0,,395.0,75,M,,SBD
Yes,Raw,3,Anton Tolubaev,Amateur Juniors 20-23,1991,Russia,68.40,95.0,105.0,-115.0,105.0,80.0,82.5,-85.0,82.5,,145.0,155.0,165.0,165.0,,352.5,75,M,Антон Толубаев,SBD
Yes,Raw,1,Denis Akhmetshin,Amateur Open,1987,Russia,73.60,-150.0,150.0,-155.0,150.0,100.0,110.0,112.5,112.5,,150.0,160.0,-165.0,160.0,,422.5,75,M,Денис Ахметшин,SBD
Yes,Raw,2,Vladimir Borisov,Amateur Open,1989,Russia,71.90,130.0,140.0,-145.0,140.0,85.0,90.0,-97.5,90.0,,155.0,167.5,180.0,180.0,,410.0,75,M,Владимир Борисов,SBD
Yes,Raw,1,Talgat Aymbetov,Amateur Juniors 20-23,1991,Russia,79.50,130.0,137.5,145.0,145.0,90.0,97.5,-102.5,97.5,,160.0,170.0,182.5,182.5,,425.0,82.5,M,Талгат Аймбетов,SBD
Yes,Raw,1,Vasiliy Perov,Amateur Open,1979,Russia,81.70,205.0,215.0,225.0,225.0,150.0,160.0,-165.0,160.0,,225.0,247.5,262.5,262.5,,647.5,82.5,M,Василий Перов,SBD
Yes,Raw,2,Mikhail Schankin,Amateur Open,1975,Russia,80.30,170.0,175.0,177.5,177.5,150.0,155.0,-157.5,155.0,,170.0,180.0,190.0,190.0,,522.5,82.5,M,Михаил Щанькин,SBD
Yes,Raw,3,Nikita Korolev,Amateur Open,1989,Russia,78.50,-145.0,145.0,155.0,155.0,115.0,125.0,-130.0,125.0,,160.0,175.0,182.5,182.5,,462.5,82.5,M,Никита Королев,SBD
Yes,Raw,1,Dmitriy Pavlov,Amateur Juniors 20-23,1991,Russia,89.10,205.0,220.0,,220.0,160.0,170.0,175.0,175.0,,250.0,265.0,,265.0,,660.0,90,M,Дмитрий Павлов,SBD
Yes,Raw,2,Kirill Vedeneev,Amateur Juniors 20-23,1991,Russia,88.70,-170.0,170.0,-180.0,170.0,-130.0,130.0,135.0,135.0,,200.0,210.0,220.0,220.0,,525.0,90,M,Кирилл Веденеев,SBD
Yes,Raw,1,Evgeniy Vladimirov,Amateur Open,1964,Russia,89.00,-200.0,200.0,210.0,210.0,130.0,135.0,-137.5,135.0,,200.0,210.0,220.0,220.0,,565.0,90,M,Евгений Владимиров,SBD
Yes,Raw,2,Ivan Palitsyn,Amateur Open,1988,Russia,88.50,-195.0,-195.0,195.0,195.0,-140.0,140.0,145.0,145.0,,197.5,205.0,210.0,210.0,,550.0,90,M,Иван Палицын,SBD
Yes,Raw,3,Anatoliy Nikiforov,Amateur Open,1982,Russia,88.50,180.0,190.0,-192.5,190.0,130.0,135.0,-140.0,135.0,,212.5,-217.5,-217.5,212.5,,537.5,90,M,Анатолий Никифоров,SBD
Yes,Raw,4,Aleksey Pozdin,Amateur Open,1980,Russia,85.60,150.0,160.0,170.0,170.0,130.0,-135.0,135.0,135.0,,170.0,180.0,190.0,190.0,,495.0,90,M,Алексей Поздин,SBD
Yes,Raw,5,Sergey Kurdyumov,Amateur Open,1985,Russia,87.00,120.0,127.5,132.5,132.5,105.0,110.0,-115.0,110.0,,160.0,170.0,180.0,180.0,,422.5,90,M,Сергей Курдюмов,SBD
Yes,Raw,DQ,Aleksandr Rumyantsev,Amateur Masters 40-44,1969,Russia,88.45,-160.0,-160.0,-160.0,,,,,,,,,,,,,90,M,Александр Румянцев,SBD
Yes,Raw,1,Evgeniy Vladimirov,Amateur Masters 45-49,1964,Russia,89.00,-200.0,200.0,210.0,210.0,130.0,135.0,-137.5,135.0,,200.0,210.0,220.0,220.0,,565.0,90,M,Евгений Владимиров,SBD
Yes,Raw,1,Mikhail Kozachuk,Amateur Masters 50-54,1963,Russia,87.60,115.0,122.5,-130.0,122.5,77.5,80.0,-82.5,80.0,,135.0,142.5,-150.0,142.5,,345.0,90,M,Михаил Козачук,SBD
Yes,Raw,1,Ivan Samusenkov,Amateur Juniors 20-23,1993,Russia,91.05,210.0,-230.0,-230.0,210.0,170.0,-180.0,180.0,180.0,,220.0,230.0,240.0,240.0,,630.0,100,M,Иван Самусенков,SBD
Yes,Raw,DQ,Aleksandr Mescheryakov,Amateur Juniors 20-23,1990,Russia,99.00,210.0,220.0,,220.0,150.0,-160.0,-160.0,150.0,,-240.0,-260.0,-260.0,,,,100,M,Александр Мещеряков,SBD
Yes,Raw,1,Pavel Rodin,Amateur Open,1985,Russia,96.80,180.0,190.0,200.0,200.0,135.0,-140.0,-140.0,135.0,,200.0,210.0,220.0,220.0,,555.0,100,M,Павел Родин,SBD
Yes,Raw,2,Aleksandr Krizhanovskiy,Amateur Open,1983,Russia,91.30,175.0,185.0,-195.0,185.0,130.0,135.0,-140.0,135.0,,200.0,-210.0,210.0,210.0,,530.0,100,M,Александр Крижановский,SBD
Yes,Raw,3,Yuriy Golubkov,Amateur Open,1985,Russia,93.70,135.0,147.5,155.0,155.0,95.0,100.0,105.0,105.0,,170.0,180.0,187.5,187.5,,447.5,100,M,Юрий Голубков,SBD
Yes,Raw,1,Sergey Chureev,Amateur Open,1990,Russia,107.50,230.0,240.0,245.0,245.0,170.0,180.0,-185.0,180.0,,240.0,250.0,260.0,260.0,,685.0,110,M,Сергей Чуреев,SBD
Yes,Raw,2,Roman Klimov,Amateur Open,1981,Russia,103.90,210.0,-220.0,-220.0,210.0,150.0,-155.0,-155.0,150.0,,240.0,260.0,-270.0,260.0,,620.0,110,M,Роман Климов,SBD
Yes,Raw,3,Ivan Rak,Amateur Open,1974,Russia,102.20,170.0,180.0,-190.0,180.0,120.0,130.0,135.0,135.0,,190.0,200.0,210.0,210.0,,525.0,110,M,Иван Рак,SBD
Yes,Raw,DQ,Roman Khaydarov,Amateur Open,1983,Russia,109.30,-240.0,240.0,-250.0,240.0,-160.0,-160.0,-160.0,,,-260.0,,,,,,110,M,Роман Хайдаров,SBD
Yes,Single-ply,1,Darya Bezukladnova,Amateur Juniors 20-23,1991,Russia,46.85,45.0,55.0,65.0,65.0,30.0,35.0,-40.0,35.0,,60.0,70.0,-80.0,70.0,,170.0,48,F,Дарья Безукладнова,SBD
Yes,Single-ply,1,Kseniya Gunina,Amateur Open,1986,Russia,65.90,90.0,100.0,-110.0,100.0,-60.0,60.0,-62.5,60.0,,100.0,110.0,120.0,120.0,,280.0,67.5,F,Ксения Гунина,SBD
Yes,Single-ply,1,Aleksey Selischev,Amateur Open,1978,Russia,86.40,182.5,190.0,200.0,200.0,110.0,115.0,117.5,117.5,,200.0,212.5,-220.0,212.5,,530.0,90,M,Алексей Селищев,SBD
No,Raw,1,Irina Yaroshenko,Pro Open,1986,Russia,92.30,150.0,160.0,167.5,167.5,85.0,92.5,97.5,97.5,,170.0,185.0,195.0,195.0,,460.0,90+,F,Ирина Ярошенко,SBD
No,Raw,1,Dmitriy Kozhemyakin,Pro Teen 16-17,1997,Russia,73.10,130.0,145.0,155.0,155.0,105.0,-115.0,115.0,115.0,,170.0,-190.0,,170.0,,440.0,75,M,Дмитрий Кожемякин,SBD
No,Raw,1,Artem Glazkov,Pro Juniors 20-23,1990,Russia,81.60,200.0,215.0,225.0,225.0,140.0,150.0,155.0,155.0,,200.0,217.5,235.0,235.0,,615.0,82.5,M,Артем Глазков,SBD
No,Raw,2,Anton Arzhanov,Pro Juniors 20-23,1994,Russia,79.70,-160.0,160.0,-170.0,160.0,80.0,90.0,95.0,95.0,,155.0,165.0,175.0,175.0,,430.0,82.5,M,Антон Аржанов,SBD
No,Raw,1,Timur Abrosimov,Pro Juniors 20-23,1993,Russia,89.00,-150.0,150.0,162.5,162.5,135.0,145.0,152.5,152.5,,180.0,190.0,197.5,197.5,,512.5,90,M,Тимур Абросимов,SBD
No,Raw,1,Pavel Sheludko,Pro Open,1989,Russia,89.65,260.0,270.0,280.0,280.0,200.0,-207.5,-207.5,200.0,,290.0,305.0,-315.0,305.0,,785.0,90,M,Павел Шелудько,SBD
No,Raw,2,Denis Nikitin,Pro Open,1988,Russia,86.20,230.0,-250.0,-250.0,230.0,200.0,-210.0,210.0,210.0,,255.0,270.0,-280.0,270.0,,710.0,90,M,Денис Никитин,SBD
No,Raw,3,Kirill Tsaparov,Pro Open,1984,Russia,84.65,200.0,-215.0,-215.0,200.0,150.0,155.0,-160.0,155.0,,250.0,-270.0,270.0,270.0,,625.0,90,M,Кирилл Цапаров,SBD
No,Raw,4,Dmitriy Chuzhakov,Pro Open,1989,Russia,89.50,200.0,210.0,-220.0,210.0,130.0,145.0,-152.5,145.0,,250.0,-270.0,-275.0,250.0,,605.0,90,M,Дмитрий Чужаков,SBD
No,Raw,1,Dmitriy Postnov,Pro Masters 40-44,1971,Russia,89.30,150.0,,,150.0,125.0,140.0,150.0,150.0,,190.0,210.0,225.0,225.0,,525.0,90,M,Дмитрий Постнов,SBD
No,Raw,1,Vitaliy Ryabykh,Pro Juniors 20-23,1992,Russia,98.40,190.0,-197.5,200.0,200.0,150.0,160.0,-170.0,160.0,,220.0,235.0,-250.0,235.0,,595.0,100,M,Виталий Рябых,SBD
No,Raw,2,Aleksey Zyuban,Pro Juniors 20-23,1994,Russia,99.50,-200.0,-205.0,205.0,205.0,130.0,140.0,-150.0,140.0,,220.0,230.0,240.0,240.0,,585.0,100,M,Алексей Зюбан,SBD
No,Raw,1,Anton Anikanov,Pro Open,1985,Russia,90.40,215.0,-225.0,225.0,225.0,170.0,177.5,182.5,182.5,,240.0,250.0,260.0,260.0,,667.5,100,M,Антон Аниканов,SBD
No,Raw,2,Pavel Papenkov,Pro Open,1980,Russia,99.60,220.0,-230.0,-230.0,220.0,165.0,172.5,-175.0,172.5,,270.0,-285.0,-290.0,270.0,,662.5,100,M,Павел Папенков,SBD
No,Raw,3,Roman Artamonov,Pro Open,1974,Russia,96.75,-220.0,-220.0,220.0,220.0,160.0,170.0,175.0,175.0,,230.0,-240.0,240.0,240.0,,635.0,100,M,Роман Артамонов,SBD
No,Raw,4,Denis Zagniboroda,Pro Open,1981,Belarus,91.90,200.0,210.0,215.0,215.0,135.0,145.0,150.0,150.0,,245.0,255.0,260.0,260.0,,625.0,100,M,,SBD
No,Raw,5,Denis Fesenko,Pro Open,1984,Russia,91.30,210.0,220.0,230.0,230.0,142.5,150.0,155.0,155.0,,220.0,227.5,235.0,235.0,,620.0,100,M,Денис Фесенко,SBD
No,Raw,6,Shakhrukh Igamov,Pro Open,1978,Russia,98.60,200.0,-210.0,215.0,215.0,150.0,157.5,-165.0,157.5,,225.0,235.0,242.5,242.5,,615.0,100,M,Шахрух Игамов,SBD
No,Raw,7,Sergey Zotov,Pro Open,1988,Russia,93.90,130.0,145.0,160.0,160.0,90.0,100.0,,100.0,,150.0,-160.0,170.0,170.0,,430.0,100,M,Сергей Зотов,SBD
No,Raw,DQ,Sergey Ezhkov,Pro Open,1989,Russia,96.70,-200.0,-200.0,-200.0,,-137.5,,,,,-190.0,,,,,,100,M,Сергей Ежков,SBD
No,Raw,1,Maksim Titkov,Pro Open,1986,Russia,106.00,250.0,-260.0,-260.0,250.0,160.0,-170.0,-170.0,160.0,,250.0,-260.0,,250.0,,660.0,110,M,Максим Титков,SBD
No,Raw,1,Sergey Ustinov,Pro Open,1988,Russia,117.40,270.0,-280.0,-280.0,270.0,170.0,180.0,185.0,185.0,,270.0,287.5,-292.5,287.5,,742.5,125,M,Сергей Устинов,SBD
No,Raw,1,Aleksey Ivanov,Pro Masters 40-44,1972,Russia,111.80,235.0,242.5,250.0,250.0,150.0,155.0,160.0,160.0,,270.0,280.0,-285.0,280.0,,690.0,125,M,Алексей Иванов,SBD
No,Raw,1,Vladimir Shevchuk,Pro Masters 45-49,1966,Russia,115.70,200.0,-210.0,-210.0,200.0,145.0,-155.0,-160.0,145.0,,200.0,210.0,-215.0,210.0,,555.0,125,M,Владимир Шевчук,SBD
No,Single-ply,1,Aleksey Yagunov,Pro Open,1968,Russia,89.35,-220.0,235.0,250.0,250.0,170.0,185.0,-197.5,185.0,,220.0,-235.0,-240.0,220.0,,655.0,90,M,Алексей Ягунов,SBD
No,Single-ply,DQ,Viktor Polosukhin,Pro Open,1988,Russia,97.70,-250.0,-250.0,-250.0,,-175.0,,,,,-275.0,,,,,,100,M,Виктор Полосухин,SBD
No,Single-ply,1,Vadim Kasparov,Pro Teen 16-17,1996,Russia,117.20,-270.0,-280.0,290.0,290.0,150.0,160.0,-170.0,160.0,,250.0,270.0,-280.0,270.0,,720.0,125,M,Вадим Каспаров,SBD
Yes,Raw,1,Mariya Oleschuk,Amateur Juniors 20-23,1994,Russia,44.00,,,,,35.0,-40.0,40.0,40.0,,,,,,,40.0,44,F,Мария Олещук,B
Yes,Raw,1,Elena Sorokina,Amateur Open,1985,Russia,44.00,,,,,55.0,60.0,-62.5,60.0,,,,,,,60.0,44,F,Елена Сорокина,B
Yes,Raw,1,Natalya Klementyeva,Amateur Open,1980,Russia,48.00,,,,,50.0,52.5,55.0,55.0,,,,,,,55.0,48,F,Наталья Клементьева,B
Yes,Raw,2,Ekaterina Petukhova,Amateur Open,1986,Russia,48.00,,,,,-45.0,45.0,-50.0,45.0,,,,,,,45.0,48,F,Екатерина Петухова,B
Yes,Raw,1,Ekaterina Suvorova,Amateur Juniors 20-23,1992,Russia,49.10,,,,,45.0,50.0,-52.5,50.0,,,,,,,50.0,52,F,Екатерина Суворова,B
Yes,Raw,1,Marina Gorikova,Amateur Open,1983,Russia,52.50,,,,,65.0,70.0,72.5,72.5,,,,,,,72.5,56,F,Марина Горикова,B
Yes,Raw,2,Natalya Zorina,Amateur Open,1970,Russia,54.60,,,,,65.0,70.0,-72.5,70.0,,,,,,,70.0,56,F,Наталья Зорина,B
Yes,Raw,3,Raisa Sharueva,Amateur Open,1983,Russia,55.60,,,,,57.5,-62.5,62.5,62.5,,,,,,,62.5,56,F,Раиса Шаруева,B
Yes,Raw,DQ,Anna Taganova,Amateur Open,1986,Russia,53.70,,,,,-50.0,-55.0,-55.0,,,,,,,,,56,F,Анна Таганова,B
Yes,Raw,1,Natalya Zorina,Amateur Masters 40-44,1970,Russia,54.60,,,,,65.0,70.0,-72.5,70.0,,,,,,,70.0,56,F,Наталья Зорина,B
Yes,Raw,2,Elena Berkovich,Amateur Masters 40-44,1972,Russia,53.90,,,,,57.5,60.0,62.5,62.5,,,,,,,62.5,56,F,Елена Беркович,B
Yes,Raw,1,Anna Tokmakova,Amateur Juniors 20-23,1993,Russia,59.05,,,,,50.0,-57.5,-57.5,50.0,,,,,,,50.0,60,F,Анна Токмакова,B
Yes,Raw,1,Viktoriya Petrova,Amateur Open,1983,Russia,58.00,,,,,62.5,-67.5,-67.5,62.5,,,,,,,62.5,60,F,Виктория Петрова,B
Yes,Raw,1,Kseniya Schekina,Amateur Teen 18-19,1995,Russia,66.80,,,,,50.0,60.0,65.0,65.0,,,,,,,65.0,67.5,F,Ксения Щекина,B
Yes,Raw,1,Yuliya Kuznetsova,Amateur Open,1973,Russia,62.70,,,,,65.0,80.0,85.0,85.0,,,,,,,85.0,67.5,F,Юлия Кузнецова,B
Yes,Raw,2,Elena Mazavina,Amateur Open,1979,Russia,65.00,,,,,75.0,77.5,80.0,80.0,,,,,,,80.0,67.5,F,Елена Мазавина,B
Yes,Raw,3,Tatyana Obraztsova,Amateur Open,1978,Russia,65.20,,,,,60.0,65.0,-67.5,65.0,,,,,,,65.0,67.5,F,Татьяна Образцова,B
Yes,Raw,4,Mariya Novikova,Amateur Open,1981,Russia,64.90,,,,,45.0,-47.5,-47.5,45.0,,,,,,,45.0,67.5,F,Мария Новикова,B
Yes,Raw,1,Yuliya Kuznetsova,Amateur Masters 40-44,1973,Russia,62.70,,,,,65.0,70.0,75.0,75.0,77.5,,,,,,75.0,67.5,F,Юлия Кузнецова,B
Yes,Raw,1,Darya Rodionova,Amateur Open,1983,Russia,78.50,,,,,75.0,80.0,-82.5,80.0,,,,,,,80.0,82.5,F,Дарья Родионова,B
Yes,Raw,1,Fedor Zakharov,Amateur Teen 13-15,1999,Russia,55.20,,,,,80.0,-87.5,-87.5,80.0,,,,,,,80.0,56,M,Федор Захаров,B
Yes,Raw,1,Aleksandr Pchelintsev,Amateur Open,1986,Russia,57.70,,,,,105.0,-112.5,-112.5,105.0,,,,,,,105.0,60,M,Александр Пчелинцев,B
Yes,Raw,1,Maksim Tibukin,Amateur Teen 16-17,1996,Russia,64.30,,,,,90.0,95.0,100.0,100.0,,,,,,,100.0,67.5,M,Максим Тибукин,B
Yes,Raw,1,Andrei Rudakov,Amateur Teen 18-19,1996,Russia,65.10,,,,,107.5,-112.5,112.5,112.5,,,,,,,112.5,67.5,M,Андрей Рудаков,B
Yes,Raw,1,Ivan Luchenkov,Amateur Juniors 20-23,1991,Russia,63.00,,,,,120.0,125.0,-127.5,125.0,,,,,,,125.0,67.5,M,Иван Лученков,B
Yes,Raw,2,Evgeniy Nechaev,Amateur Juniors 20-23,1993,Russia,65.00,,,,,125.0,-132.5,,125.0,,,,,,,125.0,67.5,M,Евгений Нечаев,B
Yes,Raw,3,Aleksey Popovich,Amateur Juniors 20-23,1991,Russia,63.50,,,,,-107.5,107.5,,107.5,,,,,,,107.5,67.5,M,Алексей Попович,B
Yes,Raw,1,Dmitriy Mitin,Amateur Open,1984,Russia,65.40,,,,,125.0,130.0,132.5,132.5,,,,,,,132.5,67.5,M,Дмитрий Митин,B
Yes,Raw,2,Maksim Kanapiev,Amateur Open,1987,Russia,67.50,,,,,120.0,125.0,127.5,127.5,,,,,,,127.5,67.5,M,Максим Канапиев,B
Yes,Raw,3,Dmitriy Chekhoev,Amateur Open,1990,Russia,64.80,,,,,-100.0,107.5,110.0,110.0,,,,,,,110.0,67.5,M,Дмитрий Чехоев,B
Yes,Raw,4,Ilya Prikhodko,Amateur Open,1990,Russia,67.20,,,,,-102.5,105.0,107.5,107.5,,,,,,,107.5,67.5,M,Илья Приходько,B
Yes,Raw,5,Petr Pautov,Amateur Open,1984,Russia,66.80,,,,,100.0,-107.5,-107.5,100.0,,,,,,,100.0,67.5,M,Петр Паутов,B
Yes,Raw,DQ,Sergey Ovchinnikov,Amateur Open,1982,Russia,61.40,,,,,-80.0,-87.5,-87.5,,,,,,,,,67.5,M,Сергей Овчинников,B
Yes,Raw,DQ,Dmitriy Shesterov,Amateur Open,1987,Russia,67.50,,,,,-107.5,-107.5,-107.5,,,,,,,,,67.5,M,Дмитрий Шестеров,B
Yes,Raw,1,Leonid Abramovich,Amateur Masters 75-79,1939,Russia,62.90,,,,,85.0,-87.5,,85.0,,,,,,,85.0,67.5,M,Леонид Абрамович,B
Yes,Raw,1,Egor Kalyakin,Amateur Teen 13-15,1999,Russia,71.90,,,,,110.0,-117.5,-117.5,110.0,,,,,,,110.0,75,M,Егор Калякин,B
Yes,Raw,1,Nail Galimulin,Amateur Teen 16-17,1996,Russia,73.80,,,,,-100.0,-100.0,105.0,105.0,,,,,,,105.0,75,M,Наиль Галимулин,B
Yes,Raw,1,Daniil Kryukov,Amateur Teen 18-19,1995,Russia,73.50,,,,,117.5,-122.5,-122.5,117.5,,,,,,,117.5,75,M,Даниил Крюков,B
Yes,Raw,2,Pavel Zakharov #3,Amateur Teen 18-19,1995,Russia,75.00,,,,,110.0,-115.0,-115.0,110.0,,,,,,,110.0,75,M,Павел Захаров,B
Yes,Raw,DQ,Ruben Kazaryan,Amateur Teen 18-19,1995,Russia,75.00,,,,,-100.0,,,,,,,,,,,75,M,Рубен Казарян,B
Yes,Raw,1,Anatoliy Goryachev,Amateur Juniors 20-23,1990,Russia,74.75,,,,,130.0,135.0,-145.0,135.0,,,,,,,135.0,75,M,Анатолий Горячев,B
Yes,Raw,2,Ilya Churikov,Amateur Juniors 20-23,1991,Russia,70.80,,,,,132.5,-137.5,-137.5,132.5,,,,,,,132.5,75,M,Илья Чуриков,B
Yes,Raw,3,Maksim Salishev,Amateur Juniors 20-23,1993,Russia,72.85,,,,,-117.5,120.0,-130.0,120.0,,,,,,,120.0,75,M,Максим Салишев,B
Yes,Raw,4,Vitaliy Politaev,Amateur Juniors 20-23,1992,Russia,73.10,,,,,-112.5,117.5,-122.5,117.5,,,,,,,117.5,75,M,Виталий Политаев,B
Yes,Raw,DQ,Nikita Bobrov,Amateur Juniors 20-23,1994,Russia,70.20,,,,,-110.0,,,,,,,,,,,75,M,Никита Бобров,B
Yes,Raw,1,Denis Sokov,Amateur Open,1985,Russia,70.90,,,,,135.0,-140.0,145.0,145.0,,,,,,,145.0,75,M,Денис Соков,B
Yes,Raw,2,Maksim Baukin,Amateur Open,1981,Russia,74.85,,,,,145.0,-155.0,-155.0,145.0,,,,,,,145.0,75,M,Максим Баукин,B
Yes,Raw,3,Sergey Sildiryan,Amateur Open,1988,Russia,70.60,,,,,110.0,117.5,-125.0,117.5,,,,,,,117.5,75,M,Сергей Сильдирян,B
Yes,Raw,4,Sergey Polosin,Amateur Open,1989,Russia,71.70,,,,,117.5,-125.0,-127.5,117.5,,,,,,,117.5,75,M,Сергей Полосин,B
Yes,Raw,5,Sergey Ulmer,Amateur Open,1977,Russia,74.30,,,,,107.5,112.5,-117.5,112.5,,,,,,,112.5,75,M,Сергей Ульмер,B
Yes,Raw,6,Andrey Evtikheev,Amateur Open,1989,Russia,69.60,,,,,105.0,-112.5,-112.5,105.0,,,,,,,105.0,75,M,Андрей Евтихеев,B
Yes,Raw,7,Artem Glazatov,Amateur Open,1989,Russia,72.65,,,,,-95.0,105.0,-117.5,105.0,,,,,,,105.0,75,M,Артем Глазатов,B
Yes,Raw,DQ,Aleksey Levashov,Amateur Open,1978,Russia,74.15,,,,,-112.5,-112.5,-112.5,,,,,,,,,75,M,Алексей Левашов,B
Yes,Raw,1,Nikolay Lysenkov,Amateur Masters 40-44,1973,Russia,71.60,,,,,100.0,-105.0,-107.5,100.0,,,,,,,100.0,75,M,Николай Лысенков,B
Yes,Raw,1,Oleg Vinokurov,Amateur Masters 45-49,1966,Russia,73.80,,,,,100.0,110.0,-115.0,110.0,,,,,,,110.0,75,M,Олег Винокуров,B
Yes,Raw,1,Daniil Nasyrov,Amateur Teen 13-15,1999,Russia,78.10,,,,,80.0,90.0,-95.0,90.0,,,,,,,90.0,82.5,M,Даниил Насыров,B
Yes,Raw,1,Nikita Nagaytsev,Amateur Teen 16-17,1997,Russia,77.10,,,,,107.5,-115.0,-115.0,107.5,,,,,,,107.5,82.5,M,Никита Нагайцев,B
Yes,Raw,2,Tomas Leviev,Amateur Teen 16-17,1997,Russia,81.65,,,,,105.0,-115.0,-115.0,105.0,,,,,,,105.0,82.5,M,Томас Левиев,B
Yes,Raw,1,Mikhail Pavlenko,Amateur Teen 18-19,1995,Russia,77.80,,,,,115.0,-127.5,127.5,127.5,,,,,,,127.5,82.5,M,Михаил Павленко,B
Yes,Raw,DQ,Dmitriy Voystrochenko,Amateur Teen 18-19,1994,Russia,78.90,,,,,-120.0,-120.0,-120.0,,,,,,,,,82.5,M,Дмитрий Войстроченко,B
Yes,Raw,1,Turpal Aytukaev,Amateur Juniors 20-23,1993,Russia,81.35,,,,,145.0,150.0,152.5,152.5,,,,,,,152.5,82.5,M,Турпал Айтукаев,B
Yes,Raw,2,Ivan Grigoryev,Amateur Juniors 20-23,1990,Russia,81.00,,,,,130.0,140.0,150.0,150.0,,,,,,,150.0,82.5,M,Иван Григорьев,B
Yes,Raw,3,Aleksandr Prischepo,Amateur Juniors 20-23,1991,Russia,80.60,,,,,120.0,125.0,-132.5,125.0,,,,,,,125.0,82.5,M,Александр Прищепо,B
Yes,Raw,4,Maksim Gromov,Amateur Juniors 20-23,1990,Russia,79.00,,,,,110.0,115.0,-117.5,115.0,,,,,,,115.0,82.5,M,Максим Громов,B
Yes,Raw,5,Vladislav Grankin,Amateur Juniors 20-23,1993,Russia,80.80,,,,,107.5,112.5,-117.5,112.5,,,,,,,112.5,82.5,M,Владислав Гранкин,B
Yes,Raw,DQ,Aleksandr Aleksandrov #5,Amateur Juniors 20-23,1990,Russia,82.40,,,,,-145.0,-145.0,-145.0,,,,,,,,,82.5,M,Александр Александров,B
Yes,Raw,1,Aleksey Smirnov,Amateur Open,1987,Russia,81.40,,,,,160.0,165.0,167.5,167.5,,,,,,,167.5,82.5,M,Алексей Смирнов,B
Yes,Raw,2,Aleksandr Lebedev,Amateur Open,1986,Russia,79.80,,,,,150.0,157.5,165.0,165.0,,,,,,,165.0,82.5,M,Александр Лебедев,B
Yes,Raw,3,Sergey Pavlov,Amateur Open,1986,Russia,81.40,,,,,127.5,-135.0,135.0,135.0,,,,,,,135.0,82.5,M,Сергей Павлов,B
Yes,Raw,4,Mikhail Zuev,Amateur Open,1985,Russia,78.70,,,,,125.0,-130.0,-130.0,125.0,,,,,,,125.0,82.5,M,Михаил Зуев,B
Yes,Raw,5,Maksim Strelchenko,Amateur Open,1989,Russia,78.20,,,,,110.0,117.5,-125.0,117.5,,,,,,,117.5,82.5,M,Максим Стрельченко,B
Yes,Raw,1,Vladimir Schegolkov,Amateur Masters 40-44,1973,Russia,82.20,,,,,160.0,167.5,172.5,172.5,,,,,,,172.5,82.5,M,Владимир Щегольков,B
Yes,Raw,1,Ruslan Belozub,Amateur Masters 45-49,1967,Russia,80.40,,,,,-122.5,122.5,127.5,127.5,,,,,,,127.5,82.5,M,Руслан Белозуб,B
Yes,Raw,1,Vladimir Kulakov,Amateur Masters 55-59,1955,Russia,77.00,,,,,85.0,,,85.0,,,,,,,85.0,82.5,M,Владимир Кулаков,B
Yes,Raw,1,Vladislav Karpov,Amateur Teen 16-17,1997,Russia,87.70,,,,,-145.0,145.0,152.5,152.5,,,,,,,152.5,90,M,Владислав Карпов,B
Yes,Raw,1,Bogdan Egorov,Amateur Teen 18-19,1995,Russia,84.40,,,,,145.0,-152.5,-152.5,145.0,,,,,,,145.0,90,M,Богдан Егоров,B
Yes,Raw,1,Sergey Sidorov,Amateur Juniors 20-23,1993,Russia,85.50,,,,,140.0,-147.5,147.5,147.5,,,,,,,147.5,90,M,Сергей Сидоров,B
Yes,Raw,2,Denis Stepanov,Amateur Juniors 20-23,1991,Russia,83.70,,,,,-132.5,135.0,-142.5,135.0,,,,,,,135.0,90,M,Денис Степанов,B
Yes,Raw,3,Kirill Frolushkin,Amateur Juniors 20-23,1994,Russia,88.00,,,,,132.5,-135.0,-135.0,132.5,,,,,,,132.5,90,M,Кирилл Фролушкин,B
Yes,Raw,1,Dmitriy Bessolov,Amateur Open,1984,Russia,87.80,,,,,160.0,165.0,170.0,170.0,,,,,,,170.0,90,M,Дмитрий Бессолов,B
Yes,Raw,2,Aleksey Maksyagin,Amateur Open,1982,Russia,86.70,,,,,155.0,162.5,165.0,165.0,,,,,,,165.0,90,M,Алексей Максягин,B
Yes,Raw,3,Ilya Makovetskiy,Amateur Open,1987,Russia,88.60,,,,,-155.0,157.5,-162.5,157.5,,,,,,,157.5,90,M,Илья Маковецкий,B
Yes,Raw,4,Pavel Tumm,Amateur Open,1976,Russia,87.40,,,,,145.0,152.5,155.0,155.0,,,,,,,155.0,90,M,Павел Тумм,B
Yes,Raw,5,Aleksey Kislitsin,Amateur Open,1984,Russia,89.40,,,,,140.0,152.5,-160.0,152.5,,,,,,,152.5,90,M,Алексей Кислицин,B
Yes,Raw,6,Petr Zakharov,Amateur Open,1985,Russia,84.90,,,,,-132.5,132.5,-137.5,132.5,,,,,,,132.5,90,M,Петр Захаров,B
Yes,Raw,7,Anton Moroz,Amateur Open,1988,Russia,85.30,,,,,125.0,-132.5,132.5,132.5,,,,,,,132.5,90,M,Антон Мороз,B
Yes,Raw,8,Mikhail Potkin,Amateur Open,1988,Russia,87.20,,,,,100.0,120.0,132.5,132.5,,,,,,,132.5,90,M,Михаил Поткин,B
Yes,Raw,9,Denis Lobanov,Amateur Open,1986,Russia,88.40,,,,,125.0,132.5,-137.5,132.5,,,,,,,132.5,90,M,Денис Лобанов,B
Yes,Raw,10,Aleksey Chernyakov,Amateur Open,1978,Russia,89.00,,,,,115.0,122.5,127.5,127.5,,,,,,,127.5,90,M,Алексей Черняков,B
Yes,Raw,11,Aleksey Borisov,Amateur Open,1987,Russia,90.00,,,,,120.0,125.0,-127.5,125.0,,,,,,,125.0,90,M,Алексей Борисов,B
Yes,Raw,DQ,Roman Scherbakov,Amateur Open,1978,Russia,87.80,,,,,-132.5,-132.5,-132.5,,,,,,,,,90,M,Роман Щербаков,B
Yes,Raw,DQ,Aleksey Fursov,Amateur Open,1987,Russia,88.90,,,,,-120.0,-120.0,-120.0,,,,,,,,,90,M,Алексей Фурсов,B
Yes,Raw,DQ,Stanislav Bogomolov,Amateur Open,1984,Russia,89.70,,,,,-140.0,-152.5,-152.5,,,,,,,,,90,M,Станислав Богомолов,B
Yes,Raw,1,Sergey Yarochkin,Amateur Masters 40-44,1971,Russia,88.65,,,,,147.5,152.5,-155.0,152.5,,,,,,,152.5,90,M,Сергей Ярочкин,B
Yes,Raw,2,Dmitriy Korotkov,Amateur Masters 40-44,1972,Russia,87.50,,,,,135.0,145.0,-152.5,145.0,,,,,,,145.0,90,M,Дмитрий Коротков,B
Yes,Raw,1,Igor Polunin,Amateur Masters 45-49,1966,Russia,88.00,,,,,110.0,-115.0,-115.0,110.0,,,,,,,110.0,90,M,Игорь Полунин,B
Yes,Raw,1,Nikolay Kostev,Amateur Masters 50-54,1959,Russia,84.80,,,,,150.0,160.0,-162.5,160.0,,,,,,,160.0,90,M,Николай Костев,B
Yes,Raw,2,Sergey Bazanov,Amateur Masters 50-54,1962,Russia,84.70,,,,,150.0,155.0,157.5,157.5,,,,,,,157.5,90,M,Сергей Базанов,B
Yes,Raw,1,Mark Blokh,Amateur Teen 16-17,1997,Russia,99.25,,,,,-140.0,140.0,-162.5,140.0,,,,,,,140.0,100,M,Марк Блох,B
Yes,Raw,1,Kirill Sergeev,Amateur Teen 18-19,1995,Russia,94.90,,,,,-115.0,-115.0,115.0,115.0,,,,,,,115.0,100,M,Кирилл Сергеев,B
Yes,Raw,2,Ivan Uspenskiy,Amateur Teen 18-19,1994,Russia,90.95,,,,,100.0,-107.5,-112.5,100.0,,,,,,,100.0,100,M,Иван Успенский,B
Yes,Raw,1,Vadim Drozd,Amateur Juniors 20-23,1991,Russia,98.75,,,,,-150.0,-150.0,150.0,150.0,,,,,,,150.0,100,M,Вадим Дрозд,B
Yes,Raw,2,Mikhail Chernov,Amateur Juniors 20-23,1992,Russia,95.30,,,,,130.0,140.0,-145.0,140.0,,,,,,,140.0,100,M,Михаил Чернов,B
Yes,Raw,3,Ilya Obraztsov,Amateur Juniors 20-23,1991,Russia,97.80,,,,,140.0,-147.5,-150.0,140.0,,,,,,,140.0,100,M,Илья Образцов,B
Yes,Raw,1,Andris Kibilds,Amateur Open,1983,Russia,98.00,,,,,165.0,175.0,-185.0,175.0,,,,,,,175.0,100,M,Андрис Кибилдс,B
Yes,Raw,2,Stanislav Brzhevskiy,Amateur Open,1983,Russia,97.60,,,,,162.5,167.5,172.5,172.5,,,,,,,172.5,100,M,Станислав Бржевский,B
Yes,Raw,3,Aleksey Pustovoytov,Amateur Open,1984,Russia,94.60,,,,,155.0,160.0,165.0,165.0,,,,,,,165.0,100,M,Алексей Пустовойтов,B
Yes,Raw,4,Kirill Antonov,Amateur Open,1988,Russia,95.40,,,,,-152.5,152.5,-162.5,152.5,,,,,,,152.5,100,M,Кирилл Антонов,B
Yes,Raw,5,Nikolay Kurshinskiy,Amateur Open,1985,Russia,97.00,,,,,152.5,-162.5,-162.5,152.5,,,,,,,152.5,100,M,Николай Куршинский,B
Yes,Raw,6,Andrey Imenyev,Amateur Open,1989,Russia,94.60,,,,,-130.0,135.0,140.0,140.0,,,,,,,140.0,100,M,Андрей Именьев,B
Yes,Raw,7,Sabir Shamsutdinov,Amateur Open,1982,Russia,95.50,,,,,-140.0,-140.0,140.0,140.0,,,,,,,140.0,100,M,Сабир Шамсутдинов,B
Yes,Raw,8,Dmtriy Nadrov,Amateur Open,1988,Russia,96.50,,,,,135.0,140.0,-147.5,140.0,,,,,,,140.0,100,M,Дмтрий Надров,B
Yes,Raw,9,Sergey Andreev,Amateur Open,1985,Russia,98.80,,,,,135.0,140.0,-145.0,140.0,,,,,,,140.0,100,M,Сергей Андреев,B
Yes,Raw,1,Sergey Matveev,Amateur Masters 40-44,1973,Russia,96.30,,,,,-180.0,180.0,-190.0,180.0,,,,,,,180.0,100,M,Сергей Матвеев,B
Yes,Raw,2,Igor Shinov,Amateur Masters 40-44,1970,Russia,92.50,,,,,165.0,170.0,175.0,175.0,,,,,,,175.0,100,M,Игорь Шинов,B
Yes,Raw,DD,Aleksandr Vlasenko,Amateur Masters 40-44,1972,Russia,97.05,,,,,150.0,-162.5,-162.5,150.0,,,,,,,,100,M,Александр Власенко,B
Yes,Raw,1,Sergey Verzhanovskiy,Amateur Masters 45-49,1967,Russia,100.00,,,,,170.0,180.0,-185.0,180.0,,,,,,,180.0,100,M,Сергей Вержановский,B
Yes,Raw,2,Yuriy Lyubach,Amateur Masters 45-49,1968,Russia,94.00,,,,,125.0,130.0,135.0,135.0,,,,,,,135.0,100,M,Юрий Любач,B
Yes,Raw,1,Mikhail Prokopov,Amateur Masters 55-59,1956,Russia,97.90,,,,,140.0,150.0,155.0,155.0,,,,,,,155.0,100,M,Михаил Прокопов,B
Yes,Raw,1,Gennadiy Obmelyukhin,Amateur Masters 65-69,1948,Russia,91.20,,,,,110.0,117.5,122.5,122.5,,,,,,,122.5,100,M,Геннадий Обмелюхин,B
Yes,Raw,1,Dmitriy Markelov,Amateur Teen 16-17,1998,Russia,107.00,,,,,-130.0,130.0,135.0,135.0,,,,,,,135.0,110,M,Дмитрий Маркелов,B
Yes,Raw,1,Vitaliy Parmut,Amateur Open,1987,Russia,101.80,,,,,150.0,170.0,-180.0,170.0,,,,,,,170.0,110,M,Виталий Пармут,B
Yes,Raw,2,Sergey Povstanyuk,Amateur Open,1985,Russia,108.80,,,,,157.5,-162.5,-162.5,157.5,,,,,,,157.5,110,M,Сергей Повстанюк,B
Yes,Raw,3,Lyubomir Makashin,Amateur Open,1983,Russia,107.20,,,,,140.0,147.5,-155.0,147.5,,,,,,,147.5,110,M,Любомир Макашин,B
Yes,Raw,1,Sergey Gershtanskiy,Amateur Masters 40-44,1974,Russia,105.55,,,,,-145.0,145.0,-147.5,145.0,,,,,,,145.0,110,M,Сергей Герштанский,B
Yes,Raw,DD,Aleksandr Dmitriev,Amateur Masters 50-54,1964,Russia,103.60,,,,,155.0,165.0,-170.0,165.0,,,,,,,,110,M,Александр Дмитриев,B
Yes,Raw,1,Vyacheslav Popkov,Amateur Open,1984,Russia,121.90,,,,,177.5,185.0,-202.5,185.0,,,,,,,185.0,125,M,Вячеслав Попков,B
Yes,Raw,2,Aleksandr Morozov,Amateur Open,1987,Russia,120.75,,,,,160.0,170.0,-175.0,170.0,,,,,,,170.0,125,M,Александр Морозов,B
Yes,Raw,3,Vladimir Maksyutenko,Amateur Open,1986,Russia,115.20,,,,,152.5,157.5,160.0,160.0,,,,,,,160.0,125,M,Владимир Максютенко,B
Yes,Raw,DQ,Vyacheslav Khodakovskiy,Amateur Open,1986,Russia,115.00,,,,,-122.5,-122.5,-122.5,,,,,,,,,125,M,Вячеслав Ходаковский,B
Yes,Raw,1,Vadim Pchelkin,Amateur Masters 40-44,1971,Russia,116.50,,,,,195.0,205.0,-210.0,205.0,,,,,,,205.0,125,M,Вадим Пчелкин,B
Yes,Raw,1,Andrey Khramtsov,Amateur Open,1984,Russia,125.80,,,,,200.0,210.0,-215.0,210.0,,,,,,,210.0,140,M,Андрей Храмцов,B
Yes,Multi-ply,DQ,Yuri Solovyev,Amateur Open,1974,Russia,102.50,,,,,-270.0,-270.0,-272.5,,,,,,,,,110,M,Юрий Соловьев,B
Yes,Single-ply,1,Dilyara Nasyrova,Amateur Teen 18-19,1996,Russia,54.65,,,,,55.0,60.0,-65.0,60.0,,,,,,,60.0,56,F,Диляра Насырова,B
Yes,Single-ply,1,Andrey Dezhin,Amateur Juniors 20-23,1992,Russia,66.70,,,,,135.0,142.5,-147.5,142.5,,,,,,,142.5,67.5,M,Андрей Дежин,B
Yes,Single-ply,1,Andrey Dezhin,Amateur Open,1992,Russia,66.70,,,,,135.0,142.5,-147.5,142.5,,,,,,,142.5,67.5,M,Андрей Дежин,B
Yes,Single-ply,DQ,Kirill Frolushkin,Amateur Juniors 20-23,1994,Russia,88.00,,,,,-150.0,-150.0,-150.0,,,,,,,,,90,M,Кирилл Фролушкин,B
Yes,Single-ply,1,Aleksandr Dorofeev,Amateur Open,1981,Russia,98.10,,,,,185.0,195.0,200.0,200.0,,,,,,,200.0,100,M,Александр Дорофеев,B
Yes,Single-ply,1,Aleksandr Ratnikov,Amateur Open,1984,Russia,97.60,,,,,-162.5,162.5,,162.5,,,,,,,162.5,100,M,Александр Ратников,B
No,Raw,1,Alena Belozerova,Pro Open,1986,Russia,58.80,,,,,-50.0,50.0,52.5,52.5,,,,,,,52.5,60,F,Алена Белозерова,B
No,Raw,1,Anzhela Kulagina,Pro Open,1988,Russia,63.80,,,,,80.0,90.0,-95.0,90.0,,,,,,,90.0,67.5,F,Анжела Кулагина,B
No,Raw,2,Kristina Gurova,Pro Open,1987,Russia,64.90,,,,,60.0,-65.0,-65.0,60.0,,,,,,,60.0,67.5,F,Кристина Гурова,B
No,Raw,1,Marina Sinotova,Pro Open,1988,Russia,71.40,,,,,65.0,70.0,-75.0,70.0,,,,,,,70.0,75,F,Марина Синотова,B
No,Raw,1,Natalya Trukhina,Pro Juniors 20-23,1991,Russia,80.10,,,,,110.0,120.0,-132.5,120.0,,,,,,,120.0,82.5,F,Наталья Трухина,B
No,Raw,1,Aleksey Balashov,Pro Open,1990,Russia,59.30,,,,,-80.0,80.0,87.5,87.5,,,,,,,87.5,60,M,Алексей Балашов,B
No,Raw,1,Andrei Zhilin,Pro Open,1980,Russia,67.25,,,,,120.0,122.5,,122.5,,,,,,,122.5,67.5,M,Андрей Жилин,B
No,Raw,1,Rinat Khusainov,Pro Juniors 20-23,1993,Russia,81.20,,,,,130.0,140.0,150.0,150.0,,,,,,,150.0,82.5,M,Ринат Хусаинов,B
No,Raw,2,Vladislav Dolgopolov,Pro Juniors 20-23,1991,Russia,79.45,,,,,-130.0,-130.0,130.0,130.0,,,,,,,130.0,82.5,M,Владислав Долгополов,B
No,Raw,1,Valeriy Kovalev,Pro Open,1981,Russia,80.85,,,,,127.5,132.5,137.5,137.5,,,,,,,137.5,82.5,M,Валерий Ковалев,B
No,Raw,2,Vladimir Kazemirov,Pro Open,1986,Russia,81.55,,,,,132.5,-147.5,-150.0,132.5,,,,,,,132.5,82.5,M,Владимир Каземиров,B
No,Raw,3,Nikolay Petrakovich,Pro Open,1979,Russia,76.30,,,,,130.0,-135.0,-135.0,130.0,,,,,,,130.0,82.5,M,Николай Петракович,B
No,Raw,1,Andrey Kartsev,Pro Open,1987,Russia,84.60,,,,,-180.0,-180.0,180.0,180.0,,,,,,,180.0,90,M,Андрей Карцев,B
No,Raw,2,Semen Lyubimskiy,Pro Open,1986,Russia,86.80,,,,,175.0,180.0,-185.0,180.0,,,,,,,180.0,90,M,Семен Любимский,B
No,Raw,3,Ilya Snezhkov,Pro Open,1989,Russia,89.00,,,,,-180.0,180.0,-185.0,180.0,,,,,,,180.0,90,M,Илья Снежков,B
No,Raw,4,Viktor Eliseev,Pro Open,1987,Russia,89.20,,,,,170.0,175.0,-180.0,175.0,,,,,,,175.0,90,M,Виктор Елисеев,B
No,Raw,5,Aleksandr Zotov,Pro Open,1986,Russia,87.40,,,,,125.0,130.0,132.5,132.5,,,,,,,132.5,90,M,Александр Зотов,B
No,Raw,DQ,Ivan Kashubo,Pro Open,1983,Russia,88.55,,,,,-200.0,-200.0,-200.0,,,,,,,,,90,M,Иван Кашубо,B
No,Raw,DQ,Anton Doroshenkov,Pro Open,1979,Russia,89.50,,,,,-170.0,-170.0,,,,,,,,,,90,M,Антон Дорошенков,B
No,Raw,1,Sergey Goncharov,Pro Masters 60-64,1952,Russia,85.00,,,,,120.0,125.0,130.0,130.0,,,,,,,130.0,90,M,Сергей Гончаров,B
No,Raw,1,Valentin Nor,Pro Juniors 20-23,1993,Russia,100.00,,,,,165.0,175.0,185.0,185.0,,,,,,,185.0,100,M,Валентин Нор,B
No,Raw,1,Anton Dzhafyarov,Pro Open,1985,Russia,94.80,,,,,190.0,200.0,-205.0,200.0,,,,,,,200.0,100,M,Антон Джафяров,B
No,Raw,2,Aleksandr Tyschenko,Pro Open,1986,Russia,98.80,,,,,185.0,195.0,197.5,197.5,,,,,,,197.5,100,M,Александр Тыщенко,B
No,Raw,3,Mikhail Kostromin,Pro Open,1987,Russia,97.50,,,,,195.0,-200.0,-200.0,195.0,,,,,,,195.0,100,M,Михаил Костромин,B
No,Raw,4,Aleksey Gamayunov,Pro Open,1987,Russia,97.70,,,,,185.0,190.0,195.0,195.0,,,,,,,195.0,100,M,Алексей Гамаюнов,B
No,Raw,5,Andrey Gogolev,Pro Open,1987,Russia,98.35,,,,,190.0,-200.0,-200.0,190.0,,,,,,,190.0,100,M,Андрей Гоголев,B
No,Raw,6,Denis Borisov,Pro Open,1977,Russia,96.20,,,,,180.0,-190.0,-190.0,180.0,,,,,,,180.0,100,M,Денис Борисов,B
No,Raw,1,Aleksandr Gorshkov,Pro Masters 45-49,1967,Russia,95.65,,,,,190.0,-200.0,200.0,200.0,,,,,,,200.0,100,M,Александр Горшков,B
No,Raw,2,Andrey Nikulin,Pro Masters 45-49,1967,Russia,97.00,,,,,-190.0,-190.0,190.0,190.0,,,,,,,190.0,100,M,Андрей Никулин,B
No,Raw,1,Dmitriy Rogatin,Pro Open,1984,Russia,105.30,,,,,-215.0,215.0,-227.5,215.0,,,,,,,215.0,110,M,Дмитрий Рогатин,B
No,Raw,2,Vladislav Sidorenko,Pro Open,1987,Russia,105.70,,,,,195.0,205.0,215.0,215.0,,,,,,,215.0,110,M,Владислав Сидоренко,B
No,Raw,3,Nikita Tulyakov,Pro Open,1988,Russia,106.40,,,,,170.0,180.0,-182.5,180.0,,,,,,,180.0,110,M,Никита Туляков,B
No,Raw,4,Ruslan Tarasov,Pro Open,1982,Russia,106.90,,,,,-180.0,180.0,-185.0,180.0,,,,,,,180.0,110,M,Руслан Тарасов,B
No,Raw,1,Kirill Potekhin,Pro Masters 40-44,1971,Russia,100.70,,,,,170.0,180.0,-187.5,180.0,,,,,,,180.0,110,M,Кирилл Потехин,B
No,Raw,DQ,Eduard Dmitriev,Pro Masters 40-44,1972,Russia,108.90,,,,,-200.0,-200.0,-200.0,,,,,,,,,110,M,Эдуард Дмитриев,B
No,Raw,1,Andrey Skorobogatko,Pro Masters 50-54,1963,Russia,110.00,,,,,140.0,150.0,155.0,155.0,,,,,,,155.0,110,M,Андрей Скоробогатько,B
No,Raw,2,Igor Kurotchenko,Pro Masters 50-54,1962,Russia,102.25,,,,,135.0,-145.0,150.0,150.0,,,,,,,150.0,110,M,Игорь Куротченко,B
No,Raw,1,Dmitriy Frank,Pro Teen 18-19,1994,Russia,112.50,,,,,190.0,-200.0,-200.0,190.0,,,,,,,190.0,125,M,Дмитрий Франк,B
No,Raw,1,Igor Muravyev,Pro Open,1985,Russia,110.10,,,,,215.0,-222.5,230.0,230.0,,,,,,,230.0,125,M,Игорь Муравьев,B
No,Raw,2,Yuriy Gavryushin,Pro Open,1983,Russia,120.60,,,,,230.0,-240.0,-240.0,230.0,,,,,,,230.0,125,M,Юрий Гаврюшин,B
No,Raw,3,Evgeniy Spirkin,Pro Open,1987,Russia,110.05,,,,,-215.0,215.0,-220.0,215.0,,,,,,,215.0,125,M,Евгений Спиркин,B
No,Raw,4,Mikhail Rumyantsev,Pro Open,1988,Russia,119.70,,,,,-215.0,215.0,-225.0,215.0,,,,,,,215.0,125,M,Михаил Румянцев,B
No,Raw,1,Yuriy Vartabedyan,Pro Open,1991,Russia,126.70,,,,,230.0,240.0,-245.0,240.0,,,,,,,240.0,140,M,Юрий Вартабедьян,B
No,Single-ply,1,Eduard Danilov,Pro Open,1988,Russia,67.25,,,,,-137.5,140.0,-157.5,140.0,,,,,,,140.0,67.5,M,Эдуард Данилов,B
No,Single-ply,1,Kirill Yurshin,Pro Open,1988,Russia,89.40,,,,,-235.0,240.0,-250.0,240.0,,,,,,,240.0,90,M,Кирилл Юршин,B
No,Single-ply,1,Marat Abdullin,Pro Open,1985,Russia,96.80,,,,,305.0,-315.0,-315.0,305.0,,,,,,,305.0,100,M,Марат Абдуллин,B
No,Single-ply,2,Oleg Loktionov,Pro Open,1977,Russia,97.40,,,,,220.0,230.0,-240.0,230.0,,,,,,,230.0,100,M,Олег Локтионов,B
No,Single-ply,3,Aleksandr Shishkin,Pro Open,1975,Russia,98.35,,,,,-210.0,-210.0,210.0,210.0,,,,,,,210.0,100,M,Александр Шишкин,B
No,Single-ply,1,Yuriy Medvedkov,Pro Open,1984,Russia,100.70,,,,,190.0,200.0,-210.0,200.0,,,,,,,200.0,110,M,Юрий Медведков,B
No,Single-ply,1,Roman Zalutskiy,Pro Open,1979,Russia,125.80,,,,,302.5,-310.0,-310.0,302.5,,,,,,,302.5,140,M,Роман Залуцкий,B
No,Multi-ply,DQ,Konstantin Sapunkov,Pro Open,1981,Russia,81.00,,,,,-210.0,-210.0,,,,,,,,,,82.5,M,Константин Сапунков,B
No,Multi-ply,DQ,Igor Kalyta,Pro Open,1982,Russia,97.70,,,,,-280.0,-280.0,-280.0,,,,,,,,,100,M,,B
No,Multi-ply,1,Mikhail Royanov,Pro Open,1977,Russia,103.00,,,,,245.0,260.0,-265.0,260.0,,,,,,,260.0,110,M,Михаил Роянов,B
No,Multi-ply,DQ,Roman Brekhov,Pro Open,1990,Russia,105.70,,,,,-265.0,-272.5,,,,,,,,,,110,M,Роман Брехов,B
Yes,Multi-ply,1,Elena Terekhova,Amateur Open,1987,Russia,73.60,,,,,,,,,,-120.0,-120.0,120.0,120.0,,120.0,75,F,Елена Терехова,D
Yes,Multi-ply,1,Vadim Arendaruk,Amateur Open,1982,Russia,73.60,,,,,,,,,,200.0,210.0,-215.0,210.0,,210.0,75,M,Вадим Арендарук,D
Yes,Multi-ply,1,Vladimir Kulakov,Amateur Open,1955,Russia,77.00,,,,,,,,,,120.0,130.0,,130.0,,130.0,82.5,M,Владимир Кулаков,D
Yes,Multi-ply,1,Vladimir Kulakov,Amateur Masters 55-59,1955,Russia,77.00,,,,,,,,,,120.0,130.0,,130.0,,130.0,82.5,M,Владимир Кулаков,D
Yes,Multi-ply,1,Aleksey Koshuba,Amateur Open,1980,Russia,89.00,,,,,,,,,,240.0,250.0,-260.0,250.0,,250.0,90,M,Алексей Кошуба,D
Yes,Multi-ply,1,Petr Samko,Amateur Open,1987,Russia,91.95,,,,,,,,,,200.0,215.0,-225.0,215.0,,215.0,100,M,Петр Самко,D
Yes,Multi-ply,2,Rafael Syamiullin,Amateur Open,1984,Russia,91.10,,,,,,,,,,180.0,200.0,-220.0,200.0,,200.0,100,M,Рафаэль Сямиуллин,D
Yes,Raw,1,Olesya Shishkina,Amateur Teen 18-19,1994,Russia,51.00,,,,,,,,,,95.0,100.0,102.5,102.5,,102.5,52,F,Олеся Шишкина,D
Yes,Raw,1,Yaroslavna Babushkina,Amateur Teen 18-19,1995,Russia,55.40,,,,,,,,,,70.0,82.5,87.5,87.5,,87.5,56,F,Ярославна Бабушкина,D
Yes,Raw,1,Lyudmila Nikonova,Amateur Open,1980,Russia,59.10,,,,,,,,,,117.5,127.5,132.5,132.5,,132.5,60,F,Людмила Никонова,D
Yes,Raw,DQ,Anastasiya Pykhova,Amateur Open,1989,Russia,74.60,,,,,,,,,,-130.0,,,,,,75,F,Анастасия Пыхова,D
Yes,Raw,1,Marina Maksimova,Amateur Masters 45-49,1967,Russia,79.80,,,,,,,,,,100.0,105.0,110.0,110.0,,110.0,82.5,F,Марина Максимова,D
Yes,Raw,1,Elena Moiseycheva,Amateur Open,1980,Russia,102.70,,,,,,,,,,135.0,148.0,-155.0,148,,148,90+,F,Елена Моисейчева,D
Yes,Raw,1,Anton Antipov,Amateur Open,1985,Russia,59.40,,,,,,,,,,150.0,160.0,172.5,172.5,,172.5,60,M,Антон Антипов,D
Yes,Raw,1,Artem Startsev,Amateur Teen 16-17,1996,Russia,65.00,,,,,,,,,,-165.0,165.0,-175.0,165.0,,165.0,67.5,M,Артем Старцев,D
Yes,Raw,DQ,Denis Kuznetsov,Amateur Juniors 20-23,1990,Russia,66.40,,,,,,,,,,-180.0,-180.0,,,,,67.5,M,Денис Кузнецов,D
Yes,Raw,1,Vadim Chernyshev,Amateur Teen 18-19,1995,Russia,74.00,,,,,,,,,,185.0,195.0,-202.5,195.0,,195.0,75,M,Вадим Чернышев,D
Yes,Raw,2,Daniil Kryukov,Amateur Teen 18-19,1995,Russia,73.50,,,,,,,,,,180.0,-205.0,-205.0,180.0,,180.0,75,M,Даниил Крюков,D
Yes,Raw,1,Denis Kosykh,Amateur Juniors 20-23,1991,Russia,73.90,,,,,,,,,,-170.0,170.0,177.5,177.5,,177.5,75,M,Денис Косых,D
Yes,Raw,1,Pavel Zubkov,Amateur Open,1985,Russia,73.50,,,,,,,,,,210.0,232.5,240.0,240.0,243.0,240.0,75,M,Павел Зубков,D
Yes,Raw,2,Aleksandr Grechukhin,Amateur Open,1989,Russia,73.40,,,,,,,,,,200.0,210.0,215.0,215.0,,215.0,75,M,Александр Гречухин,D
Yes,Raw,3,Dmitriy Gromov,Amateur Open,1987,Russia,70.55,,,,,,,,,,185.0,202.5,210.0,210.0,,210.0,75,M,Дмитрий Громов,D
Yes,Raw,4,Artur Plaksin,Amateur Open,1989,Russia,72.40,,,,,,,,,,202.5,-210.0,-210.0,202.5,,202.5,75,M,Артур Плаксин,D
Yes,Raw,5,Sergey Zotov,Amateur Open,1987,Russia,73.65,,,,,,,,,,190.0,-202.5,-202.5,190.0,,190.0,75,M,Сергей Зотов,D
Yes,Raw,6,Vladimir Paltov,Amateur Open,1979,Russia,72.60,,,,,,,,,,177.5,-182.5,,177.5,,177.5,75,M,Владимир Пальтов,D
Yes,Raw,8,Andrey Evtikheev,Amateur Open,1989,Russia,69.60,,,,,,,,,,165.0,-177.5,-177.5,165.0,,165.0,75,M,Андрей Евтихеев,D
Yes,Raw,DQ,Dmitriy Polivanov,Amateur Open,1975,Russia,72.95,,,,,,,,,,-190.0,-190.0,-195.0,,,,75,M,Дмитрий Поливанов,D
Yes,Raw,DD,Petr Lemeshkin,Amateur Open,1987,Russia,73.10,,,,,,,,,,202.5,-210.0,-210.0,202.5,,,75,M,Петр Лемешкин,D
Yes,Raw,1,Oleg Vinokurov,Amateur Masters 45-49,1966,Russia,73.80,,,,,,,,,,120.0,-135.0,135.0,135.0,,135.0,75,M,Олег Винокуров,D
Yes,Raw,1,Denis Davydov,Amateur Teen 16-17,1997,Russia,75.50,,,,,,,,,,180.0,190.0,-200.0,190.0,,190.0,82.5,M,Денис Давыдов,D
Yes,Raw,2,Georgiy Bebiashvili,Amateur Teen 16-17,1997,Russia,82.50,,,,,,,,,,-170.0,170.0,185.0,185.0,,185.0,82.5,M,Георгий Бебиашвили,D
Yes,Raw,1,Dmitriy Voystrochenko,Amateur Teen 18-19,1994,Russia,78.90,,,,,,,,,,175.0,180.0,185.0,185.0,,185.0,82.5,M,Дмитрий Войстроченко,D
Yes,Raw,2,Ruslan Adygozalov,Amateur Teen 18-19,1996,Russia,76.70,,,,,,,,,,165.0,175.0,-187.5,175.0,,175.0,82.5,M,Руслан Адыгозалов,D
Yes,Raw,1,Sergey Avdyakov,Amateur Juniors 20-23,1991,Russia,81.50,,,,,,,,,,185.0,200.0,,200.0,,200.0,82.5,M,Сергей Авдяков,D
Yes,Raw,2,Nikolay Poludennov,Amateur Juniors 20-23,1992,Russia,81.20,,,,,,,,,,185.0,195.0,-200.0,195.0,,195.0,82.5,M,Николай Полуденнов,D
Yes,Raw,3,Azer Savelyev,Amateur Juniors 20-23,1992,Russia,78.15,,,,,,,,,,170.0,185.0,190.0,190.0,,190.0,82.5,M,Азер Савельев,D
Yes,Raw,1,Yuriy Shirobokov,Amateur Open,1988,Russia,81.90,,,,,,,,,,230.0,240.0,245.0,245.0,-250.5,245.0,82.5,M,Юрий Широбоков,D
Yes,Raw,2,Vadim Malov,Amateur Open,1990,Russia,80.70,,,,,,,,,,205.0,215.0,222.5,222.5,,222.5,82.5,M,Вадим Малов,D
Yes,Raw,3,Aleksey Kotov,Amateur Open,1986,Russia,79.30,,,,,,,,,,190.0,202.5,-215.0,202.5,,202.5,82.5,M,Алексей Котов,D
Yes,Raw,4,Egor Adamov,Amateur Open,1988,Russia,78.10,,,,,,,,,,185.0,-200.0,200.0,200.0,,200.0,82.5,M,Егор Адамов,D
Yes,Raw,5,Aleksey Aleksandrov,Amateur Open,1985,Russia,80.00,,,,,,,,,,180.0,200.0,-215.0,200.0,,200.0,82.5,M,Алексей Александров,D
Yes,Raw,6,Sergey Ryazanov,Amateur Open,1972,Russia,81.30,,,,,,,,,,190.0,-195.0,-197.5,190.0,,190.0,82.5,M,Сергей Рязанов,D
Yes,Raw,7,Mikhail Sokolov,Amateur Open,1991,Russia,81.50,,,,,,,,,,130.0,150.0,162.5,162.5,,162.5,82.5,M,Михаил Соколов,D
Yes,Raw,1,Vladimir Kulakov,Amateur Masters 55-59,1955,Russia,77.00,,,,,,,,,,115.0,122.5,,122.5,,122.5,82.5,M,Владимир Кулаков,D
Yes,Raw,1,Gevorg Malashenko,Amateur Teen 18-19,1994,Russia,86.70,,,,,,,,,,130.0,160.0,-180.0,160.0,,160.0,90,M,Геворг Малашенко,D
Yes,Raw,1,Yaroslav Khvatov,Amateur Juniors 20-23,1994,Russia,87.00,,,,,,,,,,-200.0,200.0,210.0,210.0,,210.0,90,M,Ярослав Хватов,D
Yes,Raw,2,Evgeniy Klubnikin,Amateur Juniors 20-23,1991,Russia,85.60,,,,,,,,,,180.0,195.0,200.0,200.0,,200.0,90,M,Евгений Клубникин,D
Yes,Raw,1,Stanislav Trusof,Amateur Open,1985,Russia,88.05,,,,,,,,,,230.0,252.5,-262.5,252.5,,252.5,90,M,Станислав Трусов,D
Yes,Raw,2,Roman Kroshkin,Amateur Open,1981,Russia,89.15,,,,,,,,,,200.0,210.0,220.0,220.0,,220.0,90,M,Роман Крошкин,D
Yes,Raw,3,Pavel Samsonov,Amateur Open,1977,Russia,89.60,,,,,,,,,,202.5,207.5,-210.0,207.5,,207.5,90,M,Павел Самсонов,D
Yes,Raw,1,Sergey Sorokin,Amateur Masters 40-44,1973,Russia,87.60,,,,,,,,,,190.0,200.0,207.5,207.5,,207.5,90,M,Сергей Сорокин,D
Yes,Raw,1,Nikolay Kostev,Amateur Masters 55-59,1959,Russia,84.80,,,,,,,,,,150.0,165.0,175.0,175.0,,175.0,90,M,Николай Костев,D
Yes,Raw,1,Sergey Gramotkin,Amateur Masters 60-64,1952,Russia,87.50,,,,,,,,,,180.0,-190.0,190.0,190.0,,190.0,90,M,Сергей Грамоткин,D
Yes,Raw,1,Mikhail Kopytov,Amateur Juniors 20-23,1993,Russia,96.15,,,,,,,,,,190.0,-202.5,-202.5,190.0,,190.0,100,M,Михаил Копытов,D
Yes,Raw,1,Dmitriy Kalinin,Amateur Open,1970,Russia,95.00,,,,,,,,,,220.0,232.5,-235.0,232.5,,232.5,100,M,Дмитрий Калинин,D
Yes,Raw,2,Dmitriy Kazakov,Amateur Open,1976,Russia,95.50,,,,,,,,,,-225.0,-225.0,232.5,232.5,,232.5,100,M,Дмитрий Казаков,D
Yes,Raw,3,Ilya Chistyakov,Amateur Open,1988,Russia,98.30,,,,,,,,,,220.0,232.5,-240.0,232.5,,232.5,100,M,Илья Чистяков,D
Yes,Raw,4,Nikolay Ryabkov,Amateur Open,1983,Russia,95.75,,,,,,,,,,187.5,202.5,-207.5,202.5,,202.5,100,M,Николай Рябков,D
Yes,Raw,DD,Aleksandr Vlasenko,Amateur Masters 40-44,1972,Russia,97.05,,,,,,,,,,232.5,242.5,252.5,252.5,,,100,M,Александр Власенко,D
Yes,Raw,1,Aleksey Popov #12,Amateur Masters 45-49,1968,Belarus,99.00,,,,,,,,,,210.0,230.0,-245.0,230.0,,230.0,100,M,,D
Yes,Raw,1,Vitaliy Parmut,Amateur Open,1987,Russia,101.80,,,,,,,,,,-200.0,240.0,,240.0,,240.0,110,M,Виталий Пармут,D
Yes,Raw,DD,Roman Zverev,Amateur Open,1988,Russia,100.50,,,,,,,,,,280.0,302.5,,302.5,,,110,M,Роман Зверев,D
Yes,Raw,1,Sergey Evdokushin,Amateur Masters 40-44,1974,Russia,103.50,,,,,,,,,,200.0,212.5,225.0,225.0,,225.0,110,M,Сергей Евдокушин,D
Yes,Raw,2,Sergey Nikishin,Amateur Masters 40-44,1971,Russia,107.00,,,,,,,,,,210.0,225.0,-240.0,225.0,,225.0,110,M,Сергей Никишин,D
Yes,Raw,3,Aleksandr Smirnov,Amateur Masters 40-44,1974,Russia,106.40,,,,,,,,,,185.0,195.0,207.5,207.5,,207.5,110,M,Александр Смирнов,D
Yes,Raw,1,Igor Golovanov,Amateur Open,1983,Russia,122.50,,,,,,,,,,245.0,255.0,-265.0,255.0,,255.0,125,M,Игорь Голованов,D
Yes,Raw,2,Ivan Regulyarnyy,Amateur Open,1984,Russia,111.60,,,,,,,,,,220.0,250.0,-265.0,250.0,,250.0,125,M,Иван Регулярный,D
Yes,Raw,1,Vadim Pchelkin,Amateur Masters 40-44,1971,Russia,116.50,,,,,,,,,,240.0,260.0,272.5,272.5,,272.5,125,M,Вадим Пчелкин,D
Yes,Raw,1,Anton Ganzya,Amateur Open,1985,Russia,130.10,,,,,,,,,,200.0,225.0,-230.0,225.0,,225.0,140,M,Антон Ганзя,D
No,Raw,1,Aleksandr Gurkin,Pro Teen 18-19,1996,Russia,64.90,,,,,,,,,,135.0,145.0,150.0,150.0,,150.0,67.5,M,Александр Гуркин,D
No,Raw,1,Artemiy Litovchenko,Pro Open,1989,Russia,74.70,,,,,,,,,,145.0,157.5,-165.0,157.5,,157.5,75,M,Артемий Литовченко,D
No,Raw,1,Dmitriy Kovalenko,Pro Masters 40-44,1972,Russia,67.90,,,,,,,,,,110.0,125.0,130.0,130.0,,130.0,75,M,Дмитрий Коваленко,D
No,Raw,1,Marat Nekrasov,Pro Juniors 20-23,1990,Russia,81.30,,,,,,,,,,-200.0,200.0,-215.0,200.0,,200.0,82.5,M,Марат Некрасов,D
No,Raw,1,Pavel Kulkov,Pro Open,1980,Russia,77.60,,,,,,,,,,240.0,260.0,-280.0,260.0,,260.0,82.5,M,Павел Кульков,D
No,Raw,2,Sergey Goryunov,Pro Open,1987,Russia,80.30,,,,,,,,,,210.0,222.5,-235.0,222.5,,222.5,82.5,M,Сергей Горюнов,D
No,Raw,1,Pavel Sudakov,Pro Juniors 20-23,1991,Russia,88.10,,,,,,,,,,230.0,245.0,-255.0,245.0,,245.0,90,M,Павел Судаков,D
No,Raw,1,Sergey Larionov,Pro Open,1975,Russia,89.40,,,,,,,,,,250.0,267.5,-270.0,267.5,,267.5,90,M,Сергей Ларионов,D
No,Raw,2,Yuriy Bonachev,Pro Open,1986,Russia,87.30,,,,,,,,,,-205.0,215.0,-230.0,215.0,,215.0,90,M,Юрий Боначев,D
No,Raw,1,Marat Abdullin,Pro Open,1985,Russia,96.80,,,,,,,,,,240.0,260.0,-277.5,260.0,,260.0,100,M,Марат Абдуллин,D
No,Raw,2,Sergey Nefedov,Pro Open,1980,Russia,99.00,,,,,,,,,,210.0,230.0,250.0,250.0,,250.0,100,M,Сергей Нефедов,D
No,Raw,1,Valeriy Scherbakov,Pro Masters 40-44,1973,Russia,97.40,,,,,,,,,,220.0,240.0,250.0,250.0,,250.0,100,M,Валерий Щербаков,D
No,Raw,1,Mikhail Verbitskiy,Pro Masters 60-64,1951,Belarus,94.90,,,,,,,,,,250.0,270.0,,270.0,,270.0,100,M,,D
No,Raw,1,Aleksandr Tarakin,Pro Open,1986,Russia,106.90,,,,,,,,,,-265.0,265.0,272.5,272.5,,272.5,110,M,Александр Таракин,D
No,Raw,2,Aleksey Smirnov,Pro Open,1977,Russia,102.70,,,,,,,,,,250.0,260.0,270.0,270.0,,270.0,110,M,Алексей Смирнов,D
No,Raw,3,Ivan Slavinskiy,Pro Open,1983,Russia,100.30,,,,,,,,,,245.0,255.0,-265.0,255.0,,255.0,110,M,Иван Славинский,D
No,Raw,DQ,Sergey Evdokushin,Pro Masters 40-44,1974,Russia,103.05,,,,,,,,,,-200.0,,,,,,110,M,Сергей Евдокушин,D
No,Raw,1,Oleg Livshits,Pro Open,1973,Russia,135.10,,,,,,,,,,350.0,-370.0,,350.0,,350.0,140,M,Олег Лившиц,D
No,Multi-ply,1,Roman Korshunov,Pro Open,1980,Russia,68.00,,,,,,,,,,195.0,205.0,-210.0,205.0,,205.0,75,M,Роман Коршунов,D
No,Multi-ply,1,Pavel Sudakov,Pro Open,1991,Russia,88.10,,,,,,,,,,250.0,260.0,,260.0,,260.0,90,M,Павел Судаков,D
No,Multi-ply,1,Dmitriy Yakovlev,Pro Open,1984,Russia,97.20,,,,,,,,,,230.0,235.0,237.5,237.5,,237.5,100,M,Дмитрий Яковлев,D
No,Multi-ply,1,Artem Artyukhov,Pro Open,1987,Russia,109.00,,,,,,,,,,240.0,-250.0,250.0,250.0,,250.0,110,M,Артем Артюхов,D
