Division,WeightClassKg,Place,Name,Team,BodyweightKg,Best3SquatKg,Best3BenchKg,Best3DeadliftKg,TotalKg,Equipment,Event,Sex
Girls,44.23,1,Katrina Le,Beaumont West Brook,43.18,97.52,40.82,99.79,238.14,Single-ply,SBD,F
Girls,44.23,2,Emily Franklin,Shepherd,41.37,83.91,52.16,95.25,231.33,Single-ply,SBD,F
Girls,44.23,3,Valerie Arango,Channelview,43.91,83.91,38.56,104.33,226.8,Single-ply,SBD,F
Girls,44.23,4,Yitzel Sosa,New Caney Porter,42.73,83.91,43.09,90.72,217.72,Single-ply,SBD,F
Girls,44.23,5,Lauren Reighard,Splendora,42.64,70.31,29.48,65.77,165.56,Single-ply,SBD,F
Girls,47.85,1,Yessenia Mata,Splendora,46.99,113.4,63.5,111.13,288.03,Single-ply,SBD,F
Girls,47.85,2,Alaina Whitworth,Splendora,47.08,97.52,49.9,92.99,240.4,Single-ply,SBD,F
Girls,47.85,3,Adelina Caceres,Trinity,45.81,92.99,52.16,83.91,229.06,Single-ply,SBD,F
Girls,47.85,4,Ariana Luna,Channelview,44.72,74.84,38.56,83.91,197.31,Single-ply,SBD,F
Girls,47.85,5,Kylee Ayers,Cleveland Tarkington,46.81,74.84,43.09,74.84,192.78,Single-ply,SBD,F
Girls,47.85,6,Jocelyn Hernandez,Channelview,46.08,77.11,36.29,74.84,188.24,Single-ply,SBD,F
Girls,47.85,7,Rishawn Barnes,Beaumont West Brook,45.36,43.09,31.75,72.57,147.42,Single-ply,SBD,F
Girls,47.85,DQ,Alice Myers,Port Neches-Groves,46.81,61.23,34.02,,,Single-ply,SBD,F
Girls,47.85,DQ,Abigale Riggs,Splendora,47.36,,,,,Single-ply,SBD,F
Girls,51.94,1,Madison Williams,Cleveland Tarkington,48.81,115.67,54.43,117.93,288.03,Single-ply,SBD,F
Girls,51.94,2,Bayley Braquet,Beaumont West Brook,49.8,83.91,52.16,113.4,249.48,Single-ply,SBD,F
Girls,51.94,3,Yitzi Sosa,New Caney Porter,50.08,95.25,52.16,97.52,244.94,Single-ply,SBD,F
Girls,51.94,4,Sarahi Rodriguez,Splendora,51.17,90.72,45.36,108.86,244.94,Single-ply,SBD,F
Girls,51.94,5,Madi Cervantes,Santa Fe,51.17,97.52,36.29,88.45,222.26,Single-ply,SBD,F
Girls,51.94,6,Akerionta Lavergne,Port Arthur Memorial,49.99,81.65,36.29,81.65,199.58,Single-ply,SBD,F
Girls,51.94,7,Sydney Mounts,Santa Fe,51.89,72.57,36.29,79.38,188.24,Single-ply,SBD,F
Girls,51.94,DQ,Dioselyn Gonzalez,Trinity,51.89,61.23,,,,Single-ply,SBD,F
Girls,56.02,1,Ava Higginbotham,Splendora,53.52,136.08,68.04,136.08,340.19,Single-ply,SBD,F
Girls,56.02,2,Raylie Pagan,Splendora,55.7,115.67,61.23,111.13,288.03,Single-ply,SBD,F
Girls,56.02,3,Cameron Bloomfield,Santa Fe,54.07,120.2,49.9,102.06,272.16,Single-ply,SBD,F
Girls,56.02,4,Madalyn Hollingsworth,Cleveland Tarkington,54.52,92.99,52.16,122.47,267.62,Single-ply,SBD,F
Girls,56.02,5,Nayeli Davalos,Trinity,53.89,97.52,56.7,108.86,263.08,Single-ply,SBD,F
Girls,56.02,6,Brisa Carmona,Splendora,53.71,106.59,49.9,97.52,254.01,Single-ply,SBD,F
Girls,56.02,7,Fernanda Galvez,Splendora,52.44,92.99,49.9,95.25,238.14,Single-ply,SBD,F
Girls,56.02,8,Alexis Ehrlich,Cleveland Tarkington,53.34,90.72,47.63,97.52,235.87,Single-ply,SBD,F
Girls,56.02,9,Angela Cristello,Shepherd,54.43,92.99,52.16,86.18,231.33,Single-ply,SBD,F
Girls,56.02,10,Deandra Mills,Trinity,53.07,83.91,31.75,106.59,222.26,Single-ply,SBD,F
Girls,56.02,11,Sharla Ruiz,Shepherd,55.07,83.91,52.16,86.18,222.26,Single-ply,SBD,F
Girls,56.02,12,Genni Gomez,Splendora,54.79,83.91,38.56,92.99,215.46,Single-ply,SBD,F
Girls,56.02,13,Raymunda Cobarrubias,Splendora,55.93,74.84,40.82,88.45,204.12,Single-ply,SBD,F
Girls,56.02,14,Keiara Ochoa,Port Arthur Memorial,55.34,70.31,36.29,90.72,197.31,Single-ply,SBD,F
Girls,56.02,15,Madison Harrison,Cleveland Tarkington,51.98,61.23,40.82,86.18,188.24,Single-ply,SBD,F
Girls,56.02,16,Jordan Cortinas,New Caney,53.61,63.5,34.02,74.84,172.37,Single-ply,SBD,F
Girls,56.02,17,Nova Tull,Santa Fe,55.52,52.16,31.75,81.65,165.56,Single-ply,SBD,F
Girls,56.02,18,Shelbie Ferguson,Shepherd,52.44,74.84,49.9,,124.74,Single-ply,SB,F
Girls,56.02,DQ,Juana Solomon,Port Arthur Memorial,52.98,,,,,Single-ply,SBD,F
Girls,60.1,1,Hannah Blanchard,Splendora,57.24,133.81,77.11,106.59,317.51,Single-ply,SBD,F
Girls,60.1,2,Joselin Lara,Channelview,59.6,120.2,49.9,138.35,308.44,Single-ply,SBD,F
Girls,60.1,3,Morgan Adkison,Splendora,56.43,115.67,61.23,115.67,292.57,Single-ply,SBD,F
Girls,60.1,4,Carol Cardenas,New Caney Porter,58.69,111.13,61.23,108.86,281.23,Single-ply,SBD,F
Girls,60.1,5,Gia Wilson,Splendora,59.6,106.59,61.23,97.52,265.35,Single-ply,SBD,F
Girls,60.1,6,Serenity Whitworth,Splendora,57.24,102.06,56.7,104.33,263.08,Single-ply,SBD,F
Girls,60.1,7,Ashley Taunton,Beaumont West Brook,58.24,95.25,49.9,113.4,258.55,Single-ply,SBD,F
Girls,60.1,8,Samantha Rogers,New Caney Porter,59.96,95.25,52.16,99.79,247.21,Single-ply,SBD,F
Girls,60.1,9,Jasmin Yanez,Channelview,56.61,90.72,47.63,106.59,244.94,Single-ply,SBD,F
Girls,60.1,10,Phuong Nam Khuu,Port Arthur Memorial,58.79,111.13,31.75,102.06,244.94,Single-ply,SBD,F
Girls,60.1,11,Leila Abel,Beaumont West Brook,59.06,74.84,54.43,108.86,238.14,Single-ply,SBD,F
Girls,60.1,12,Jasie Melancon,Santa Fe,59.96,88.45,47.63,86.18,222.26,Single-ply,SBD,F
Girls,60.1,13,Kaylene Gaviria,Splendora,58.06,92.99,43.09,83.91,219.99,Single-ply,SBD,F
Girls,60.1,14,Sydney Trlica,Conroe Oak Ridge,56.97,83.91,43.09,90.72,217.72,Single-ply,SBD,F
Girls,60.1,15,Karringtan Gerard,Beaumont West Brook,57.61,74.84,38.56,90.72,204.12,Single-ply,SBD,F
Girls,67.36,1,Erieanna Lopez,Shepherd,64.41,167.83,97.52,158.76,424.11,Single-ply,SBD,F
Girls,67.36,2,Victoria Pena,Splendora,65.23,158.76,74.84,158.76,392.36,Single-ply,SBD,F
Girls,67.36,3,Sarah Trujillo,Splendora,65.77,149.69,74.84,147.42,371.95,Single-ply,SBD,F
Girls,67.36,4,Alissa Cassell,Splendora,64.32,106.59,61.23,120.2,288.03,Single-ply,SBD,F
Girls,67.36,5,Camille Thompson,Beaumont West Brook,67.31,108.86,56.7,111.13,276.69,Single-ply,SBD,F
Girls,67.36,6,Nicole Nelson #2,Shepherd,61.23,108.86,56.7,102.06,267.62,Single-ply,SBD,F
Girls,67.36,7,Lucero Villafana,Splendora,64.32,102.06,54.43,111.13,267.62,Single-ply,SBD,F
Girls,67.36,8,Kaelyn Andrus,Beaumont West Brook,66.22,99.79,56.7,111.13,267.62,Single-ply,SBD,F
Girls,67.36,9,Cameron Baker #1,Cleveland Tarkington,62.87,104.33,49.9,111.13,265.35,Single-ply,SBD,F
Girls,67.36,10,Tia Anderson,Beaumont West Brook,67.13,95.25,47.63,106.59,249.48,Single-ply,SBD,F
Girls,67.36,11,Krystan Peavey,Trinity,64.95,102.06,43.09,102.06,247.21,Single-ply,SBD,F
Girls,67.36,12,Savannah Williams,Cleveland Tarkington,61.33,74.84,61.23,102.06,238.14,Single-ply,SBD,F
Girls,67.36,13,Kaylah Morgan,Beaumont West Brook,60.24,81.65,45.36,106.59,233.6,Single-ply,SBD,F
Girls,67.36,14,Kyyra Peacock,Port Arthur Memorial,60.51,97.52,38.56,92.99,229.06,Single-ply,SBD,F
Girls,67.36,15,Alex Cravey,Santa Fe,60.6,92.99,43.09,90.72,226.8,Single-ply,SBD,F
Girls,67.36,16,Taylor Schneider #2,Beaumont West Brook,63.5,88.45,36.29,102.06,226.8,Single-ply,SBD,F
Girls,67.36,DQ,Morgan Young,Shepherd,66.04,,,,,Single-ply,SBD,F
Girls,67.36,DQ,Tayler Landry,Beaumont West Brook,65.41,90.72,,,,Single-ply,SBD,F
Girls,67.36,DQ,Caitlin Green,Conroe Oak Ridge,66.5,90.72,52.16,,,Single-ply,SBD,F
Girls,67.36,DQ,Alyssa Hill,Trinity,63.32,79.38,,,,Single-ply,SBD,F
Girls,75.07,1,Alyssa Redeaux,Beaumont West Brook,74.66,117.93,74.84,149.69,342.46,Single-ply,SBD,F
Girls,75.07,2,Aiyana Holloman,New Caney Porter,74.03,131.54,72.57,133.81,337.93,Single-ply,SBD,F
Girls,75.07,3,Paris Williams,Beaumont West Brook,67.59,117.93,61.23,131.54,310.71,Single-ply,SBD,F
Girls,75.07,4,Shelby Dean,Shepherd,70.22,124.74,61.23,120.2,306.17,Single-ply,SBD,F
Girls,75.07,5,Kristina Ekmark,New Caney Porter,73.12,102.06,65.77,120.2,288.03,Single-ply,SBD,F
Girls,75.07,6,Salome Norwood,New Caney,67.86,99.79,56.7,117.93,274.42,Single-ply,SBD,F
Girls,75.07,7,Karissa Betancourt,Santa Fe,73.21,106.59,58.97,92.99,258.55,Single-ply,SBD,F
Girls,75.07,8,Amanda Harrell,New Caney,69.49,99.79,52.16,104.33,256.28,Single-ply,SBD,F
Girls,75.07,9,Jasmine Clark,Shepherd,69.22,97.52,56.7,99.79,254.01,Single-ply,SBD,F
Girls,75.07,10,Lisbeth Manzano,Splendora,72.21,111.13,49.9,92.99,254.01,Single-ply,SBD,F
Girls,75.07,11,Kayla Lawrence,Beaumont West Brook,67.59,95.25,45.36,111.13,251.74,Single-ply,SBD,F
Girls,75.07,12,Stephanie Ruiz,Trinity,71.58,83.91,43.09,108.86,235.87,Single-ply,SBD,F
Girls,75.07,13,Suriel Alvarez,Splendora,74.57,83.91,54.43,97.52,235.87,Single-ply,SBD,F
Girls,75.07,14,Vivianna Sandoval,Splendora,68.13,86.18,47.63,95.25,229.06,Single-ply,SBD,F
Girls,75.07,15,Kyleigh McGilberry,Santa Fe,73.21,79.38,45.36,95.25,219.99,Single-ply,SBD,F
Girls,75.07,16,Amy Martinez,Splendora,67.49,88.45,40.82,83.91,213.19,Single-ply,SBD,F
Girls,75.07,17,Courtney Arreola,Splendora,71.12,86.18,43.09,65.77,195.04,Single-ply,SBD,F
Girls,75.07,18,Kiar Chevallier,Port Arthur Memorial,74.21,81.65,29.48,79.38,190.51,Single-ply,SBD,F
Girls,75.07,19,Alysia Brown,Port Arthur Memorial,69.22,70.31,24.95,92.99,188.24,Single-ply,SBD,F
Girls,75.07,20,Nicole Carley,Cleveland Tarkington,74.66,70.31,34.02,83.91,188.24,Single-ply,SBD,F
Girls,75.07,DQ,Cassandra Rodriguez,Splendora,73.12,,,,,Single-ply,SBD,F
Girls,75.07,DQ,Cora Sievertson,Shepherd,71.76,,,,,Single-ply,SBD,F
Girls,75.07,DQ,Leah Hensarling,Splendora,74.43,,,,,Single-ply,SBD,F
Girls,75.07,DQ,Magaly Olquin,Splendora,73.75,74.84,,,,Single-ply,SBD,F
Girls,82.33,1,Gracie Groh,Splendora,81.24,145.15,92.99,129.27,367.41,Single-ply,SBD,F
Girls,82.33,2,Makenzie Keel,Splendora,79.11,149.69,68.04,136.08,353.8,Single-ply,SBD,F
Girls,82.33,3,Marie LeCompte,Santa Fe,80.92,151.95,61.23,136.08,349.27,Single-ply,SBD,F
Girls,82.33,4,Kylie Jones,Splendora,77.11,138.35,77.11,120.2,335.66,Single-ply,SBD,F
Girls,82.33,5,Katera Perkins,Beaumont West Brook,81.83,136.08,61.23,136.08,333.39,Single-ply,SBD,F
Girls,82.33,6,Wendy Chavez,Splendora,78.93,108.86,56.7,127.01,292.57,Single-ply,SBD,F
Girls,82.33,7,Iran Inzunza,Beaumont West Brook,80.47,113.4,49.9,129.27,292.57,Single-ply,SBD,F
Girls,82.33,8,Allie Bumpurs,Splendora,79.92,113.4,52.16,124.74,290.3,Single-ply,SBD,F
Girls,82.33,9,Nicole Maldonado,Shepherd,75.57,102.06,61.23,104.33,267.62,Single-ply,SBD,F
Girls,82.33,10,Briana Williams,Beaumont West Brook,77.02,106.59,49.9,108.86,265.35,Single-ply,SBD,F
Girls,82.33,11,Priscilla Gomez,Splendora,78.38,92.99,56.7,102.06,251.74,Single-ply,SBD,F
Girls,82.33,12,Jessica Sierra,Channelview,75.57,102.06,45.36,92.99,240.4,Single-ply,SBD,F
Girls,82.33,13,Shalyn White,Port Arthur Memorial,76.66,97.52,43.09,99.79,240.4,Single-ply,SBD,F
Girls,82.33,14,Kayla Morgan,Cleveland Tarkington,77.56,92.99,45.36,95.25,233.6,Single-ply,SBD,F
Girls,82.33,15,Sadie White,Santa Fe,75.66,90.72,49.9,88.45,229.06,Single-ply,SBD,F
Girls,82.33,16,Geneveive Gipson,New Caney Porter,81.47,52.16,40.82,90.72,183.7,Single-ply,SBD,F
Girls,82.33,17,Kayla Randals,Port Arthur Memorial,79.92,68.04,34.02,70.31,172.37,Single-ply,SBD,F
Girls,90.04,1,Alyssa Daniels,Splendora,89.9,167.83,95.25,131.54,394.63,Single-ply,SBD,F
Girls,90.04,2,Angelina Sahagun,Conroe Oak Ridge,89.63,136.08,81.65,140.61,358.34,Single-ply,SBD,F
Girls,90.04,3,Gabrielle Castillo,Beaumont West Brook,89.18,136.08,83.91,136.08,356.07,Single-ply,SBD,F
Girls,90.04,4,Alyna Mickens,Beaumont West Brook,89.36,124.74,65.77,140.61,331.12,Single-ply,SBD,F
Girls,90.04,5,Kayla Hays,Splendora,89.72,124.74,68.04,120.2,312.98,Single-ply,SBD,F
Girls,90.04,6,Hope Anderson,Cleveland Tarkington,89.18,117.93,52.16,117.93,288.03,Single-ply,SBD,F
Girls,90.04,7,Morgan Williams #2,New Caney Porter,87.36,102.06,65.77,115.67,283.5,Single-ply,SBD,F
Girls,90.04,8,Brynleigh Curtis,Port Neches-Groves,89.54,104.33,54.43,108.86,267.62,Single-ply,SBD,F
Girls,90.04,9,Jewel Jones,Cleveland Tarkington,85.46,88.45,49.9,104.33,242.67,Single-ply,SBD,F
Girls,90.04,10,Neida Trejo,Splendora,82.46,90.72,47.63,102.06,240.4,Single-ply,SBD,F
Girls,90.04,DQ,Katlyne Pollard,Shepherd,86.36,,,,,Single-ply,SBD,F
Girls,100.02,1,Beatriz Costilla,Trinity,99.06,138.35,90.72,142.88,371.95,Single-ply,SBD,F
Girls,100.02,2,Madison Eason,Splendora,93.44,124.74,83.91,127.01,335.66,Single-ply,SBD,F
Girls,100.02,3,Cami Clark,Shepherd,91.63,138.35,72.57,117.93,328.85,Single-ply,SBD,F
Girls,100.02,4,Trinity Boatright,Shepherd,93.71,129.27,65.77,122.47,317.51,Single-ply,SBD,F
Girls,100.02,5,Kennedy Bonsal,New Caney Porter,93.53,111.13,72.57,111.13,294.84,Single-ply,SBD,F
Girls,100.02,6,Jennifer Galazara,New Caney Porter,93.08,108.86,56.7,115.67,281.23,Single-ply,SBD,F
Girls,100.02,7,Savannah Roberts,Port Neches-Groves,99.61,72.57,52.16,99.79,224.53,Single-ply,SBD,F
Girls,100.02,DQ,Haylie Vanderweg,Port Neches-Groves,97.61,72.57,,,,Single-ply,SBD,F
Girls,100.02,DQ,Madi Woods,New Caney Porter,93.89,92.99,,,,Single-ply,SBD,F
Girls,117.71,1,Cydney Griffin,Beaumont West Brook,102.69,172.37,88.45,145.15,405.97,Single-ply,SBD,F
Girls,117.71,2,Alyssa Moreno,New Caney Porter,105.23,124.74,70.31,131.54,326.59,Single-ply,SBD,F
Girls,117.71,3,Kailyn Fisher,Trinity,114.31,142.88,65.77,115.67,324.32,Single-ply,SBD,F
Girls,117.71,4,Madison Hall #1,Channelview,106.68,136.08,61.23,124.74,322.05,Single-ply,SBD,F
Girls,117.71,5,Anina Miller,Beaumont West Brook,109.5,99.79,70.31,122.47,292.57,Single-ply,SBD,F
Girls,117.71,6,Haven Meyers,Splendora,103.78,83.91,49.9,115.67,249.48,Single-ply,SBD,F
Girls,117.71,7,Aleicya Sells,Beaumont West Brook,103.69,81.65,54.43,99.79,235.87,Single-ply,SBD,F
Girls,117.71+,1,Kenya Jeffcoat,Shepherd,126.1,204.12,111.13,127.01,442.25,Single-ply,SBD,F
Girls,117.71+,2,Karynton Mitchell,Beaumont West Brook,126.64,106.59,74.84,111.13,292.57,Single-ply,SBD,F
Girls,,NS,Mia Shew,Cleveland Tarkington,,,,,,Single-ply,SBD,F
Girls,,NS,Aniaya Hart,Port Arthur Memorial,,115.67,,,,Single-ply,SBD,F
