Division,WeightClassKg,Place,Name,Team,BodyweightKg,Best3SquatKg,Best3BenchKg,Best3DeadliftKg,TotalKg,Equipment,Event,Sex
Boys,51.71,1,Braden Fears,White Oak,51.62,136.08,86.18,158.76,381.02,Single-ply,SBD,M
Boys,51.71,2,Eric Hernandez,New London West Rusk,50.89,115.67,79.38,142.88,337.93,Single-ply,SBD,M
Boys,51.71,3,Chandler Bush,Elysian Fields,50.71,127.01,58.97,124.74,310.71,Single-ply,SBD,M
Boys,51.71,4,Chris Baker #7,Grapeland,49.08,54.43,38.56,83.91,176.9,Single-ply,SBD,M
Boys,55.79,1,Nate Mendoza,Kemp,55.61,149.69,77.11,172.37,399.16,Single-ply,SBD,M
Boys,55.79,2,Eddie Hernandez,New London West Rusk,53.52,124.74,83.91,136.08,344.73,Single-ply,SBD,M
Boys,59.87,1,Canon Chamberlain,Gladewater Union Grove,59.87,179.17,70.31,140.61,390.09,Single-ply,SBD,M
Boys,59.87,2,Seth Sanders,Shelbyville,56.06,117.93,72.57,127.01,317.51,Single-ply,SBD,M
Boys,59.87,3,Kalib Kerns,White Oak,57.61,111.13,70.31,124.74,306.17,Single-ply,SBD,M
Boys,59.87,4,Brodie Chandler,Shelbyville,57.06,102.06,65.77,120.2,288.03,Single-ply,SBD,M
Boys,59.87,DQ,Joseph Tarver,Joaquin,58.42,161.03,,,,Single-ply,SBD,M
Boys,67.13,1,Stone Crsip,Elysian Fields,66.5,172.37,106.59,174.63,453.59,Single-ply,SBD,M
Boys,67.13,2,Zach Wilson #1,Kemp,63.78,165.56,92.99,183.7,442.25,Single-ply,SBD,M
Boys,67.13,3,Jeb Dickson,Elysian Fields,64.95,167.83,90.72,181.44,439.98,Single-ply,SBD,M
Boys,67.13,4,Gilbert Garcia,Longview Spring Hill,63.14,165.56,99.79,170.1,435.45,Single-ply,SBD,M
Boys,67.13,5,Jared Weeks,Diana New Diana,60.69,158.76,88.45,165.56,412.77,Single-ply,SBD,M
Boys,67.13,6,Gustavo Arango,Mineola,66.86,161.03,90.72,158.76,410.5,Single-ply,SBD,M
Boys,67.13,7,Daniel Williamson,White Oak,62.41,127.01,63.5,140.61,331.12,Single-ply,SBD,M
Boys,67.13,8,Truett Freeman,Longview Spring Hill,66.04,115.67,56.7,136.08,308.44,Single-ply,SBD,M
Boys,67.13,9,Bryan Perez,Grapeland,66.5,127.01,43.09,136.08,306.17,Single-ply,SBD,M
Boys,67.13,DQ,Kyle Arnold,Diana New Diana,61.33,,,,,Single-ply,SBD,M
Boys,74.84,1,Zane Freeman,Diana New Diana,73.66,183.7,95.25,172.37,451.32,Single-ply,SBD,M
Boys,74.84,2,LaDarron Jones,New London West Rusk,69.67,174.63,88.45,181.44,444.52,Single-ply,SBD,M
Boys,74.84,3,Jay Shepherd,Grapeland,72.57,165.56,83.91,142.88,392.36,Single-ply,SBD,M
Boys,74.84,4,Brendon Pullen,Gladewater Union Grove,74.03,127.01,86.18,140.61,353.8,Single-ply,SBD,M
Boys,74.84,5,Caleb Freeman,Longview Spring Hill,72.67,115.67,49.9,142.88,308.44,Single-ply,SBD,M
Boys,74.84,6,Jc Griffin,Joaquin,69.49,115.67,61.23,111.13,288.03,Single-ply,SBD,M
Boys,74.84,DQ,Jacobi Jackson,Shelbyville,68.76,170.1,,,,Single-ply,SBD,M
Boys,74.84,DQ,Jayden Rodemaker,Grapeland,71.49,124.74,,,,Single-ply,SBD,M
Boys,82.1,1,Aron Jahr,Diana New Diana,82.1,242.67,138.35,224.53,605.55,Single-ply,SBD,M
Boys,82.1,2,Ian Shahan,Joaquin,77.11,183.7,102.06,163.29,449.06,Single-ply,SBD,M
Boys,82.1,3,Harley Mander,Kemp,76.66,170.1,106.59,167.83,444.52,Single-ply,SBD,M
Boys,82.1,4,Oscar Gallegos,Longview Spring Hill,76.57,158.76,104.33,174.63,437.72,Single-ply,SBD,M
Boys,82.1,5,Tristan Chavers,Gladewater Union Grove,80.92,158.76,108.86,170.1,437.72,Single-ply,SBD,M
Boys,82.1,6,Adrian Snyder,White Oak,80.29,149.69,108.86,172.37,430.91,Single-ply,SBD,M
Boys,82.1,7,Scott Davis,Mount Enterprise,79.2,131.54,92.99,142.88,367.41,Single-ply,SBD,M
Boys,82.1,8,Spencer Martin #2,Grapeland,78.38,122.47,68.04,122.47,312.98,Single-ply,SBD,M
Boys,82.1,DQ,Jordan Williams #1,Shelbyville,81.28,,,,,Single-ply,SBD,M
Boys,89.81,1,Alan Quezada,Kemp,88.63,258.55,158.76,226.8,644.1,Single-ply,SBD,M
Boys,89.81,2,Taylor Little,Kemp,87.82,226.8,117.93,213.19,557.92,Single-ply,SBD,M
Boys,89.81,3,Logan Jefferson,Shelbyville,89.81,208.65,131.54,195.04,535.24,Single-ply,SBD,M
Boys,89.81,4,Patrick Martinez,White Oak,85.46,181.44,99.79,199.58,480.81,Single-ply,SBD,M
Boys,89.81,5,Diego Molina,New London West Rusk,85.91,170.1,102.06,172.37,444.52,Single-ply,SBD,M
Boys,89.81,6,Hunter Casey #1,Shelbyville,86.18,136.08,83.91,142.88,362.87,Single-ply,SBD,M
Boys,89.81,DQ,Andres Martinez,New London West Rusk,86.82,,,,,Single-ply,SBD,M
Boys,89.81,DQ,Hunter Holt,Joaquin,84.46,,,,,Single-ply,SBD,M
Boys,89.81,DQ,Jamar Thompson,Mount Enterprise,86.36,,,,,Single-ply,SBD,M
Boys,99.79,1,Alec Mayhan,Gladewater Union Grove,90.72,204.12,124.74,217.72,546.58,Single-ply,SBD,M
Boys,99.79,2,Kasey Cockrell,Kemp,98.79,219.99,122.47,204.12,546.58,Single-ply,SBD,M
Boys,99.79,3,Cole Freeman,Diana New Diana,92.08,224.53,115.67,192.78,532.97,Single-ply,SBD,M
Boys,99.79,4,Jacob Hurst,Mineola,97.16,204.12,129.27,192.78,526.17,Single-ply,SBD,M
Boys,99.79,5,Dylin Borden,Gladewater Union Grove,91.08,201.85,131.54,181.44,514.83,Single-ply,SBD,M
Boys,99.79,6,Isaiah Martinez,Diana New Diana,92.71,176.9,102.06,181.44,460.4,Single-ply,SBD,M
Boys,99.79,7,Brendon Mooney,Hawkins,97.98,151.95,88.45,163.29,403.7,Single-ply,SBD,M
Boys,99.79,8,Dylan Arden,Gladewater Union Grove,92.9,151.95,77.11,147.42,376.48,Single-ply,SBD,M
Boys,109.77,1,Matthew Davison,New London West Rusk,107.23,233.6,136.08,222.26,591.94,Single-ply,SBD,M
Boys,109.77,2,Bobby Haggard,Gladewater Union Grove,104.24,204.12,111.13,208.65,523.9,Single-ply,SBD,M
Boys,109.77,3,Cerdarian Davis,Grapeland,99.97,174.63,92.99,213.19,480.81,Single-ply,SBD,M
Boys,109.77,4,Keelan Clark,Diana New Diana,104.6,190.51,102.06,185.97,478.54,Single-ply,SBD,M
Boys,109.77,5,Franco Rea,Grapeland,108.32,188.24,111.13,165.56,464.93,Single-ply,SBD,M
Boys,109.77,6,Carson Manassae,Longview Spring Hill,107.23,170.1,102.06,190.51,462.66,Single-ply,SBD,M
Boys,109.77,7,Logan Vickers,Shelbyville,102.33,181.44,95.25,172.37,449.06,Single-ply,SBD,M
Boys,109.77,8,Josh Caruso,Hawkins,101.24,165.56,92.99,176.9,435.45,Single-ply,SBD,M
Boys,109.77,9,Colton Mills,New London West Rusk,102.51,158.76,90.72,181.44,430.91,Single-ply,SBD,M
Boys,109.77,10,Deandre Furgeson,Mount Enterprise,106.14,108.86,77.11,111.13,297.1,Single-ply,SBD,M
Boys,124.74,1,Morgan Clark #1,Gladewater Union Grove,123.83,283.5,136.08,249.48,669.05,Single-ply,SBD,M
Boys,124.74,2,Kawon McCowin,Shelbyville,117.39,249.48,142.88,226.8,619.15,Single-ply,SBD,M
Boys,124.74,3,Tanner Cornell,Longview Spring Hill,114.76,249.48,145.15,204.12,598.74,Single-ply,SBD,M
Boys,124.74,4,Matt Brunson,Diana New Diana,109.86,244.94,102.06,217.72,564.72,Single-ply,SBD,M
Boys,124.74+,1,Carter Wheat,White Oak,134.81,310.71,145.15,235.87,691.73,Single-ply,SBD,M
Boys,124.74+,2,Joseph Lopez,Kemp,156.58,260.82,154.22,235.87,650.91,Single-ply,SBD,M
Boys,124.74+,3,Richard Gallegos,Longview Spring Hill,132.36,272.16,136.08,204.12,612.35,Single-ply,SBD,M
Boys,124.74+,4,Kyle Box,Kemp,132.18,219.99,154.22,226.8,601.01,Single-ply,SBD,M
Boys,124.74+,5,Kevin Hawkins,Mineola,142.7,226.8,136.08,217.72,580.6,Single-ply,SBD,M
Boys,124.74+,6,Christian Sapp,Diana New Diana,128.28,192.78,111.13,195.04,498.95,Single-ply,SBD,M
Boys,124.74+,DQ,Jw Lair,Elysian Fields,142.16,124.74,,,,Single-ply,SBD,M
Boys,,NS,Zach Clark,Shelbyville,,,,,,Single-ply,SBD,M
