Division,WeightClassKg,Place,Name,Team,BodyweightKg,Best3SquatKg,Best3BenchKg,Best3DeadliftKg,TotalKg,Equipment,Event,Sex
Boys,59.87,1,DeMarco Corner,Manvel,55.97,127.01,79.38,149.69,356.07,Single-ply,SBD,M
Boys,55.79,2,Randall Holland,Clute Brazoswood,53.8,122.47,90.72,133.81,347,Single-ply,SBD,M
Boys,55.79,3,Greg Gomez,West Columbia,55.79,133.81,70.31,140.61,344.73,Single-ply,SBD,M
Boys,59.87,4,Edgar Trevino,Clute Brazoswood,55.88,104.33,70.31,145.15,319.78,Single-ply,SBD,M
Boys,55.79,5,Tyler Smith #11,West Columbia,55.34,102.06,70.31,113.4,285.76,Single-ply,SBD,M
Boys,55.79,DQ,Dustin Free,Alvin,55.79,,,,,Single-ply,SBD,M
Boys,59.87,1,Eduardo Trevino,Clute Brazoswood,58.88,117.93,81.65,158.76,358.34,Single-ply,SBD,M
Boys,67.13,2,Jonathon Nelson #2,Clute Brazoswood,59.96,127.01,81.65,142.88,351.53,Single-ply,SBD,M
Boys,59.87,DQ,Floyd Bess,West Columbia,59.87,,,,,Single-ply,SBD,M
Boys,67.13,1,Justin Hussey,West Columbia,67.13,185.97,92.99,183.7,462.66,Single-ply,SBD,M
Boys,67.13,2,Brice LaMach,West Columbia,66.32,174.63,92.99,167.83,435.45,Single-ply,SBD,M
Boys,67.13,3,Jake Hertzing,Clute Brazoswood,64.68,156.49,90.72,165.56,412.77,Single-ply,SBD,M
Boys,67.13,4,Ted Gonzalez,Manvel,65.77,140.61,90.72,181.44,412.77,Single-ply,SBD,M
Boys,67.13,5,Nick Rodriguez,Manvel,65.59,161.03,90.72,156.49,408.23,Single-ply,SBD,M
Boys,67.13,6,Jonathan Layssard,Manvel,66.22,136.08,90.72,158.76,385.55,Single-ply,SBD,M
Boys,74.84,1,Nick Fields,Freeport Brazosport,71.21,190.51,113.4,235.87,539.77,Single-ply,SBD,M
Boys,74.84,2,Kaylon Melacon,Manvel,74.12,192.78,111.13,204.12,508.02,Single-ply,SBD,M
Boys,74.84,3,James Hatcher,Alvin,73.48,197.31,104.33,204.12,505.76,Single-ply,SBD,M
Boys,74.84,4,Brad LaMach,West Columbia,68.22,188.24,92.99,197.31,478.54,Single-ply,SBD,M
Boys,74.84,5,Martin Banda,Manvel,72.67,185.97,108.86,183.7,478.54,Single-ply,SBD,M
Boys,74.84,6,Xazier Murray,Manvel,74.21,145.15,97.52,204.12,446.79,Single-ply,SBD,M
Boys,74.84,7,Tremaine Alston,Freeport Brazosport,74.75,151.95,97.52,190.51,439.98,Single-ply,SBD,M
Boys,74.84,8,Dustin Wellman,Clute Brazoswood,73.66,172.37,92.99,170.1,435.45,Single-ply,SBD,M
Boys,74.84,9,Jay Robinson,Angleton,69.85,138.35,97.52,179.17,415.04,Single-ply,SBD,M
Boys,74.84,10,James Wellborn,West Columbia,73.3,129.27,106.59,170.1,405.97,Single-ply,SBD,M
Boys,74.84,11,Indy Henderson,Clute Brazoswood,73.39,158.76,83.91,158.76,401.43,Single-ply,SBD,M
Boys,74.84,12,Daniel Allen,Alvin,71.49,127.01,72.57,158.76,358.34,Single-ply,SBD,M
Boys,74.84,DQ,John McDowell #2,Alvin,74.84,183.7,,,,Single-ply,SBD,M
Boys,82.1,1,Jay Boniaby,Clute Brazoswood,81.28,217.72,117.93,174.63,510.29,Single-ply,SBD,M
Boys,82.1,2,DeAndre Woods,Alvin,81.96,167.83,129.27,183.7,480.81,Single-ply,SBD,M
Boys,82.1,3,Tanner Peavy,Angleton,81.65,158.76,102.06,167.83,428.64,Single-ply,SBD,M
Boys,82.1,4,Tj Lopez,Angleton,81.01,124.74,92.99,142.88,360.61,Single-ply,SBD,M
Boys,89.81,1,Khristian Blalock,Clute Brazoswood,88.9,240.4,145.15,235.87,621.42,Single-ply,SBD,M
Boys,89.81,2,Rickey Lunford,Clute Brazoswood,88.27,226.8,142.88,206.38,576.06,Single-ply,SBD,M
Boys,89.81,3,Elliot Lowry,Manvel,85,185.97,102.06,204.12,492.15,Single-ply,SBD,M
Boys,89.81,4,Tj Austin,Angleton,85,192.78,113.4,183.7,489.88,Single-ply,SBD,M
Boys,89.81,5,Kevin Kenie,Freeport Brazosport,89.36,188.24,111.13,188.24,487.61,Single-ply,SBD,M
Boys,89.81,6,Dalton Duke,West Columbia,85.18,174.63,102.06,190.51,467.2,Single-ply,SBD,M
Boys,89.81,7,Bryant Tinico,Alvin,85.55,151.95,102.06,161.03,415.04,Single-ply,SBD,M
Boys,89.81,DQ,Conner Copeland,West Columbia,85.91,83.91,,,,Single-ply,SBD,M
Boys,99.79,1,Brady Hudson,Alvin,98.52,188.24,142.88,199.58,530.7,Single-ply,SBD,M
Boys,99.79,2,Jorge Colon,Clute Brazoswood,98.88,208.65,133.81,176.9,519.36,Single-ply,SBD,M
Boys,99.79,3,Marvin Chizer,Angleton,96.52,190.51,97.52,204.12,492.15,Single-ply,SBD,M
Boys,109.77,4,Chris Shepherd,Alvin,99.88,197.31,102.06,190.51,489.88,Single-ply,SBD,M
Boys,109.77,5,Sergio Arredondo,Manvel,99.88,176.9,90.72,210.92,478.54,Single-ply,SBD,M
Boys,99.79,6,Anthony Hollis,Alvin,96.62,185.97,,,185.97,Single-ply,S,M
Boys,99.79,7,Quinton Bailey,Angleton,92.44,154.22,,,154.22,Single-ply,S,M
Boys,109.77,1,Rodney Hall,Angleton,102.51,272.16,138.35,219.99,630.49,Single-ply,SBD,M
Boys,109.77,2,Simon Curiel,Manvel,103.42,197.31,117.93,229.06,544.31,Single-ply,SBD,M
Boys,109.77,3,Gunner Girod,Clute Brazoswood,108.23,204.12,124.74,201.85,530.7,Single-ply,SBD,M
Boys,109.77,4,Cody Gonzales,Manvel,102.6,210.92,102.06,204.12,517.1,Single-ply,SBD,M
Boys,109.77,5,Brain Keo,Alvin,108.86,199.58,104.33,188.24,492.15,Single-ply,SBD,M
Boys,109.77,6,Josh Seabolt,Angleton,104.6,172.37,97.52,158.76,428.64,Single-ply,SBD,M
Boys,124.74,1,Eric Christ,Manvel,118.66,263.08,158.76,242.67,664.51,Single-ply,SBD,M
Boys,124.74,2,Vincen Shorter,West Columbia,116.48,249.48,145.15,215.46,610.08,Single-ply,SBD,M
Boys,124.74,3,Rj Earls,Clute Brazoswood,115.12,244.94,136.08,206.38,587.4,Single-ply,SBD,M
Boys,124.74,4,John Aluzio,Freeport Brazosport,118.3,201.85,147.42,201.85,551.11,Single-ply,SBD,M
Boys,124.74,5,Trey Cassidy,Angleton,123.83,195.04,149.69,188.24,532.97,Single-ply,SBD,M
Boys,124.74,6,Alfredo Abrego,Manvel,121.02,181.44,142.88,195.04,519.36,Single-ply,SBD,M
Boys,124.74,7,Rawlstan Decoteau,Angleton,123.92,183.7,127.01,185.97,496.68,Single-ply,SBD,M
Boys,124.74,8,Lawrence Spradley,Alvin,123.01,158.76,113.4,172.37,444.52,Single-ply,SBD,M
Boys,124.74,DQ,Taylor Ramero,Manvel,115.39,192.78,,,,Single-ply,SBD,M
Boys,124.74+,1,Anthony Madigow,Freeport Brazosport,137.08,263.08,172.37,226.8,662.24,Single-ply,SBD,M
Boys,124.74+,2,Travis Ramero,Manvel,140.7,238.14,142.88,249.48,630.49,Single-ply,SBD,M
Boys,124.74+,3,Trey Teaque,Freeport Brazosport,147.15,244.94,133.81,208.65,587.4,Single-ply,SBD,M
Boys,124.74+,4,Bryce Reed,Manvel,139.98,195.04,108.86,219.99,523.9,Single-ply,SBD,M
Boys,124.74+,5,Gage Shipley,Manvel,138.35,192.78,99.79,183.7,476.27,Single-ply,SBD,M
