Division,WeightClassKg,Place,Name,Team,BodyweightKg,Best3SquatKg,Best3BenchKg,Best3DeadliftKg,TotalKg,Equipment,Event,Sex
Boys,55.79,1,Josh Estrada,Gonzales,51.94,154.22,90.72,158.76,403.7,Single-ply,SBD,M
Boys,51.71,2,Sammy Ortega,Hutto,51.48,127.01,70.31,138.35,335.66,Single-ply,SBD,M
Boys,51.71,3,Davion Aldridge,Hutto,51.71,131.54,65.77,138.35,335.66,Single-ply,SBD,M
Boys,51.71,4,Mario Macrel,Lockhart,51.26,102.06,70.31,131.54,303.91,Single-ply,SBD,M
Boys,51.71,5,Brian Villarreal,Geronimo Navarro,45.36,99.79,54.43,113.4,267.62,Single-ply,SBD,M
Boys,55.79,6,Jonathan Bencomo,San Marcos,51.94,97.52,45.36,104.33,247.21,Single-ply,SBD,M
Boys,55.79,7,Jacob Salinas,Runge,51.94,83.91,52.16,95.25,231.33,Single-ply,SBD,M
Boys,55.79,1,Fernando Maldonado,Smithville,55.34,102.06,74.84,122.47,299.37,Single-ply,SBD,M
Boys,55.79,2,Jacob Villerreal,Gonzales,52.21,104.33,45.36,97.52,247.21,Single-ply,SBD,M
Boys,59.87,1,Jarrett Burford,Dripping Springs,59.87,181.44,115.67,163.29,460.4,Single-ply,SBD,M
Boys,59.87,2,Tyler Wells,Gonzales,59.69,147.42,72.57,147.42,367.41,Single-ply,SBD,M
Boys,59.87,3,Dalton Couch,Gonzales,59.78,142.88,72.57,149.69,365.14,Single-ply,SBD,M
Boys,59.87,4,Caden Forisha,Hutto,59.19,124.74,68.04,147.42,340.19,Single-ply,SBD,M
Boys,59.87,5,Cameron Adams,Lockhart,58.51,111.13,68.04,113.4,292.57,Single-ply,SBD,M
Boys,59.87,DQ,Ernan Lopez,Hutto,59.65,,,,,Single-ply,SBD,M
Boys,67.13,DQ,Dylan Torres,Runge,60.1,154.22,,,,Single-ply,SBD,M
Boys,67.13,DQ,Courtney Anderson #1,San Marcos,60.1,,,,,Single-ply,SBD,M
Boys,59.87,DQ,Anthony Holguin,San Marcos,58.29,,,,,Single-ply,SBD,M
Boys,59.87,DQ,Joshua Malaer,Gonzales,58.97,,,,,Single-ply,SBD,M
Boys,59.87,DQ,Ryan Blakey,Dripping Springs,58.74,117.93,68.04,,,Single-ply,SBD,M
Boys,74.84,1,Collin Anderson,San Marcos,67.36,154.22,90.72,170.1,415.04,Single-ply,SBD,M
Boys,74.84,2,Dillon Catchings,Gonzales,67.27,142.88,72.57,142.88,358.34,Single-ply,SBD,M
Boys,74.84,3,Nathan Medellin,Gonzales,67.18,124.74,70.31,136.08,331.12,Single-ply,SBD,M
Boys,67.13,4,Marvin Yanta,Runge,66,104.33,61.23,127.01,292.57,Single-ply,SBD,M
Boys,67.13,DQ,Justis Owens,Hutto,66.45,,,,,Single-ply,SBD,M
Boys,67.13,DQ,Chris Blaschke,Smithville,65.32,127.01,74.84,,,Single-ply,SBD,M
Boys,67.13,DQ,Devin Heitz,Smithville,67.13,127.01,,,,Single-ply,SBD,M
Boys,74.84,1,Connor Cross,Dripping Springs,73.71,231.33,108.86,,340.19,Single-ply,SB,M
Boys,82.1,2,DJ Gonzales,Gonzales,74.98,213.19,111.13,208.65,532.97,Single-ply,SBD,M
Boys,74.84,3,Jobe Falcon,Dripping Springs,73.94,204.12,120.2,204.12,528.44,Single-ply,SBD,M
Boys,74.84,DQ,Weston Murray,Dripping Springs,74.84,,,,,Single-ply,SBD,M
Boys,82.1,5,Jacob Rodriguez #1,Geronimo Navarro,75.07,170.1,108.86,195.04,474,Single-ply,SBD,M
Boys,74.84,6,Roberto Hernandez,San Marcos,70.99,151.95,86.18,163.29,401.43,Single-ply,SBD,M
Boys,82.1,7,Gunner Brown,Lockhart,75.07,129.27,83.91,172.37,385.55,Single-ply,SBD,M
Boys,74.84,8,Travis Schauer,Gonzales,70.58,142.88,77.11,158.76,378.75,Single-ply,SBD,M
Boys,82.1,9,Trent Schauer,Gonzales,74.93,136.08,83.91,142.88,362.87,Single-ply,SBD,M
Boys,74.84,10,Joel Hinojosa,San Marcos,69.85,131.54,68.04,147.42,347,Single-ply,SBD,M
Boys,74.84,DQ,Roberto Holguin,San Marcos,72.35,129.27,70.31,140.61,,Single-ply,SBD,M
Boys,74.84,DQ,Erik Estrada,Hutto,74.62,,,,,Single-ply,SBD,M
Boys,82.1,1,Luke Evans #2,Hutto,82.1,190.51,115.67,213.19,519.36,Single-ply,SBD,M
Boys,82.1,2,Jaime Tellez,Gonzales,77.93,208.65,106.59,195.04,510.29,Single-ply,SBD,M
Boys,82.1,3,Eddie Gonzalez,Gonzales,80.38,183.7,108.86,192.78,485.34,Single-ply,SBD,M
Boys,82.1,4,Ryan Buehler,Dripping Springs,81.87,163.29,127.01,165.56,455.86,Single-ply,SBD,M
Boys,82.1,5,Austin Isaac,Geronimo Navarro,77.11,167.83,99.79,167.83,435.45,Single-ply,SBD,M
Boys,82.1,DQ,Marcos Johnson,Lockhart,81.65,149.69,88.45,,,Single-ply,SBD,M
Boys,82.1,DQ,Francisco Trevino,Smithville,77.11,,,,,Single-ply,SBD,M
Boys,89.81,1,Marlin O'Neal,Dripping Springs,89.81,226.8,140.61,226.8,594.21,Single-ply,SBD,M
Boys,89.81,2,Jacob Flores,San Marcos,83.01,213.19,131.54,,344.73,Single-ply,SB,M
Boys,89.81,3,Tanner Brown,Lockhart,87.09,190.51,106.59,206.38,503.49,Single-ply,SBD,M
Boys,89.81,4,JT Miller,Gonzales,89.49,181.44,97.52,201.85,480.81,Single-ply,SBD,M
Boys,89.81,5,Justin Hatfield,Geronimo Navarro,89.81,167.83,104.33,190.51,462.66,Single-ply,SBD,M
Boys,89.81,6,Walter Hood,Gonzales,88.45,190.51,104.33,158.76,453.59,Single-ply,SBD,M
Boys,89.81,7,Michael Rios,Runge,89.81,140.61,90.72,158.76,390.09,Single-ply,SBD,M
Boys,89.81,8,Coty Garza,Runge,87.77,142.88,79.38,151.95,374.21,Single-ply,SBD,M
Boys,89.81,DQ,Joshua Mercado,San Marcos,89.81,179.17,,,,Single-ply,SBD,M
Boys,89.81,DQ,Brandon Easley,Smithville,89.58,163.29,,,,Single-ply,SBD,M
Boys,89.81,DQ,Clark Flinn,Geronimo Navarro,86.41,181.44,113.4,,,Single-ply,SBD,M
Boys,89.81,DQ,Jake Dawson,Smithville,89.36,208.65,,,,Single-ply,SBD,M
Boys,109.77,1,Rhil Dougherty,Dripping Springs,100.02,226.8,163.29,226.8,616.89,Single-ply,SBD,M
Boys,99.79,2,Avery McThompson,Dripping Springs,98.88,204.12,142.88,210.92,557.92,Single-ply,SBD,M
Boys,99.79,3,Curtis Hawkins,Lockhart,95.03,219.99,120.2,204.12,544.31,Single-ply,SBD,M
Boys,99.79,4,Jose Contreras,Gonzales,94.57,206.38,102.06,192.78,501.22,Single-ply,SBD,M
Boys,99.79,5,Damien Airhart,Gonzales,97.11,181.44,102.06,204.12,487.61,Single-ply,SBD,M
Boys,99.79,6,Cade Hurta,Smithville,92.53,183.7,106.59,181.44,471.74,Single-ply,SBD,M
Boys,99.79,7,Josh Garcia,Runge,92.08,124.74,72.57,154.22,351.53,Single-ply,SBD,M
Boys,99.79,8,Brandon Nunez,Runge,91.17,95.25,56.7,111.13,263.08,Single-ply,SBD,M
Boys,99.79,DQ,Colt Demming,Runge,99.79,,,,,Single-ply,SBD,M
Boys,99.79,DQ,Elijah Tienda,Lockhart,98.88,233.6,131.54,,,Single-ply,SBD,M
Boys,99.79,DQ,Chasin Allen,Hutto,99.34,,,,,Single-ply,SBD,M
Boys,99.79,DQ,Kegan Bledson,Smithville,96.62,,,,,Single-ply,SBD,M
Boys,109.77,1,Levi Mair,Lockhart,109.77,231.33,142.88,217.72,591.94,Single-ply,SBD,M
Boys,109.77,2,Cesar Juarez,Geronimo Navarro,109.32,231.33,117.93,210.92,560.19,Single-ply,SBD,M
Boys,109.77,3,Brian Dolezal,Gonzales,107.09,192.78,120.2,222.26,535.24,Single-ply,SBD,M
Boys,109.77,4,Grant Schlaht,Lockhart,103.87,215.46,115.67,183.7,514.83,Single-ply,SBD,M
Boys,109.77,5,Darren Torres,Runge,106.14,158.76,104.33,183.7,446.79,Single-ply,SBD,M
Boys,109.77,6,Bryan Winters,Runge,109.77,172.37,92.99,165.56,430.91,Single-ply,SBD,M
Boys,109.77,DQ,Riley Helmcam,Smithville,105.23,,,,,Single-ply,SBD,M
Boys,109.77,DQ,Michael Trevino,Smithville,105.46,,,,,Single-ply,SBD,M
Boys,109.77,DQ,Drew Peterson,Dripping Springs,100.24,263.08,,,,Single-ply,SBD,M
Boys,124.74,1,Jesse Benevides,San Marcos,113.85,224.53,127.01,222.26,573.79,Single-ply,SBD,M
Boys,124.74,2,Joshua Urrutia,San Marcos,122.47,176.9,90.72,174.63,442.25,Single-ply,SBD,M
Boys,124.74,DQ,Sebastan Garcia,Dripping Springs,122.92,219.99,,,,Single-ply,SBD,M
Boys,124.74+,1,Isaiah Bosquez,San Marcos,137.89,199.58,111.13,188.24,498.95,Single-ply,SBD,M
Boys,124.74+,DQ,Ray Sedwick,Lockhart,132,303.91,195.04,,,Single-ply,SBD,M
Boys,,NS,Joe Martella,Geronimo Navarro,,,,,,Single-ply,SBD,M
