Place,Name,Sex,BirthDate,Age,Equipment,Division,BodyweightKg,WeightClassKg,Bench1Kg,Bench2Kg,Bench3Kg,Best3BenchKg,TotalKg,Event
1,Rupa Dainer,F,1976-06-22,,Raw,Masters 1,74.5,76,70,75,80,80,80,B
1,Brandi Sneed,F,1981-08-12,39,Raw,Masters 1,106.5,84+,105,107.5,-110,107.5,107.5,B
1,Rupa Dainer,F,1976-06-22,,Raw,Open,74.5,76,70,75,80,80,80,B
1,Brandi Sneed,F,1981-08-12,39,Raw,Open,106.5,84+,105,107.5,-110,107.5,107.5,B
1,Jonathan B. Joseph,M,1963-07-08,57,Raw,Masters 2,65.4,66,-75,-75,75,75,75,B
1,Charles Samper,M,1996-11-30,24,Raw,Open,102,105,147.5,155,-165,155,155,B
