Place,Name,Division,Equipment,Event,BirthDate,BirthYear,Age,Sex,BodyweightKg,WeightClassKg,Squat1Kg,Squat2Kg,Squat3Kg,Best3SquatKg,Bench1Kg,Bench2Kg,Bench3Kg,Best3BenchKg,Deadlift1Kg,Deadlift2Kg,Deadlift3Kg,Best3DeadliftKg,TotalKg
1,Clara Peyraud,Sub-Juniors,Raw,B,,2002,17,F,69.85,72,,,,,92.5,97.5,-102.5,97.5,,,,,97.5
1,Galatéa Gouissemi,Juniors,Raw,B,,1998,21,F,51.6,52,,,,,50,52.5,57.5,57.5,,,,,57.5
1,Lucie Rousselot,Juniors,Raw,B,,1999,20,F,56.9,57,,,,,77.5,-82.5,-82.5,77.5,,,,,77.5
1,Camille Pailha,Juniors,Raw,B,,1999,20,F,63.7,72,,,,,82.5,87.5,90,90,,,,,90
1,Charlotte Vedel,Seniors,Raw,B,,1994,25,F,56.6,57,,,,,92.5,-97.5,97.5,97.5,,,,,97.5
1,Mélodie Anthouard,Seniors,Raw,B,,1988,31,F,57.4,63,,,,,-97.5,97.5,-105,97.5,,,,,97.5
1,Véronique Descours,Masters 1,Raw,B,,1971,48,F,61.6,63,,,,,65,70,-75,70,,,,,70
1,Sylvie Fradin,Masters 2,Raw,B,,1963,56,F,62.8,63,,,,,67.5,70,-72.5,70,,,,,70
1,Martine Servajean,Masters 3,Raw,B,,1958,61,F,45.8,47,,,,,60,62.5,65,65,,,,,65
1,Edith Guennec,Masters 3,Raw,B,,1956,63,F,59.15,63,,,,,42.5,47.5,52.5,52.5,,,,,52.5
1,Liliane Boulle,Masters 4,Raw,B,,1946,74,F,45.55,47,,,,,30,32.5,-35,32.5,,,,,32.5
1,Florian Nativel,Juniors,Raw,B,,1998,21,M,65.75,66,,,,,150,,,150,,,,,150
1,César Descot,Juniors,Raw,B,,1999,21,M,73.5,74,,,,,117.5,125,,125,,,,,125
2,Thanh Da Pham,Juniors,Raw,B,,1999,20,M,73.65,74,,,,,105,-112.5,112.5,112.5,,,,,112.5
1,Nicolas Peyraud,Juniors,Raw,B,,1999,20,M,106.5,120,,,,,185,192.5,,192.5,,,,,192.5
1,Thierry Dugout,Seniors,Raw,B,,1983,36,M,65.45,66,,,,,-102.5,102.5,-110,102.5,,,,,102.5
2,Florent Rivet,Seniors,Raw,B,,1992,27,M,66,66,,,,,87.5,95,-100,95,,,,,95
1,Bastien Poyet,Seniors,Raw,B,,1995,24,M,72.6,74,,,,,180,185,190,190,,,,,190
2,Jordan Grenier,Seniors,Raw,B,,1993,26,M,73,74,,,,,112.5,-117.5,-117.5,112.5,,,,,112.5
1,Alan Gavarin,Seniors,Raw,B,,1989,30,M,81.55,83,,,,,155,162.5,165,165,,,,,165
1,Mathieu Noirbent,Seniors,Raw,B,,1985,34,M,101.25,105,,,,,190,200,-205,200,,,,,200
2,Allan Grenier,Seniors,Raw,B,,1990,29,M,100.5,105,,,,,185,195,-202.5,195,,,,,195
3,Paul Chavanis,Seniors,Raw,B,,1988,31,M,104.05,105,,,,,185,190,,190,,,,,190
4,Florian Piraud,Seniors,Raw,B,,1985,34,M,101.55,105,,,,,165,-167.5,-167.5,165,,,,,165
1,Mickael Lager,Masters 1,Raw,B,,1971,48,M,72.65,74,,,,,132.5,142.5,145,145,,,,,145
2,Jérome Boulle,Masters 1,Raw,B,,1977,42,M,70.35,74,,,,,105,112.5,-117.5,112.5,,,,,112.5
1,Julien Vincent,Masters 1,Raw,B,,1979,40,M,82.5,83,,,,,135,-140,-140,135,,,,,135
2,Julien Wlady,Masters 1,Raw,B,,1980,39,M,81.65,83,,,,,110,115,-117.5,115,,,,,115
3,Ludovic Fontenelle,Masters 1,Raw,B,,1978,42,M,82,83,,,,,107.5,-112.5,-112.5,107.5,,,,,107.5
4,Yves Coque,Masters 1,Raw,B,,1974,45,M,81.35,83,,,,,100,-105,-105,100,,,,,100
1,Pascal Oliveira,Masters 1,Raw,B,,1976,43,M,101.9,105,,,,,155,-157.5,-160,155,,,,,155
2,Nicolas Bruno,Masters 1,Raw,B,,1973,46,M,95.1,105,,,,,115,120,-122.5,120,,,,,120
1,Jean Bonnefoy,Masters 3,Raw,B,,1953,66,M,63.6,66,,,,,100,105,-110,105,,,,,105
2,Roland Pimenta,Masters 3,Raw,B,,1958,61,M,65.15,66,,,,,77.5,-82.5,-82.5,77.5,,,,,77.5
1,Alain Collard,Masters 3,Raw,B,,1952,67,M,80,83,,,,,115,-120,-120,115,,,,,115
2,Gilles Porcherel,Masters 3,Raw,B,,1957,62,M,81.9,83,,,,,105,-112.5,112.5,112.5,,,,,112.5
1,Jean Martins,Masters 3,Raw,B,,1959,60,M,93,93,,,,,110,115,-120,115,,,,,115
1,Michel Besso,Masters 3,Raw,B,,1954,65,M,94.25,105,,,,,120,-125,-125,120,,,,,120
1,Dominique Fradin,Masters 2,Raw,B,,1964,55,M,65.9,66,,,,,100,-102.5,-102.5,100,,,,,100
1,Pierre-François Lapeyre,Masters 2,Raw,B,,1963,56,M,73.5,74,,,,,120,127.5,-130,127.5,,,,,127.5
2,Alberto Ribeiro,Masters 2,Raw,B,,1965,54,M,70.1,74,,,,,110,-115,-115,110,,,,,110
3,Gérald Thorron,Masters 2,Raw,B,,1963,56,M,74,74,,,,,72.5,77.5,-80,77.5,,,,,77.5
1,Gilles Augier,Masters 2,Raw,B,,1968,51,M,90.75,93,,,,,140,,,140,,,,,140
2,Philippe Valeyre,Masters 2,Raw,B,,1963,56,M,92,93,,,,,125,-130,-130,125,,,,,125
1,Frédéric Buttigieg,Masters 2,Raw,B,,1964,55,M,104.85,105,,,,,210,-220,-220,210,,,,,210
2,Patrick Ruiz,Masters 2,Raw,B,,1964,55,M,97.6,105,,,,,110,-115,,110,,,,,110
G,Mohammad Mohamad,Juniors,Raw,B,,2001,19,M,77.95,83,,,,,120,-125,-125,120,,,,,120
1,Véronique Descours,Masters 1,Single-ply,B,,1971,48,F,61.1,63,,,,,85,90,95,95,,,,,95
DQ,Stéphane Diaz,Masters 1,Single-ply,B,,1973,46,M,104.05,105,,,,,-200,-200,-200,,,,,,
1,Mourad Benkissous,Masters 1,Single-ply,B,,1973,46,M,117.3,120,,,,,-230,235,242.5,242.5,,,,,242.5
DQ,Pascal Siroux,Masters 2,Single-ply,B,,1964,55,M,118.85,120,,,,,-200,-200,-200,,,,,,
1,Didier Egels,Masters 4,Single-ply,B,,1950,69,M,98.35,105,,,,,125,130,-135,130,,,,,130
DQ,Eddy Bernou,Juniors,Single-ply,B,,1998,22,M,91.85,93,,,,,-185,-185,-200,,,,,,
