Division,WeightClassKg,Place,Name,Team,BodyweightKg,Best3SquatKg,Best3BenchKg,Best3DeadliftKg,TotalKg,Equipment,Event,Sex,BirthDate
Boys,51.71,1,Tyler Munoz,Sweetwater,49.9,117.93,61.23,131.54,310.71,Single-ply,SBD,M,
Boys,51.71,2,Ezekiel Murphy,Roscoe Collegiate,51.07,108.86,65.77,117.93,292.57,Single-ply,SBD,M,
Boys,51.71,3,Xander Moffett,Roscoe Collegiate,49.62,70.31,52.16,102.06,224.53,Single-ply,SBD,M,
Boys,55.79,1,Trey Jimenez,Sweetwater,55.34,138.35,74.84,136.08,349.27,Single-ply,SBD,M,
Boys,55.79,2,Ethan Martinez,Wolfforth Frenship,54.43,127.01,70.31,136.08,333.39,Single-ply,SBD,M,
Boys,55.79,3,Christian Rodriguez,Tuscola Jim Ned,54.16,120.2,65.77,124.74,310.71,Single-ply,SBD,M,
Boys,55.79,4,Alejandro Flores,Snyder,53.61,129.27,68.04,102.06,299.37,Single-ply,SBD,M,
Boys,59.87,1,Cougar Jetton,San Angelo Grape Creek,59.15,163.29,83.91,147.42,394.63,Single-ply,SBD,M,
Boys,59.87,2,Erick Cruz,Lubbock Roosevelt,59.06,140.61,92.99,154.22,387.82,Single-ply,SBD,M,
Boys,59.87,3,Ector Martinez,Sweetwater,56.79,142.88,74.84,145.15,362.87,Single-ply,SBD,M,
Boys,59.87,4,Gio Pablo,San Angelo Lake View,56.88,140.61,81.65,127.01,349.27,Single-ply,SBD,M,
Boys,59.87,5,Jermaine Stotts,Wolfforth Frenship,58.97,129.27,61.23,145.15,335.66,Single-ply,SBD,M,
Boys,59.87,6,Braeden Packard,San Angelo Lake View,58.24,113.4,81.65,136.08,331.12,Single-ply,SBD,M,
Boys,59.87,7,Jeremiah Garses,Lubbock Roosevelt,59.51,127.01,83.91,111.13,322.05,Single-ply,SBD,M,
Boys,59.87,8,Aiden Russell,Lubbock Roosevelt,56.25,106.59,81.65,127.01,315.25,Single-ply,SBD,M,
Boys,59.87,9,Aiden Trevino,Lamesa,56.06,108.86,40.82,115.67,265.35,Single-ply,SBD,M,
Boys,59.87,10,Izaic Gonzales,Lamesa,58.24,106.59,43.09,113.4,263.08,Single-ply,SBD,M,
Boys,59.87,11,Nathan Dominguez,Snyder,56.97,97.52,58.97,97.52,254.01,Single-ply,SBD,M,
Boys,59.87,12,Lupe Leanos,Roscoe Collegiate,56.34,88.45,56.7,92.99,238.14,Single-ply,SBD,M,
Boys,67.13,1,Sebastian Gonzales,Sweetwater,63.14,170.1,108.86,192.78,471.74,Single-ply,SBD,M,
Boys,67.13,2,John Rivera,Snyder,66.86,181.44,97.52,176.9,455.86,Single-ply,SBD,M,
Boys,67.13,3,Eric Martinez,Sweetwater,62.78,158.76,104.33,172.37,435.45,Single-ply,SBD,M,
Boys,67.13,4,Luis Cabrerra,Snyder,65.68,145.15,95.25,151.95,392.36,Single-ply,SBD,M,
Boys,67.13,5,Ricky Luna,Snyder,63.68,145.15,86.18,127.01,358.34,Single-ply,SBD,M,
Boys,67.13,6,Gareth Portillo,Tuscola Jim Ned,64.59,120.2,70.31,158.76,349.27,Single-ply,SBD,M,
Boys,67.13,7,Matthew Landin,Wolfforth Frenship,66.5,127.01,58.97,161.03,347,Single-ply,SBD,M,
Boys,67.13,8,Jay Goodacre,Tuscola Jim Ned,64.86,122.47,70.31,133.81,326.59,Single-ply,SBD,M,
Boys,67.13,9,David Hagood,Lubbock Roosevelt,61.14,117.93,77.11,102.06,297.1,Single-ply,SBD,M,
Boys,67.13,10,Victor Aguirre,San Angelo Lake View,63.05,115.67,68.04,111.13,294.84,Single-ply,SBD,M,
Boys,67.13,11,Diego Vidaurre,Lamesa,61.69,117.93,47.63,113.4,278.96,Single-ply,SBD,M,
Boys,74.84,1,Don Bridges,Tuscola Jim Ned,74.48,195.04,113.4,226.8,535.24,Single-ply,SBD,M,
Boys,74.84,2,Derique Brooks,Lamesa,74.48,183.7,133.81,188.24,505.76,Single-ply,SBD,M,
Boys,74.84,3,Nathan Burton,Snyder,74.03,183.7,102.06,181.44,467.2,Single-ply,SBD,M,
Boys,74.84,4,Josiah Zapata,Lamesa,70.49,163.29,106.59,190.51,460.4,Single-ply,SBD,M,
Boys,74.84,5,Braden St Clair,Snyder,72.48,167.83,111.13,158.76,437.72,Single-ply,SBD,M,
Boys,74.84,6,Anthony Trevino,Lamesa,68.22,163.29,86.18,183.7,433.18,Single-ply,SBD,M,
Boys,74.84,7,Alyn Salazar,San Angelo Lake View,72.48,181.44,90.72,154.22,426.38,Single-ply,SBD,M,
Boys,74.84,8,Jay Castillo,Snyder,74.12,156.49,97.52,163.29,417.3,Single-ply,SBD,M,
Boys,74.84,9,Ethan Estes,Tuscola Jim Ned,73.3,158.76,90.72,149.69,399.16,Single-ply,SBD,M,
Boys,74.84,10,Reese Kiser,Roscoe Collegiate,68.58,142.88,83.91,147.42,374.21,Single-ply,SBD,M,
Boys,74.84,11,Dallas Robinson,San Angelo Lake View,70.4,131.54,83.91,142.88,358.34,Single-ply,SBD,M,
Boys,74.84,12,Jayden Johns,Wolfforth Frenship,69.67,120.2,77.11,142.88,340.19,Single-ply,SBD,M,
Boys,82.1,2,Alex Trevino,Lubbock Roosevelt,80.29,222.26,108.86,226.8,557.92,Single-ply,SBD,M,
Boys,82.1,3,Cedrick Brown,Sweetwater,80.2,176.9,106.59,199.58,483.08,Single-ply,SBD,M,
Boys,82.1,4,Marcos Ogeda,Lamesa,76.84,140.61,81.65,183.7,405.97,Single-ply,SBD,M,
Boys,82.1,5,Diego Aguilera,San Angelo Lake View,76.66,127.01,90.72,158.76,376.48,Single-ply,SBD,M,
Boys,82.1,6,Novy Vela,Wolfforth Frenship,77.75,140.61,70.31,145.15,356.07,Single-ply,SBD,M,
Boys,82.1,7,Seth Martin,Roscoe Collegiate,78.56,136.08,70.31,131.54,337.93,Single-ply,SBD,M,
Boys,82.1,8,Justin Saenz,Roscoe Collegiate,79.29,111.13,61.23,122.47,294.84,Single-ply,SBD,M,
Boys,82.1,8,Gio Moronta,Tuscola Jim Ned,80.74,131.54,74.84,124.74,331.12,Single-ply,SBD,M,
Boys,82.1,DQ,Lucas Jordahl,San Angelo Grape Creek,80.1,,,,,Single-ply,SBD,M,
Boys,89.81,1,Jj Diaz,Lubbock Roosevelt,88.27,242.67,151.95,222.26,616.89,Single-ply,SBD,M,
Boys,89.81,2,Jerimiah Washington,Wolfforth Frenship,87.82,206.38,104.33,244.94,555.65,Single-ply,SBD,M,
Boys,89.81,3,Loyd Eustace,Lubbock Roosevelt,82.92,201.85,104.33,215.46,521.63,Single-ply,SBD,M,
Boys,89.81,4,Ethan Villarreal,Lamesa,82.83,145.15,97.52,176.9,419.57,Single-ply,SBD,M,
Boys,89.81,5,Maddox Cooper,Tuscola Jim Ned,89.54,145.15,77.11,161.03,383.29,Single-ply,SBD,M,
Boys,99.79,1,Reyes Silva,Snyder,96.62,317.51,156.49,251.74,725.75,Single-ply,SBD,M,
Boys,99.79,2,Thomas Sanchez,Lubbock Roosevelt,98.25,197.31,113.4,199.58,510.29,Single-ply,SBD,M,
Boys,99.79,3,Michael Pell,Lubbock Roosevelt,95.07,170.1,83.91,183.7,437.72,Single-ply,SBD,M,
Boys,99.79,4,Landon Noey,Lubbock Roosevelt,94.89,170.1,86.18,176.9,433.18,Single-ply,SBD,M,
Boys,99.79,5,Aiden Herrera,Wolfforth Frenship,98.16,149.69,111.13,165.56,426.38,Single-ply,SBD,M,
Boys,99.79,6,Cesar Olvera,Snyder,99.06,158.76,124.74,136.08,419.57,Single-ply,SBD,M,
Boys,99.79,7,Nick Caffey,Lubbock Roosevelt,92.8,147.42,90.72,174.63,412.77,Single-ply,SBD,M,
Boys,99.79,8,Isaac Cordova,San Angelo Lake View,93.89,149.69,90.72,163.29,403.7,Single-ply,SBD,M,
Boys,99.79,9,Xavier Rangel,San Angelo Lake View,90.72,104.33,79.38,133.81,317.51,Single-ply,SBD,M,
Boys,99.79,10,David Diaz,Roscoe Collegiate,90.45,170.1,88.45,154.22,412.77,Single-ply,SBD,M,
Boys,109.77,1,Jeremy Le,Sweetwater,108.5,242.67,154.22,204.12,601.01,Single-ply,SBD,M,
Boys,109.77,2,Ely Barrera,Sweetwater,107.68,204.12,111.13,263.08,578.33,Single-ply,SBD,M,
Boys,109.77,3,Jaylon James,Snyder,109.13,233.6,129.27,188.24,551.11,Single-ply,SBD,M,
Boys,109.77,4,Noah Powell,Tuscola Jim Ned,105.41,204.12,111.13,195.04,510.29,Single-ply,SBD,M,
Boys,109.77,5,Willie Rodriguez,San Angelo Lake View,109.32,174.63,131.54,192.78,498.95,Single-ply,SBD,M,
Boys,109.77,6,Alex Alcantar,San Angelo Lake View,100.06,174.63,90.72,199.58,464.93,Single-ply,SBD,M,
Boys,109.77,7,Riley Garcia,Wolfforth Frenship,108.5,170.1,117.93,170.1,458.13,Single-ply,SBD,M,
Boys,109.77,8,Britt Justiss,Roscoe Collegiate,108.86,158.76,83.91,158.76,401.43,Single-ply,SBD,M,
Boys,109.77,DQ,Peyton Friedman,Roscoe Collegiate,105.32,,,,,Single-ply,SBD,M,
Boys,124.74,1,Juan Ortiz,San Angelo Lake View,122.02,226.8,147.42,217.72,591.94,Single-ply,SBD,M,
Boys,124.74,1,Gage Stanaland,Tuscola Jim Ned,111.49,210.92,138.35,224.53,573.79,Single-ply,SBD,M,
Boys,124.74,2,Skyler Pulattie,Sweetwater,121.11,217.72,115.67,222.26,555.65,Single-ply,SBD,M,
Boys,124.74,3,Gatlyn Cooper,Tuscola Jim Ned,110.04,190.51,129.27,229.06,548.85,Single-ply,SBD,M,
Boys,124.74,4,Connor Fitzgerald,Tuscola Jim Ned,114.03,183.7,111.13,192.78,487.61,Single-ply,SBD,M,
Boys,124.74,5,John Cepeda,San Angelo Lake View,119.29,163.29,106.59,161.03,430.91,Single-ply,SBD,M,
Boys,124.74,6,Aiden Marmolejo,Lamesa,117.66,131.54,63.5,147.42,342.46,Single-ply,SBD,M,
Boys,124.74,DQ,Ricardo Hernandez,Snyder,116.12,,,,,Single-ply,SBD,M,
Boys,124.74,DQ,Chris Lea,Wolfforth Frenship,119.66,,,,,Single-ply,SBD,M,
Boys,139.71,1,Charles Aynes,Lamesa,129.55,247.21,161.03,231.33,639.57,Single-ply,SBD,M,
Boys,139.71,2,Blaize Whitaker,Wolfforth Frenship,125.55,158.76,124.74,188.24,471.74,Single-ply,SBD,M,
Boys,139.71,3,Kade Miller,Tuscola Jim Ned,125.1,181.44,86.18,185.97,453.59,Single-ply,SBD,M,
Boys,139.71,4,Joshua Rangel,Wolfforth Frenship,135.17,147.42,111.13,190.51,449.06,Single-ply,SBD,M,
Boys,139.71,5,Xavier Lopez,Roscoe Collegiate,127.82,183.7,90.72,151.95,426.38,Single-ply,SBD,M,
Boys,139.71+,1,Wesley Estridge,Albany,144.88,351.53,183.7,226.8,762.04,Single-ply,SBD,M,
