Division,WeightClassKg,Place,Name,Team,BodyweightKg,Best3SquatKg,Best3BenchKg,Best3DeadliftKg,TotalKg,Equipment,Event,Sex,BirthDate
Boys,59.87,1,Evan Basinger,Madisonville,59.15,120.2,70.31,124.74,315.25,Single-ply,SBD,M,
Boys,59.87,2,Josh Robinson,Centerville,58.33,111.13,72.57,115.67,299.37,Single-ply,SBD,M,
Boys,59.87,3,Jayden Rampey,Cayuga,59.6,111.13,52.16,129.27,292.57,Single-ply,SBD,M,
Boys,59.87,4,David Villa,Cayuga,56.7,77.11,47.63,90.72,215.46,Single-ply,SBD,M,
Boys,67.13,1,Raymond Avalos,Thorndale,65.41,163.29,95.25,172.37,430.91,Single-ply,SBD,M,
Boys,67.13,2,Jason Penick,Thorndale,66.5,163.29,79.38,185.97,428.64,Single-ply,SBD,M,
Boys,67.13,3,Braedon Scott,Madisonville,64.86,149.69,86.18,163.29,399.16,Single-ply,SBD,M,
Boys,67.13,4,Sye Lytle,Centerville,67.04,142.88,92.99,151.95,387.82,Single-ply,SBD,M,
Boys,67.13,5,Collin Caperton,Madisonville,63.68,151.95,74.84,147.42,374.21,Single-ply,SBD,M,
Boys,67.13,6,Josiah Williams,Cayuga,62.05,115.67,22.68,92.99,231.33,Single-ply,SBD,M,
Boys,74.84,1,Luis Guillen,Jewett Leon,74.75,188.24,108.86,226.8,523.9,Single-ply,SBD,M,
Boys,74.84,2,Brent Hubbell,Centerville,73.57,176.9,113.4,197.31,487.61,Single-ply,SBD,M,
Boys,74.84,3,Seth Barker,Cayuga,71.67,188.24,97.52,170.1,455.86,Single-ply,SBD,M,
Boys,74.84,4,Kaleb Walter,Navasota,67.68,156.49,97.52,161.03,415.04,Single-ply,SBD,M,
Boys,74.84,5,Michael Locke,Centerville,74.66,133.81,92.99,170.1,396.89,Single-ply,SBD,M,
Boys,74.84,6,Zach Taylor,Centerville,69.31,136.08,104.33,136.08,376.48,Single-ply,SBD,M,
Boys,74.84,7,Taylor Evans #2,Jewett Leon,70.67,136.08,70.31,154.22,360.61,Single-ply,SBD,M,
Boys,74.84,DQ,James Webb,Centerville,72.03,,,,,Single-ply,SBD,M,
Boys,74.84,DQ,Dd Starnes,Centerville,70.49,,,,,Single-ply,SBD,M,
Boys,74.84,DQ,Luke Merz,Thorndale,73.94,,,,,Single-ply,SBD,M,
Boys,82.1,1,Patrick Brazzell,Madisonville,81.83,208.65,127.01,204.12,539.77,Single-ply,SBD,M,
Boys,82.1,2,Corey Caldwell,Cayuga,81.01,170.1,156.49,174.63,501.22,Single-ply,SBD,M,
Boys,82.1,3,Tyson Cornett,Jewett Leon,76.2,165.56,90.72,226.8,483.08,Single-ply,SBD,M,
Boys,82.1,4,Brayden Youree,Franklin,79.74,188.24,122.47,167.83,478.54,Single-ply,SBD,M,
Boys,82.1,5,Conner Swonke,Madisonville,80.01,158.76,95.25,172.37,426.38,Single-ply,SBD,M,
Boys,82.1,6,Nate Pedigo,Jewett Leon,76.38,151.95,90.72,174.63,417.3,Single-ply,SBD,M,
Boys,82.1,7,Kristian Roberts,Cayuga,77.93,147.42,95.25,167.83,410.5,Single-ply,SBD,M,
Boys,82.1,8,Aj Hernandez,Thorndale,75.11,147.42,92.99,149.69,390.09,Single-ply,SBD,M,
Boys,82.1,9,Christopher Tejada,Navasota,78.38,147.42,70.31,151.95,369.68,Single-ply,SBD,M,
Boys,82.1,10,Nick Ramirez,Thorndale,80.1,131.54,88.45,142.88,362.87,Single-ply,SBD,M,
Boys,82.1,DQ,Dude West,Centerville,79.56,156.49,,,,Single-ply,SBD,M,
Boys,89.81,1,Hayden Kylberg,Thorndale,88.54,226.8,158.76,226.8,612.35,Single-ply,SBD,M,
Boys,89.81,2,Levodrick Phillips,Centerville,88.81,204.12,138.35,204.12,546.58,Single-ply,SBD,M,
Boys,89.81,3,Russell Stegall,Franklin,86.82,195.04,129.27,199.58,523.9,Single-ply,SBD,M,
Boys,89.81,4,Jaylen Myles,Navasota,85.09,210.92,113.4,197.31,521.63,Single-ply,SBD,M,
Boys,89.81,5,Alex Torres #5,Madisonville,84.1,190.51,92.99,170.1,453.59,Single-ply,SBD,M,
Boys,89.81,6,Landan Hanery,Cayuga,86.36,104.33,86.18,127.01,317.51,Single-ply,SBD,M,
Boys,99.79,1,Jose Molina,Normangee,99.7,229.06,140.61,188.24,557.92,Single-ply,SBD,M,
Boys,99.79,2,Marco Mendoza,Navasota,99.52,226.8,111.13,204.12,542.04,Single-ply,SBD,M,
Boys,99.79,3,Tyler George,Madisonville,94.17,215.46,111.13,204.12,530.7,Single-ply,SBD,M,
Boys,99.79,4,Alexander Santos,Navasota,91.53,197.31,102.06,183.7,483.08,Single-ply,SBD,M,
Boys,99.79,5,Callan Shrode,Jewett Leon,91.63,192.78,113.4,163.29,469.47,Single-ply,SBD,M,
Boys,99.79,6,Kolten Goolsby,Cayuga,95.62,195.04,99.79,165.56,460.4,Single-ply,SBD,M,
Boys,99.79,7,Kaleb Yount,Thorndale,97.89,165.56,111.13,176.9,453.59,Single-ply,SBD,M,
Boys,99.79,8,Jamarion Mills,Navasota,95.71,156.49,83.91,174.63,415.04,Single-ply,SBD,M,
Boys,99.79,9,Cemion Smith,Franklin,90.45,154.22,97.52,145.15,396.89,Single-ply,SBD,M,
Boys,99.79,10,Nate Frank,Franklin,97.25,138.35,95.25,136.08,369.68,Single-ply,SBD,M,
Boys,109.77,1,Braylon Cornish,Normangee,101.06,235.87,124.74,195.04,555.65,Single-ply,SBD,M,
Boys,109.77,2,Eduardo Perez,Navasota,108.41,210.92,111.13,183.7,505.76,Single-ply,SBD,M,
Boys,109.77,3,Josh Anderson,Jewett Leon,102.51,172.37,108.86,204.12,485.34,Single-ply,SBD,M,
Boys,109.77,4,Trey Weiler,Jewett Leon,101.88,183.7,108.86,170.1,462.66,Single-ply,SBD,M,
Boys,109.77,5,Tristain Olson,Navasota,101.7,151.95,83.91,165.56,401.43,Single-ply,SBD,M,
Boys,124.74,1,Andrew Elmore,Franklin,117.66,233.6,151.95,195.04,580.6,Single-ply,SBD,M,
Boys,124.74,2,Keegan Wilson,Franklin,111.77,226.8,129.27,208.65,564.72,Single-ply,SBD,M,
Boys,124.74,3,David Guevara,Madisonville,116.21,213.19,113.4,208.65,535.24,Single-ply,SBD,M,
Boys,124.74,4,Andrew Narro,Franklin,119.39,185.97,149.69,179.17,514.83,Single-ply,SBD,M,
Boys,124.74,5,Sheldon Rayford,Navasota,111.04,197.31,79.38,179.17,455.86,Single-ply,SBD,M,
Boys,124.74,DQ,Jer'Tavius Brown,Madisonville,116.48,235.87,145.15,190.51,,Single-ply,SBD,M,
Boys,139.71,1,Jose Lopez,Navasota,125.19,240.4,111.13,226.8,578.33,Single-ply,SBD,M,
Boys,139.71,2,Jacob Ingram,Cayuga,135.44,174.63,99.79,172.37,446.79,Single-ply,SBD,M,
Boys,139.71+,1,Hillard Morning,Madisonville,204.12,190.51,108.86,165.56,464.93,Single-ply,SBD,M,
