Division,WeightClassKg,Place,Name,Team,BodyweightKg,Best3SquatKg,Best3BenchKg,Best3DeadliftKg,TotalKg,Equipment,Event,Sex
Girls,44.23,1,Jennifer Gatlin,Troup,39.1,61.23,31.75,70.31,163.29,Single-ply,SBD,F
Girls,47.85,1,Elizabeth Chavez,Center,47.45,113.4,40.82,106.59,260.82,Single-ply,SBD,F
Girls,47.85,2,Kayden Perry,Gladewater Sabine,46.45,58.97,31.75,72.57,163.29,Single-ply,SBD,F
Girls,51.94,1,Sydney Jo Sears,Center,50.44,106.59,47.63,104.33,258.55,Single-ply,SBD,F
Girls,51.94,2,Racheal Puckett,Lindale,49.9,102.06,43.09,77.11,222.26,Single-ply,SBD,F
Girls,51.94,3,Kaitlyn Hays,Troup,49.8,88.45,40.82,81.65,210.92,Single-ply,SBD,F
Girls,51.94,4,Jazmin Guevara,Center,49.35,74.84,31.75,77.11,183.7,Single-ply,SBD,F
Girls,56.02,1,Madi Newman,Gladewater Union Grove,54.25,129.27,70.31,113.4,312.98,Single-ply,SBD,F
Girls,56.02,2,Jaelan Linville,Mount Enterprise,52.34,115.67,77.11,115.67,308.44,Single-ply,SBD,F
Girls,56.02,3,Sela Aguilar,Gladewater Union Grove,53.34,115.67,70.31,111.13,297.1,Single-ply,SBD,F
Girls,56.02,4,Luisa Soto,White Oak,52.53,120.2,49.9,113.4,283.5,Single-ply,SBD,F
Girls,56.02,5,Pel Htoo,Center,54.7,113.4,45.36,99.79,258.55,Single-ply,SBD,F
Girls,56.02,6,Maegan Boone,Gladewater Sabine,54.88,86.18,43.09,81.65,210.92,Single-ply,SBD,F
Girls,56.02,DQ,Madison Whitton,Troup,53.52,,,,,Single-ply,SBD,F
Girls,60.1,1,Taylor Allen #1,Gladewater Union Grove,59.6,115.67,56.7,115.67,288.03,Single-ply,SBD,F
Girls,60.1,2,Kassy Bennett,Lindale,58.15,111.13,45.36,108.86,265.35,Single-ply,SBD,F
Girls,60.1,3,Delani Waggoner,Gladewater Sabine,58.42,104.33,49.9,99.79,254.01,Single-ply,SBD,F
Girls,60.1,4,Chyenne Kimbrell,Hawkins,58.88,90.72,36.29,104.33,231.33,Single-ply,SBD,F
Girls,60.1,5,Dani Spivey,Longview Spring Hill,58.51,72.57,45.36,79.38,197.31,Single-ply,SBD,F
Girls,60.1,6,Kaylee Byers,Gladewater Sabine,59.78,77.11,27.22,81.65,185.97,Single-ply,SBD,F
Girls,60.1,DQ,Francis Zuniga,Troup,58.24,,,,,Single-ply,SBD,F
Girls,60.1,DQ,Katie York,Troup,58.6,,,,,Single-ply,SBD,F
Girls,67.36,1,Sydni Segroves,Lindale,63.87,122.47,52.16,129.27,303.91,Single-ply,SBD,F
Girls,67.36,2,Emma Smitherman,Gladewater Sabine,66.04,115.67,61.23,111.13,288.03,Single-ply,SBD,F
Girls,67.36,3,Miriam Almaguer,Center,65.5,111.13,47.63,115.67,274.42,Single-ply,SBD,F
Girls,67.36,4,Makayla Ragland,Lindale,65.95,99.79,52.16,106.59,258.55,Single-ply,SBD,F
Girls,67.36,5,Ashlyn Christy,Gladewater Sabine,60.78,102.06,58.97,95.25,256.28,Single-ply,SBD,F
Girls,67.36,6,Riley Kindle,Lindale,66.32,77.11,34.02,79.38,190.51,Single-ply,SBD,F
Girls,67.36,DQ,Taylor Brewer,Longview Spring Hill,65.05,79.38,,,,Single-ply,SBD,F
Girls,67.36,DQ,Emily Allahmed,Longview Spring Hill,61.33,54.43,,,,Single-ply,SBD,F
Girls,67.36,DQ,Rhema Pitts,Troup,64.86,,,,,Single-ply,SBD,F
Girls,67.36,DQ,Mariana Gatlin,Troup,61.96,,,,,Single-ply,SBD,F
Girls,67.36,DQ,Brooke Shearer,Gladewater Sabine,64.68,104.33,,,,Single-ply,SBD,F
Girls,67.36,DQ,Addison Morris,Gladewater Sabine,63.78,92.99,,,,Single-ply,SBD,F
Girls,75.07,1,Katie Melton,Gladewater Union Grove,73.75,149.69,79.38,122.47,351.53,Single-ply,SBD,F
Girls,75.07,2,Emily Cook,Frankston,73.21,113.4,54.43,120.2,288.03,Single-ply,SBD,F
Girls,75.07,3,Madelynn Lacaze,Gladewater Union Grove,68.4,113.4,58.97,111.13,283.5,Single-ply,SBD,F
Girls,75.07,4,Jemah Khalil,Lindale,70.03,120.2,47.63,111.13,278.96,Single-ply,SBD,F
Girls,75.07,5,Brianna Parades,Lindale,71.3,95.25,40.82,106.59,242.67,Single-ply,SBD,F
Girls,75.07,6,Madison Hamilton,White Oak,69.76,56.7,27.22,74.84,158.76,Single-ply,SBD,F
Girls,75.07,DQ,Grace Browder,Longview Spring Hill,72.76,88.45,,,,Single-ply,SBD,F
Girls,75.07,DQ,Alexis Shelton,Troup,72.39,,,,,Single-ply,SBD,F
Girls,75.07,DQ,Ti'Jana Hall,Jefferson,68.49,,,,,Single-ply,SBD,F
Girls,82.33,1,Brayden Gill,Lindale,77.47,124.74,52.16,108.86,285.76,Single-ply,SBD,F
Girls,82.33,2,Nova Davenport,Frankston,78.02,120.2,52.16,113.4,285.76,Single-ply,SBD,F
Girls,82.33,3,Kaela Davis,Frankston,79.29,120.2,58.97,79.38,258.55,Single-ply,SBD,F
Girls,82.33,4,Felicity Smith,Lindale,80.29,106.59,54.43,97.52,258.55,Single-ply,SBD,F
Girls,82.33,5,Amber Largent,Hawkins,81.47,99.79,49.9,97.52,247.21,Single-ply,SBD,F
Girls,82.33,DQ,Mercedes Willett,Gladewater Sabine,80.1,81.65,,,,Single-ply,SBD,F
Girls,82.33,DQ,Catelin Jones,Frankston,81.01,113.4,56.7,,,Single-ply,SBD,F
Girls,82.33,DQ,Maryssa Gilliam,Troup,81.37,147.42,63.5,,,Single-ply,SBD,F
Girls,82.33,DQ,Mallory Carroll,White Oak,78.02,,,,,Single-ply,SBD,F
Girls,90.04,1,Kailan Randle,Center,85,140.61,65.77,129.27,335.66,Single-ply,SBD,F
Girls,90.04,2,Natelie Jones,Frankston,83.64,127.01,56.7,133.81,317.51,Single-ply,SBD,F
Girls,90.04,3,Randi Wilson,Troup,88.18,108.86,68.04,129.27,306.17,Single-ply,SBD,F
Girls,90.04,4,Amanda Torres #2,Hawkins,88.72,117.93,54.43,133.81,306.17,Single-ply,SBD,F
Girls,90.04,5,Hannah Merritt,Gladewater Sabine,87.36,108.86,63.5,117.93,290.3,Single-ply,SBD,F
Girls,90.04,6,Jasmine Johnson,Jefferson,89.45,72.57,38.56,88.45,199.58,Single-ply,SBD,F
Girls,90.04,DQ,Alyssa Gallegos,Longview Spring Hill,89.9,61.23,,,,Single-ply,SBD,F
Girls,100.02,1,Jalyce Dennis,Troup,91.9,147.42,81.65,154.22,383.29,Single-ply,SBD,F
Girls,100.02,2,Erika Lowry,Gladewater Sabine,93.08,142.88,79.38,142.88,365.14,Single-ply,SBD,F
Girls,100.02,3,Peyton Sartors,Overton,95.8,68.04,43.09,102.06,213.19,Single-ply,SBD,F
Girls,100.02,DQ,Lezlie Smith,Hawkins,97.89,58.97,,,,Single-ply,SBD,F
Girls,117.71,1,Addi Baquet,Lindale,105.05,138.35,56.7,131.54,326.59,Single-ply,SBD,F
Girls,117.71,2,Tori Hill,White Oak,110.68,124.74,65.77,111.13,301.64,Single-ply,SBD,F
Girls,117.71,3,Mya Rose,Hawkins,112.67,104.33,54.43,133.81,292.57,Single-ply,SBD,F
Girls,117.71,4,Destiny Toye,Frankston,102.15,120.2,54.43,113.4,288.03,Single-ply,SBD,F
Girls,117.71,5,Rachel Petree,Longview Spring Hill,106.41,95.25,47.63,90.72,233.6,Single-ply,SBD,F
Girls,117.71+,1,Kyiriona Roland,Overton,118.39,83.91,47.63,102.06,233.6,Single-ply,SBD,F
Girls,117.71+,DQ,Alondra Salinas,Troup,120.84,,,,,Single-ply,SBD,F
