Division,WeightClassKg,Place,Name,Team,BodyweightKg,Best3SquatKg,Best3BenchKg,Best3DeadliftKg,TotalKg,Equipment,Event,Sex,BirthDate
Girls,51.94,1,Alexa Morones,Wills Point,51.66,111.13,36.29,97.52,244.94,Single-ply,SBD,F,
Girls,56.02,DQ,Ava Ewins,Wills Point,55.52,56.7,,79.38,,Single-ply,SBD,F,
Girls,60.1,1,Kenedie Thomas,Canton,60.1,92.99,43.09,83.91,219.99,Single-ply,SBD,F,
Girls,67.36,1,Kirston McMullen,Canton,62.05,102.06,65.77,106.59,274.42,Single-ply,SBD,F,
Girls,67.36,2,Shelby Wycough,Canton,63.14,97.52,56.7,92.99,247.21,Single-ply,SBD,F,
Girls,67.36,3,Josey Boswell,Canton,61.05,92.99,43.09,97.52,233.6,Single-ply,SBD,F,
Girls,67.36,4,Madison Raper,Canton,67,79.38,38.56,90.72,208.65,Single-ply,SBD,F,
Girls,75.07,1,Lexi Taylor,Wills Point,69.9,97.52,54.43,104.33,256.28,Single-ply,SBD,F,
Girls,75.07,2,Amberli Reed,Canton,71.21,92.99,56.7,83.91,233.6,Single-ply,SBD,F,
Girls,75.07,3,Samantha Crossley,Canton,70.99,95.25,43.09,88.45,226.8,Single-ply,SBD,F,
Girls,75.07,DQ,Isaelle Williams,Canton,67.77,70.31,,86.18,,Single-ply,SBD,F,
Girls,82.33,1,Landrie Valenzuela,Canton,79.92,142.88,65.77,129.27,337.93,Single-ply,SBD,F,
Girls,82.33,2,Laney Reid,Canton,76.66,104.33,38.56,92.99,235.87,Single-ply,SBD,F,
Girls,90.04,1,Shyla Walls,Canton,84.55,113.4,79.38,120.2,312.98,Single-ply,SBD,F,
Girls,90.04,2,Vivian Brisbois,Canton,84.64,108.86,63.5,115.67,288.03,Single-ply,SBD,F,
Girls,90.04,3,Alondra Martinez,Wills Point,87.82,108.86,43.09,122.47,274.42,Single-ply,SBD,F,
Girls,90.04,4,Courtney Townsend,Canton,83.91,72.57,38.56,99.79,210.92,Single-ply,SBD,F,
Girls,100.02,1,Mady Garcia,Wills Point,92.12,136.08,83.91,117.93,337.93,Single-ply,SBD,F,
Girls,100.02,2,Brandy Rangel,Wills Point,90.54,104.33,49.9,117.93,272.16,Single-ply,SBD,F,
Girls,100.02,3,Ashlan Lewis,Wills Point,92.85,79.38,31.75,124.74,235.87,Single-ply,SBD,F,
