Sex,Name,Place,BodyweightKg,Country,Deadlift1Kg,Deadlift2Kg,Deadlift3Kg,Best3DeadliftKg,Deadlift4Kg,TotalKg,WeightClassKg,Event,Equipment,Tested,Bench1Kg,Bench2Kg,Bench3Kg,Best3BenchKg,Bench4Kg,Squat1Kg,Squat2Kg,Squat3Kg,Best3SquatKg,Squat4Kg,Division,Age,BirthDate
F,Yulia Umerenkova,1,72.3,Russia,190.5,200,,200,,200,75,D,Multi-ply,No,,,,,,,,,,,Pro Open,39,1980-12-10
M,Tsegmed Byambaa,1,72.5,Mongolia,160,175,-190,175,,175,75,D,Multi-ply,No,,,,,,,,,,,Pro Masters 75-79,79,1940-05-09
M,Igor Umerenkov,1,110,Russia,280,-305,,280,,280,110,D,Multi-ply,No,,,,,,,,,,,Pro Open,39,1980-09-13
F,Harneet Dhillon,1,52,India,115,122.5,-125,122.5,,122.5,52,D,Single-ply,No,,,,,,,,,,,Pro Open,32,1987-10-17
M,Adnan Syed,1,74.9,India,165,180,187.5,187.5,,187.5,75,D,Single-ply,No,,,,,,,,,,,Pro Juniors 20-23,21,1998-11-04
M,Dubey Parth,1,89.3,India,-130,130,140,140,,140,90,D,Single-ply,No,,,,,,,,,,,Pro Teen 18-19,18,2001-08-13
F,Karmela Gonyan,1,43.1,Russia,77.5,85,90,90,,90,44,D,Raw,No,,,,,,,,,,,Pro Juniors 20-23,22,1997-10-22
F,Bhavna Shah,1,43.4,India,62.5,65,70,70,,70,44,D,Raw,No,,,,,,,,,,,Pro Open,43,1976-05-16
F,Bhavna Shah,1,43.4,India,62.5,65,70,70,,70,44,D,Raw,No,,,,,,,,,,,Pro Masters 40-44,43,1976-05-16
F,Fatema Dhoondia,1,47.4,India,-127.5,127.5,-145,127.5,,127.5,48,D,Raw,No,,,,,,,,,,,Pro Open,30,1989-02-19
F,Yuliya Mendaleva,1,50.5,Russia,-115,115,120,120,,120,52,D,Raw,No,,,,,,,,,,,Pro Open,27,1992-04-15
F,Anastasiya Dolgopolova,2,51.8,Russia,100,110,-117.5,110,,110,52,D,Raw,No,,,,,,,,,,,Pro Open,37,1981-12-31
F,Nami Parekh,1,53.9,India,150,165,-175,165,,165,56,D,Raw,No,,,,,,,,,,,Pro Open,29,1990-05-01
F,Valeriya Milyutina,2,56,Russia,-115,122.5,127.5,127.5,,127.5,56,D,Raw,No,,,,,,,,,,,Pro Open,38,1981-11-29
F,Anna Koroleva,3,54.1,Russia,90,-100,-105,90,,90,56,D,Raw,No,,,,,,,,,,,Pro Open,35,1984-03-01
F,Kseniya Zvezdilina,4,54.9,Russia,-65,67.5,70,70,,70,56,D,Raw,No,,,,,,,,,,,Pro Open,28,1991-02-06
F,Diana Lisichenkova,1,56.8,Russia,90,-95,-95,90,,90,60,D,Raw,No,,,,,,,,,,,Pro Teen 18-19,19,2000-01-03
F,Ekaterina Solovyeva,1,58.9,Russia,135,147.5,150,150,,150,60,D,Raw,No,,,,,,,,,,,Pro Open,29,1990-08-07
F,Marina Giginashvili,2,57.9,Russia,70,75,80,80,,80,60,D,Raw,No,,,,,,,,,,,Pro Open,31,1988-12-12
F,Shokhista Mukhammadieva,1,63.9,Russia,70,80,90,90,,90,67.5,D,Raw,No,,,,,,,,,,,Pro Open,35,1984-01-11
F,Tatyana Kolesnikova,1,62.7,Russia,92.5,102.5,107.5,107.5,,107.5,67.5,D,Raw,No,,,,,,,,,,,Pro Masters 40-44,41,1978-03-17
F,Bhavna Tokekar,1,67.5,India,100,115,132.5,132.5,,132.5,67.5,D,Raw,No,,,,,,,,,,,Pro Masters 45-49,47,1971-12-31
F,Alpa Dedhia,1,99.4,India,105,115,-122.5,115,,115,90+,D,Raw,No,,,,,,,,,,,Pro Open,35,1984-11-09
M,Aleksandr Chebotarev,1,58.7,Russia,130,150,-172.5,150,,150,60,D,Raw,No,,,,,,,,,,,Pro Open,31,1987-12-17
M,Singh Sukhraj,1,66.7,India,-160,165,180,180,,180,67.5,D,Raw,No,,,,,,,,,,,Pro Juniors 20-23,21,1998-11-11
M,Sergey Gusev,1,66.6,Russia,150,-155,160,160,,160,67.5,D,Raw,No,,,,,,,,,,,Pro Masters 40-44,43,1976-09-19
M,Singh Yuvraj,1,70.4,India,160,175,-180,175,,175,75,D,Raw,No,,,,,,,,,,,Pro Teen 18-19,19,2000-10-07
M,Singh Sukhman,1,72.6,India,160,180,185,185,,185,75,D,Raw,No,,,,,,,,,,,Pro Juniors 20-23,21,1998-11-11
M,Alexey Romanov,1,74.6,Russia,237.5,247.5,-255,247.5,,247.5,75,D,Raw,No,,,,,,,,,,,Pro Open,33,1986-02-05
M,Varad Patil,2,74.8,India,220,242.5,-250,242.5,,242.5,75,D,Raw,No,,,,,,,,,,,Pro Open,31,1988-06-06
M,Konstantin Lukyanov #2,1,72.4,Russia,155,170,180,180,,180,75,D,Raw,No,,,,,,,,,,,Pro Masters 40-44,44,1975-06-05
M,Rohan Simon,1,82.2,India,192.5,207.5,220,220,,220,82.5,D,Raw,No,,,,,,,,,,,Pro Teen 16-17,16,2003-08-04
M,Singh Sanveer,1,78.7,India,165,170,172.5,172.5,,172.5,82.5,D,Raw,No,,,,,,,,,,,Pro Teen 18-19,19,2000-04-13
M,Ivan Malichev,2,76.8,Russia,150,162.5,-172.5,162.5,,162.5,82.5,D,Raw,No,,,,,,,,,,,Pro Teen 18-19,19,2000-06-15
M,Andrey Rumasov,1,81.7,Russia,245,260,280,280,,280,82.5,D,Raw,No,,,,,,,,,,,Pro Open,28,1991-03-10
M,Armen Nersisyan,2,81.8,Russia,210,220,227.5,227.5,,227.5,82.5,D,Raw,No,,,,,,,,,,,Pro Open,25,1994-06-02
M,Rohan Simon,3,82.2,India,192.5,207.5,220,220,,220,82.5,D,Raw,No,,,,,,,,,,,Pro Open,16,2003-08-04
M,Nikolay Sitenskikh,1,81.3,Russia,165,190,200,200,,200,82.5,D,Raw,No,,,,,,,,,,,Pro Masters 45-49,45,1974-05-27
M,Sergey Savvin,2,82.5,Russia,150,185,-215,185,,185,82.5,D,Raw,No,,,,,,,,,,,Pro Masters 45-49,47,1972-04-05
M,Victor Skokin,1,76.2,Russia,210,220,227.5,227.5,,227.5,82.5,D,Raw,No,,,,,,,,,,,Pro Masters 60-64,62,1957-06-20
M,Abhimanyusinh Jadeja,1,87.8,India,130,-140,,130,,130,90,D,Raw,No,,,,,,,,,,,Pro Teen 13-15,15,2003-12-25
M,Aleksandr Kokurkin,1,86,Russia,170,-185,195,195,,195,90,D,Raw,No,,,,,,,,,,,Pro Teen 16-17,16,2003-03-15
M,Deven Gahlot,1,84.2,India,170,-185,-185,170,,170,90,D,Raw,No,,,,,,,,,,,Pro Teen 18-19,18,2001-03-07
M,Mervin Moses,1,90,India,240,250,265,265,,265,90,D,Raw,No,,,,,,,,,,,Pro Juniors 20-23,20,1999-09-17
M,Mervin Moses,1,90,India,240,250,265,265,,265,90,D,Raw,No,,,,,,,,,,,Pro Open,20,1999-09-17
M,Maksim Kosenkov,2,89.2,Russia,222.5,230,,230,,230,90,D,Raw,No,,,,,,,,,,,Pro Open,26,1993-05-18
M,Artem Safonov #3,3,85.2,Russia,195,222.5,-230,222.5,,222.5,90,D,Raw,No,,,,,,,,,,,Pro Open,24,1995-08-15
M,Dmitriy Sichevoy,4,88.5,Russia,195,200,202.5,202.5,,202.5,90,D,Raw,No,,,,,,,,,,,Pro Open,31,1988-03-02
M,Aleksey Kobzev,1,87.9,Russia,185,200,210,210,,210,90,D,Raw,No,,,,,,,,,,,Pro Masters 40-44,42,1977-03-25
M,Vladimir Snezhkin,2,89,Russia,180,-195,-195,180,,180,90,D,Raw,No,,,,,,,,,,,Pro Masters 40-44,40,1979-05-23
M,Andrey Sevortyan,1,98.5,Russia,-190,-190,190,190,,190,100,D,Raw,No,,,,,,,,,,,Pro Teen 16-17,17,2002-03-18
M,Mitilesh Barla,1,98.9,India,215,225,,225,,225,100,D,Raw,No,,,,,,,,,,,Pro Juniors 20-23,23,1996-06-21
M,Anton Belov,1,99.9,Russia,250,260,-267.5,260,,260,100,D,Raw,No,,,,,,,,,,,Pro Open,34,1985-03-24
M,Aleksandr Retyunskikh,2,97.2,Russia,210,220,232.5,232.5,,232.5,100,D,Raw,No,,,,,,,,,,,Pro Open,37,1982-10-11
M,Yuriy Klishin,3,98.3,Russia,210,222.5,232.5,232.5,,232.5,100,D,Raw,No,,,,,,,,,,,Pro Open,25,1994-11-03
M,Mitilesh Barla,4,98.9,India,215,225,,225,,225,100,D,Raw,No,,,,,,,,,,,Pro Open,23,1996-06-21
M,Mikhail Zmunchile,5,97.1,Russia,202.5,220,-232.5,220,,220,100,D,Raw,No,,,,,,,,,,,Pro Open,36,1983-05-25
M,Anton Sitnikov,6,90.6,Russia,190,202.5,210,210,,210,100,D,Raw,No,,,,,,,,,,,Pro Open,34,1985-04-08
M,Dmitriy Kazakov,1,98.7,Russia,250,260,265,265,,265,100,D,Raw,No,,,,,,,,,,,Pro Masters 40-44,43,1976-11-19
M,Sergey Pigrov,2,96.3,Russia,180,195,205,205,,205,100,D,Raw,No,,,,,,,,,,,Pro Masters 40-44,41,1978-06-03
M,Aleksey Lileev,1,99.3,Russia,190,202.5,207.5,207.5,,207.5,100,D,Raw,No,,,,,,,,,,,Pro Masters 45-49,47,1972-09-03
M,Ayush Chaudhary,1,106.7,India,-205,220,-235,220,,220,110,D,Raw,No,,,,,,,,,,,Pro Juniors 20-23,20,1999-10-18
M,Andrey Pletnev,1,107.6,Russia,230,250,-260,250,,250,110,D,Raw,No,,,,,,,,,,,Pro Open,32,1987-08-09
M,Aleksandr Talismanov,2,106.1,Russia,195,207.5,215,215,,215,110,D,Raw,No,,,,,,,,,,,Pro Open,29,1990-01-10
M,Sergey Molotkov,1,114.3,Russia,250,260,-265,260,,260,125,D,Raw,No,,,,,,,,,,,Pro Open,29,1990-06-18
M,Ilya Naroditskiy,2,110.9,Russia,240,-260,,240,,240,125,D,Raw,No,,,,,,,,,,,Pro Open,30,1989-07-12
M,Aleksandr Kokotkin,1,115.1,Russia,210,230,255,255,,255,125,D,Raw,No,,,,,,,,,,,Pro Masters 45-49,45,1974-02-05
M,Ján Šiska,1,120,Slovakia,240,262.5,-272.5,262.5,,262.5,125,D,Multi-ply,No,,,,,,,,,,,Pro Open,39,1980-04-15
M,Sergey Starodubskiy,1,113,Russia,230,260,270,270,,270,125,D,Multi-ply,No,,,,,,,,,,,Pro Masters 40-44,41,1977-12-20
M,Peter Funtík,2,118.3,Slovakia,-260,260,-272.5,260,,260,125,D,Multi-ply,No,,,,,,,,,,,Pro Masters 40-44,41,1978-10-31
M,Sagar Gurve,1,59.9,India,185,205,-210,205,,205,60,D,Single-ply,No,,,,,,,,,,,Pro Juniors 20-23,23,1996-01-04
M,Aman Chaudhary,1,64.5,India,182.5,-192.5,-192.5,182.5,,182.5,67.5,D,Single-ply,No,,,,,,,,,,,Pro Juniors 20-23,23,1996-04-13
M,Nikita Kuznetsov,1,95.7,Russia,260,-292.5,-292.5,260,,260,100,D,Single-ply,No,,,,,,,,,,,Pro Open,30,1989-08-24
M,Rankyn Freyded,1,155.1,Cuba,305,320,,320,,320,140+,D,Single-ply,No,,,,,,,,,,,Pro Open,44,1975-10-07
M,Rankyn Freyded,1,155.1,Cuba,305,320,,320,,320,140+,D,Single-ply,No,,,,,,,,,,,Pro Masters 40-44,44,1975-10-07
F,Olga Khodireva,1,55.4,Russia,95,100,-105,100,,100,56,D,Raw,No,,,,,,,,,,,Pro Masters 60-64,62,1957-01-09
F,Alina Scherban,1,66.5,Russia,160,180,190,190,,190,67.5,D,Raw,No,,,,,,,,,,,Pro Open,27,1992-07-09
F,Komal Trivedi,DQ,75.9,India,-90,,,,,,82.5,D,Raw,No,,,,,,,,,,,Pro Open,39,1980-07-11
F,Virpi Knuutila,1,87.8,Finland,210,225,235,235,,235,90,D,Raw,No,,,,,,,,,,,Pro Open,52,1967-10-11
F,Virpi Knuutila,1,87.8,Finland,210,225,235,235,,235,90,D,Raw,No,,,,,,,,,,,Pro Masters 50-54,52,1967-10-11
M,Yaroslav Iryanov,1,46.2,Russia,-70,70,75,75,,75,52,D,Raw,No,,,,,,,,,,,Pro Youth,12,2007-02-09
M,Utkarsh Dahiya,1,74.1,India,-150,157.5,-168,157.5,,157.5,75,D,Raw,No,,,,,,,,,,,Pro Teen 13-15,15,2004-03-20
M,Evgeniy Pershin,1,74.4,Russia,135,145,-155,145,,145,75,D,Raw,No,,,,,,,,,,,Pro Open,30,1989-04-27
M,Evgeniy Sellyahov,1,81.1,Russia,180,200,215,215,,215,82.5,D,Raw,No,,,,,,,,,,,Pro Juniors 20-23,23,1996-08-26
M,Valeriy Boyarchenko,1,81.6,Russia,-200,200,-210,200,,200,82.5,D,Raw,No,,,,,,,,,,,Pro Masters 45-49,45,1974-11-28
M,Saeid Jafarzaden,1,89.3,Iran,255,-275,275,275,,275,90,D,Raw,No,,,,,,,,,,,Pro Open,42,1977-08-06
M,Denis Kaputin,2,87.7,Russia,210,220,230,230,,230,90,D,Raw,No,,,,,,,,,,,Pro Open,31,1988-05-03
M,Saeid Jafarzaden,1,89.3,Iran,255,-275,275,275,,275,90,D,Raw,No,,,,,,,,,,,Pro Masters 40-44,42,1977-08-06
M,Karandevsinh Jadeja,2,89.3,India,160,170,,170,,170,90,D,Raw,No,,,,,,,,,,,Pro Masters 40-44,42,1977-11-01
M,Evgeniy Khudoleev,1,86.2,Russia,200,-215,-215,200,,200,90,D,Raw,No,,,,,,,,,,,Pro Masters 70-74,73,1946-09-10
M,Rajat Dalal,1,94.8,India,280,305,-320,305,,305,100,D,Raw,No,,,,,,,,,,,Pro Juniors 20-23,23,1996-01-12
M,Ivan Poryadin,1,97.5,Russia,260,280,,280,,280,100,D,Raw,No,,,,,,,,,,,Pro Open,37,1982-06-06
M,Rishabh Bhatia,1,105.9,India,205,220,-225,220,,220,110,D,Raw,No,,,,,,,,,,,Pro Juniors 20-23,22,1997-10-17
M,Mohammed Azamathulla,1,106.4,India,250,270,290,290,,290,110,D,Raw,No,,,,,,,,,,,Pro Open,42,1977-11-23
M,Mohammed Azamathulla,1,106.4,India,250,270,290,290,,290,110,D,Raw,No,,,,,,,,,,,Pro Masters 40-44,42,1977-11-23
M,Yuriy Kolmakov,1,129.6,Russia,280,310,-330,310,,310,140,D,Raw,No,,,,,,,,,,,Pro Open,36,1983-05-06
M,Yuriy Demyanchuk,1,139.8,Russia,250,280,-295,280,,280,140,D,Raw,No,,,,,,,,,,,Pro Masters 40-44,41,1978-10-03
M,Evgeniy Ivanov #9,1,133.7,Russia,290,300,,300,,300,140,D,Raw,No,,,,,,,,,,,Pro Masters 45-49,46,1973-06-13
M,Egor Golubev,2,131.2,Russia,240,255,270,270,,270,140,D,Raw,No,,,,,,,,,,,Pro Masters 45-49,45,1974-08-23
M,Stanislav Scheslavskiy,1,98.9,Russia,,,,,,275,100,B,Unlimited,No,255,275,-280,275,,,,,,,Pro Open,38,1981-04-15
M,Hossein Seifouri,1,107.3,Iran,,,,,,230,110,B,Unlimited,No,220,230,-240,230,,,,,,,Pro Open,37,1982-09-06
M,Pavel Guzev,1,123,Russia,,,,,,372.5,125,B,Unlimited,No,345,360,372.5,372.5,,,,,,,Pro Open,53,1966-05-29
M,Pavel Guzev,1,123,Russia,,,,,,372.5,125,B,Unlimited,No,345,360,372.5,372.5,,,,,,,Pro Masters 50-54,53,1966-05-29
F,Irina Matveeva,1,47.9,Russia,,,,,,65,48,B,Unlimited,No,55,62.5,65,65,-67.5,,,,,,Pro Open,38,1981-03-26
F,Natalya Grosheva,1,55.4,Russia,,,,,,70,56,B,Unlimited,No,-70,70,-75,70,,,,,,,Pro Open,39,1980-02-23
F,Elena Yakovleva,1,59.7,Russia,,,,,,85,60,B,Unlimited,No,-85,-85,85,85,,,,,,,Pro Open,36,1983-12-04
F,Anastasiya Agaeva,1,64.4,Russia,,,,,,67.5,67.5,B,Unlimited,No,67.5,-72.5,-77.5,67.5,,,,,,,Pro Teen 18-19,18,2001-06-20
F,Irina Zmievskaya,1,64.7,Russia,,,,,,60,67.5,B,Unlimited,No,60,-70,-77.5,60,,,,,,,Pro Open,31,1988-11-17
F,Viktoriya Kaufman,1,101,Russia,,,,,,100,90+,B,Unlimited,No,92.5,100,-105,100,,,,,,,Pro Open,39,1980-05-09
M,Aleksandr Deev,1,74.2,Russia,,,,,,170,75,B,Unlimited,No,-162.5,162.5,170,170,,,,,,,Pro Open,33,1986-07-22
M,Dmitriy Sergeev,1,82,Russia,,,,,,160,82.5,B,Unlimited,No,-160,160,-172.5,160,,,,,,,Pro Open,32,1987-02-12
M,Yuriy Sklyarov,1,82,Russia,,,,,,210,82.5,B,Unlimited,No,195,205,210,210,,,,,,,Pro Masters 40-44,41,1978-07-17
M,Maksim Visotskiy,1,83.1,Russia,,,,,,145,90,B,Unlimited,No,-145,-145,145,145,,,,,,,Pro Open,32,1987-05-26
M,Andrey Babenkov,1,91.2,Russia,,,,,,220,100,B,Unlimited,No,180,200,220,220,,,,,,,Pro Open,28,1991-07-16
M,Andrey Fritsler,1,108.2,Russia,,,,,,212.5,110,B,Unlimited,No,190,-212.5,212.5,212.5,,,,,,,Pro Open,35,1984-04-11
F,Veronika Vasilyeva,1,49.1,Russia,,,,,,67.5,52,B,Single-ply,No,57.5,62.5,67.5,67.5,,,,,,,Pro Open,33,1986-02-23
F,Marina Lukyanova,1,67,Russia,,,,,,120,67.5,B,Single-ply,No,120,,,120,,,,,,,Pro Open,47,1972-02-09
M,Hossein Seifouri,1,107.3,Iran,,,,,,210,110,B,Single-ply,No,202.5,210,,210,,,,,,,Pro Open,37,1982-09-06
F,Bhavna Shah,1,43.4,India,,,,,,30,44,B,Raw,No,27.5,30,-32.5,30,,,,,,,Pro Open,43,1976-05-16
F,Bhavna Shah,1,43.4,India,,,,,,30,44,B,Raw,No,27.5,30,-32.5,30,,,,,,,Pro Masters 40-44,43,1976-05-16
F,Anastasiya Khorkhorova,1,46.2,Russia,,,,,,40,48,B,Raw,No,35,40,-45,40,,,,,,,Pro Open,26,1993-03-22
F,Mariya Mostovaya,1,55.4,Russia,,,,,,70,56,B,Raw,No,65,70,-72.5,70,,,,,,,Pro Open,34,1985-11-19
F,Natalya Stupina,2,55.8,Russia,,,,,,42.5,56,B,Raw,No,40,42.5,-45,42.5,,,,,,,Pro Open,26,1993-07-12
F,Sofya Koroleva,1,59,Russia,,,,,,62.5,60,B,Raw,No,62.5,-67.5,-67.5,62.5,,,,,,,Pro Teen 18-19,18,2001-07-13
F,Tatyana Makushina,1,59.3,Russia,,,,,,72.5,60,B,Raw,No,62.5,67.5,72.5,72.5,,,,,,,Pro Juniors 20-23,22,1997-06-05
F,Marina Lukyanova,1,67,Russia,,,,,,100,67.5,B,Raw,No,95,97.5,100,100,,,,,,,Pro Open,47,1972-02-09
F,Bhavna Tokekar,1,67.5,India,,,,,,72.5,67.5,B,Raw,No,57.5,65,72.5,72.5,,,,,,,Pro Masters 45-49,47,1971-12-31
F,Vera Smetankina,1,81.5,Russia,,,,,,42.5,82.5,B,Raw,No,37.5,40,42.5,42.5,,,,,,,Pro Masters 40-44,41,1978-06-30
F,Alpa Dedhia,1,99.4,India,,,,,,52.5,90+,B,Raw,No,47.5,52.5,-57.5,52.5,,,,,,,Pro Open,35,1984-11-09
M,Vsevolod Golovanov,1,47.1,Russia,,,,,,47.5,52,B,Raw,No,30,40,47.5,47.5,,,,,,,Pro Teen 13-15,14,2005-02-19
M,Yulian Ivanov,1,59,Russia,,,,,,120,60,B,Raw,No,-115,120,-127.5,120,,,,,,,Pro Juniors 20-23,22,1997-09-23
M,Nikolay Fokin,2,59.4,Russia,,,,,,90,60,B,Raw,No,-90,90,-97.5,90,,,,,,,Pro Juniors 20-23,21,1998-06-26
M,Egor Zubkov,1,65,Russia,,,,,,97.5,67.5,B,Raw,No,80,90,97.5,97.5,,,,,,,Pro Teen 13-15,14,2005-02-04
M,Sergey Kantsurov,1,65.8,Russia,,,,,,140,67.5,B,Raw,No,130,137.5,140,140,,,,,,,Pro Open,28,1991-03-14
M,Maksim Maslov,2,66,Russia,,,,,,132.5,67.5,B,Raw,No,132.5,-137.5,-142.5,132.5,,,,,,,Pro Open,37,1982-09-08
M,Aleksey Melnikov,3,67.1,Russia,,,,,,107.5,67.5,B,Raw,No,107.5,-115,-115,107.5,,,,,,,Pro Open,26,1993-09-06
M,Aleksey Kazakov,4,65,Russia,,,,,,97.5,67.5,B,Raw,No,90,97.5,-107.5,97.5,,,,,,,Pro Open,26,1993-07-20
M,Igor Zlobin,1,66.8,Russia,,,,,,107.5,67.5,B,Raw,No,100,-105,107.5,107.5,,,,,,,Pro Masters 50-54,53,1966-03-17
M,Kakhaber Chilachava,1,74.9,Russia,,,,,,130,75,B,Raw,No,-125,130,-135,130,,,,,,,Pro Teen 16-17,16,2003-03-20
M,Singh Sukhman,1,72.6,India,,,,,,95,75,B,Raw,No,85,92.5,95,95,,,,,,,Pro Juniors 20-23,21,1998-11-11
M,Aleksandr Izmeystyev,1,74.4,Russia,,,,,,145,75,B,Raw,No,135,140,145,145,,,,,,,Pro Open,29,1990-11-03
M,Viktor Usenko,2,71.4,Russia,,,,,,140,75,B,Raw,No,125,135,140,140,,,,,,,Pro Open,30,1989-10-25
M,Maksim Gozdinskiy,3,69.5,Russia,,,,,,130,75,B,Raw,No,120,130,-135,130,,,,,,,Pro Open,25,1994-11-26
M,Vladimir Lityshev,4,72.4,Russia,,,,,,127.5,75,B,Raw,No,117.5,122.5,127.5,127.5,,,,,,,Pro Open,28,1991-06-12
M,Aleksandr Sidorkin,5,74.7,Russia,,,,,,127.5,75,B,Raw,No,120,125,127.5,127.5,,,,,,,Pro Open,33,1986-11-10
M,Artemiy Fedorov,6,73.9,Russia,,,,,,120,75,B,Raw,No,117.5,120,-122.5,120,,,,,,,Pro Open,27,1992-09-01
M,Denis Sichev,7,75,Russia,,,,,,120,75,B,Raw,No,112.5,117.5,120,120,,,,,,,Pro Open,29,1990-02-23
M,Andrey Koklin,8,72.3,Russia,,,,,,117.5,75,B,Raw,No,117.5,-120,-120,117.5,,,,,,,Pro Open,27,1992-09-15
M,Aleksey Pchelintsev,9,73.2,Russia,,,,,,117.5,75,B,Raw,No,-117.5,117.5,-135,117.5,,,,,,,Pro Open,34,1985-11-10
M,Dmitriy Siroezhkin,DQ,73.6,Russia,,,,,,,75,B,Raw,No,-100,-100,-100,,,,,,,,Pro Open,32,1987-04-20
M,Dmitriy Rubichev,1,73.9,Russia,,,,,,150,75,B,Raw,No,135,145,150,150,,,,,,,Pro Masters 45-49,46,1973-01-29
M,Vladislav Pichugin,1,80.8,Russia,,,,,,110,82.5,B,Raw,No,100,110,-115,110,,,,,,,Pro Teen 13-15,15,2004-01-03
M,Ilya Matveev,1,79.3,Russia,,,,,,117.5,82.5,B,Raw,No,115,117.5,-120,117.5,,,,,,,Pro Teen 16-17,17,2002-02-11
M,Singh Sanveer,1,78.7,India,,,,,,105,82.5,B,Raw,No,95,105,-110,105,,,,,,,Pro Teen 18-19,19,2000-04-13
M,Kirill Ivaschenko,1,80.8,Russia,,,,,,127.5,82.5,B,Raw,No,-127.5,127.5,-132.5,127.5,,,,,,,Pro Juniors 20-23,23,1996-10-21
M,Evgeniy Vasilenko,1,80.8,Russia,,,,,,140,82.5,B,Raw,No,135,140,-145,140,,,,,,,Pro Open,36,1983-12-11
M,Dmitriy Danilin,2,81.2,Russia,,,,,,115,82.5,B,Raw,No,105,-115,115,115,,,,,,,Pro Open,31,1988-12-08
M,Mikhail Tyutyunov,DQ,80.3,Russia,,,,,,,82.5,B,Raw,No,-127.5,-127.5,-127.5,,,,,,,,Pro Open,33,1986-03-22
M,Yuriy Sklyarov,1,82,Russia,,,,,,150,82.5,B,Raw,No,145,150,-157.5,150,,,,,,,Pro Masters 40-44,41,1978-07-17
M,Nikolay Sitenskikh,1,81.3,Russia,,,,,,120,82.5,B,Raw,No,110,120,-125,120,,,,,,,Pro Masters 45-49,45,1974-05-27
M,Vladimir Fateev,1,76.4,Russia,,,,,,105,82.5,B,Raw,No,100,105,-110,105,,,,,,,Pro Masters 55-59,55,1964-08-01
M,Mikhail Rodionov,1,79.3,Russia,,,,,,135,82.5,B,Raw,No,125,130,135,135,,,,,,,Pro Masters 60-64,62,1957-10-24
M,Vladimir Saenkov,DQ,81.5,Russia,,,,,,,82.5,B,Raw,No,-140,-140,-140,,,,,,,,Pro Masters 60-64,60,1959-03-24
M,Abhimanyusinh Jadeja,1,87.8,India,,,,,,62.5,90,B,Raw,No,55,60,62.5,62.5,,,,,,,Pro Teen 13-15,15,2003-12-25
M,Evgeniy Ryabtsev,1,89.5,Russia,,,,,,180,90,B,Raw,No,170,175,180,180,,,,,,,Pro Open,31,1988-05-08
M,Igor Savin #2,2,88.2,Russia,,,,,,157.5,90,B,Raw,No,150,155,157.5,157.5,,,,,,,Pro Open,32,1987-01-12
M,Aleksandr Ustyuzhanin,3,85.6,Russia,,,,,,155,90,B,Raw,No,132.5,152.5,155,155,,,,,,,Pro Open,35,1984-05-05
M,Aleksandr Grammatchikov,4,87.4,Russia,,,,,,140,90,B,Raw,No,132.5,140,-152.5,140,,,,,,,Pro Open,34,1985-02-27
M,Alon Groysman,5,88.2,Russia,,,,,,135,90,B,Raw,No,120,132.5,135,135,,,,,,,Pro Open,24,1995-06-28
M,Aleksey Rachkov,DQ,87.7,Russia,,,,,,,90,B,Raw,No,-152.5,-152.5,-152.5,,,,,,,,Pro Open,35,1984-05-13
M,Stanislav Bushuev,DQ,88.4,Russia,,,,,,,90,B,Raw,No,-135,-135,-135,,,,,,,,Pro Open,37,1982-05-09
M,Maksim Parlyuk,1,86.4,Russia,,,,,,120,90,B,Raw,No,110,120,-130,120,,,,,,,Pro Masters 40-44,40,1979-07-29
M,Artem Deev,1,98.3,Russia,,,,,,102.5,100,B,Raw,No,95,102.5,-105,102.5,,,,,,,Pro Teen 16-17,16,2003-06-23
M,Kirill Kanakov,1,95.6,Russia,,,,,,165,100,B,Raw,No,155,162.5,165,165,,,,,,,Pro Juniors 20-23,23,1996-02-15
M,Anton Belov,1,99.9,Russia,,,,,,200,100,B,Raw,No,185,195,200,200,,,,,,,Pro Open,34,1985-03-24
M,Petr Babin,2,96.1,Russia,,,,,,172.5,100,B,Raw,No,160,170,172.5,172.5,,,,,,,Pro Open,61,1958-03-25
M,Igor Parinov,3,93.1,Russia,,,,,,160,100,B,Raw,No,-160,160,-165,160,,,,,,,Pro Open,36,1983-06-27
M,Dmitriy Yankovskiy,4,99,Russia,,,,,,157.5,100,B,Raw,No,150,157.5,-162.5,157.5,,,,,,,Pro Open,34,1985-04-16
M,Sergey Chekmarev,5,98.6,Russia,,,,,,155,100,B,Raw,No,155,-162.5,-162.5,155,,,,,,,Pro Open,24,1995-06-01
M,Ivan Udalov,6,92.9,Russia,,,,,,140,100,B,Raw,No,120,140,-160,140,,,,,,,Pro Open,29,1990-06-05
M,Eduard Boyko,7,96.2,Russia,,,,,,140,100,B,Raw,No,140,-145,-145,140,,,,,,,Pro Open,29,1990-09-26
M,Aleksandr Retyunskikh,8,97.2,Russia,,,,,,140,100,B,Raw,No,140,,,140,,,,,,,Pro Open,37,1982-10-11
M,Sergey Ermakov,9,98.2,Russia,,,,,,130,100,B,Raw,No,130,-140,-140,130,,,,,,,Pro Open,29,1990-08-30
M,Vyacheslav Volkov,1,97.1,Russia,,,,,,190,100,B,Raw,No,170,180,190,190,,,,,,,Pro Masters 45-49,48,1971-11-13
M,Aleksandr Serov,2,91.6,Russia,,,,,,145,100,B,Raw,No,130,140,145,145,,,,,,,Pro Masters 45-49,45,1974-09-25
M,Pavel Zinkevich,1,99.9,Russia,,,,,,150,100,B,Raw,No,137.5,145,150,150,,,,,,,Pro Masters 55-59,55,1964-03-26
M,Petr Babin,1,96.1,Russia,,,,,,172.5,100,B,Raw,No,160,170,172.5,172.5,,,,,,,Pro Masters 60-64,61,1958-03-25
M,Ruslan Namazov,1,106.8,Russia,,,,,,177.5,110,B,Raw,No,170,177.5,-182.5,177.5,,,,,,,Pro Open,25,1994-01-07
M,Oleg Kiriyak,1,106.7,Russia,,,,,,132.5,110,B,Raw,No,132.5,-140,-147.5,132.5,,,,,,,Pro Masters 40-44,43,1976-02-17
M,Nikolay Fokin,1,107,Russia,,,,,,155,110,B,Raw,No,150,152.5,155,155,,,,,,,Pro Masters 50-54,53,1966-02-15
M,Vyacheslav Frank,1,105.3,Russia,,,,,,137.5,110,B,Raw,No,132.5,137.5,-140,137.5,,,,,,,Pro Masters 55-59,57,1962-03-03
M,Nikita Yanushkin,1,123,Russia,,,,,,152.5,125,B,Raw,No,152.5,-162.5,-162.5,152.5,,,,,,,Pro Teen 16-17,17,2002-04-15
M,Viorel Bulgak,1,110.5,Russia,,,,,,205,125,B,Raw,No,195,205,-210,205,,,,,,,Pro Open,34,1985-10-10
M,Vladimir Adamov,2,117.4,Russia,,,,,,202.5,125,B,Raw,No,190,195,202.5,202.5,,,,,,,Pro Open,33,1986-04-25
M,Kirill Demidov,3,115.1,Russia,,,,,,180,125,B,Raw,No,172.5,177.5,180,180,,,,,,,Pro Open,30,1988-12-17
M,Ilya Naroditskiy,DQ,110.9,Russia,,,,,,,125,B,Raw,No,-140,-140,-140,,,,,,,,Pro Open,30,1989-07-12
M,Aleksey Markov,1,112.3,Russia,,,,,,165,125,B,Raw,No,150,160,165,165,,,,,,,Pro Masters 40-44,42,1977-02-26
M,Igor Bichkov,1,116.5,Russia,,,,,,175,125,B,Raw,No,170,175,-177.5,175,,,,,,,Pro Masters 45-49,49,1970-06-18
M,Aleksandr Nikiforov,1,145.3,Russia,,,,,,190,140+,B,Raw,No,180,190,-195,190,,,,,,,Pro Open,46,1973-03-18
M,Aleksandr Nikiforov,1,145.3,Russia,,,,,,190,140+,B,Raw,No,180,190,-195,190,,,,,,,Pro Masters 45-49,46,1973-03-18
M,Tsegmed Byambaa,1,73.2,Mongolia,150,170,180,180,-188,430,75,SBD,Multi-ply,No,70,80,82.5,82.5,,-150,150,167.5,167.5,180,Pro Masters 75-79,79,1940-05-09
M,Singh Palvinder,1,84.3,India,100,110,132.5,132.5,,352.5,90,SBD,Single-ply,No,70,-80,80,80,,-140,-140,140,140,,Pro Teen 13-15,14,2004-12-20
M,Daljit Singh,1,87.9,India,225,240.5,-250,240.5,,640,90,SBD,Single-ply,No,130,-140,140,140,,260,-290.5,-290.5,260,,Pro Masters 40-44,40,1979-10-01
F,Fatema Dhoondia,1,47.4,India,125,140,145,145,,307.5,48,SBD,Raw,No,42.5,47.5,50,50,,102.5,112.5,-120,112.5,,Pro Open,30,1989-02-19
F,Elena Enina,1,50.6,Russia,120,127.5,-135,127.5,,297.5,52,SBD,Raw,No,50,-55,55,55,,-115,115,-120,115,,Pro Open,30,1989-05-10
F,Harneet Dhillon,2,51.6,India,97.5,107.5,115,115,,235,52,SBD,Raw,No,25,35,40,40,,70,80,-87.5,80,,Pro Open,32,1987-10-17
F,Bhanu Majiziya,1,55.7,India,130,142.5,150,150,,337.5,56,SBD,Raw,No,50,55,-57.5,55,,125,132.5,-142.5,132.5,,Pro Open,29,1990-12-01
F,Eleonora Ivanyuk,1,54.8,Russia,95,105,-110,105,,222.5,56,SBD,Raw,No,45,47.5,-50,47.5,,65,70,-80,70,,Pro Masters 45-49,49,1970-10-08
F,Alina Nesterova,1,59.7,Russia,80,85,90,90,,207.5,60,SBD,Raw,No,37.5,40,42.5,42.5,,65,70,75,75,,Pro Juniors 20-23,23,1996-02-06
F,Nataliya Grigoryeva,DQ,58.5,Russia,-100,,,,,,60,SBD,Raw,No,-45,,,,,-110,-110,-110,,,Pro Open,36,1983-02-01
F,Ekaterina Chuprakova,1,65.9,Russia,115,120,125,125,,300,67.5,SBD,Raw,No,57.5,60,-62.5,60,,100,110,115,115,,Pro Open,37,1982-05-11
F,Bhavna Tokekar,1,66.5,India,110,120,127.5,127.5,,297.5,67.5,SBD,Raw,No,60,65,70,70,-75,-100,100,-105,100,,Pro Masters 45-49,47,1971-12-31
F,Ekaterina Kurdyukova,1,82.3,Russia,150,160,-165,160,,345,82.5,SBD,Raw,No,62.5,65,-70,65,,120,-127.5,-135,120,,Pro Open,38,1981-10-07
F,Alpa Dedhia,1,98.9,India,100,112.5,120,120,,250,90+,SBD,Raw,No,45,50,55,55,,55,65,75,75,,Pro Open,35,1984-11-09
M,Aleksey Smetankin,1,60.8,Russia,85,90,,90,,217.5,67.5,SBD,Raw,No,45,50,-55,50,,70,75,77.5,77.5,,Pro Youth,11,2008-09-26
M,Aleksandr Timofeev,1,66.7,Russia,180,190,195,195,,462.5,67.5,SBD,Raw,No,-100,100,105,105,,155,162.5,-170,162.5,,Pro Open,28,1991-05-18
M,Varad Patil,1,74,India,215,230,240,240,,612.5,75,SBD,Raw,No,125,132.5,-137.5,132.5,,-240,240,,240,,Pro Open,31,1988-06-06
M,Abhimanyusinh Jadeja,1,81.1,India,130,145,-155,145,,317.5,82.5,SBD,Raw,No,55,60,62.5,62.5,,90,100,110,110,,Pro Teen 13-15,15,2003-12-25
M,Rohan Simon,DQ,81.6,India,-192.5,,,,,,82.5,SBD,Raw,No,-72.5,,,,,-180,-180,-180,,,Pro Teen 16-17,16,2003-08-04
M,Maksim Bukholtsev,1,81.2,Russia,180,210,-230,210,,550,82.5,SBD,Raw,No,115,127.5,140,140,,160,180,200,200,,Pro Open,28,1991-05-29
M,Rohan Simon,DQ,81.6,India,-192.5,,,,,,82.5,SBD,Raw,No,-72.5,,,,,-180,-180,-180,,,Pro Open,16,2003-08-04
M,Ruben Srivastava,1,77.4,India,150,165,180,180,,460,82.5,SBD,Raw,No,100,110,-117.5,110,,150,160,170,170,,Pro Masters 45-49,45,1974-10-07
M,Deven Gahlot,1,83.2,India,170,180,-187.5,180,,415,90,SBD,Raw,No,90,-95,-95,90,,-145,145,-160,145,,Pro Teen 18-19,18,2001-03-07
M,Mervin Moses,1,88.5,India,240,255,262.5,262.5,,612.5,90,SBD,Raw,No,105,115,-122.5,115,,205,235,,235,,Pro Juniors 20-23,20,1999-09-17
M,Mervin Moses,1,88.5,India,240,255,262.5,262.5,,612.5,90,SBD,Raw,No,105,115,-122.5,115,,205,235,,235,,Pro Open,20,1999-09-17
M,Artem Repkin,1,95.2,Russia,240,252.5,-270,252.5,,660,100,SBD,Raw,No,150,157.5,165,165,,220,230,242.5,242.5,,Pro Open,25,1994-06-24
M,Chand Ganesh,1,95,India,160,180,200,200,,490,100,SBD,Raw,No,110,120,-130,120,,140,150,170,170,,Pro Masters 40-44,40,1979-09-06
M,Ayush Chaudhary,1,108,India,185,200,215,215,,560,110,SBD,Raw,No,105,-115,115,115,,215,-230,230,230,,Pro Juniors 20-23,20,1999-10-18
M,Nikita Gurylev,1,110,Russia,230,240,-245,240,,632.5,110,SBD,Raw,No,150,-160,162.5,162.5,,220,230,-240,230,,Pro Open,24,1995-01-10
M,Maksim Bodrov,1,102.1,Russia,200,210,220,220,,560,110,SBD,Raw,No,100,115,130,130,,190,200,210,210,,Pro Masters 45-49,46,1973-10-05
F,Olga Vakhlamkina,1,47.9,Russia,90,95,-97.5,95,,232.5,48,SBD,Raw,No,-47.5,47.5,-50,47.5,,85,-90,90,90,,Pro Open,38,1981-02-19
F,Nami Parekh,1,54.2,India,152.5,165,172.5,172.5,,327.5,56,SBD,Raw,No,55,-62.5,-62.5,55,,90,100,,100,,Pro Open,29,1990-05-01
F,Elena Bunina,2,53.8,Russia,70,82.5,90,90,,202.5,56,SBD,Raw,No,40,45,47.5,47.5,,65,-75,-80,65,,Pro Open,37,1982-06-26
F,Nataliya Song,1,57.4,Estonia,110,120,125,125,,270,60,SBD,Raw,No,55,57.5,60,60,,75,80,85,85,,Pro Masters 40-44,44,1975-11-23
F,Albina Tatarskaya,1,66.3,Russia,157.5,162.5,167.5,167.5,,395,67.5,SBD,Raw,No,77.5,82.5,85,85,,130,135,142.5,142.5,,Pro Open,27,1992-02-11
F,Anastasiya Litvinova,2,65.4,Russia,95,100,105,105,,250,67.5,SBD,Raw,No,47.5,50,-52.5,50,,90,95,-100,95,,Pro Open,37,1982-04-22
F,Olga Verkhovskaya,3,63,Russia,80,90,100,100,,220,67.5,SBD,Raw,No,-37.5,-42.5,45,45,,60,70,75,75,,Pro Open,36,1983-12-11
M,Singh Sukhraj,1,67.2,India,165,185,-195,185,,385,67.5,SBD,Raw,No,75,80,-85,80,,100,115,120,120,,Pro Juniors 20-23,21,1998-11-11
M,Singh Yuvraj,1,71,India,-175,175,-182.5,175,,375,75,SBD,Raw,No,85,-90,90,90,,-100,105,110,110,,Pro Teen 18-19,19,2000-10-07
M,Singh Sukhman,DQ,73.5,India,-195,-195,-195,,,,75,SBD,Raw,No,90,92.5,95,95,,135,140,-145,140,,Pro Juniors 20-23,21,1998-11-11
M,Dmitriy Lukyanov,1,74,Russia,205,215,220,220,,537.5,75,SBD,Raw,No,125,132.5,-135,132.5,,175,-185,185,185,,Pro Open,39,1980-07-29
M,Singh Sanveer,DQ,78.7,India,-190,-190,-190,,,,82.5,SBD,Raw,No,100,105,107.5,107.5,,140,-145,145,145,,Pro Teen 18-19,19,2000-04-13
M,Vladimir Lazarenko,1,82,Russia,180,192.5,200,200,,515,82.5,SBD,Raw,No,-125,132.5,140,140,,140,160,175,175,,Pro Open,35,1984-04-13
M,Aleksandr Yakushev,2,80.2,Russia,205,212.5,220,220,,505,82.5,SBD,Raw,No,100,107.5,110,110,,160,170,175,175,,Pro Open,37,1982-10-26
M,Nikita Drozdov,3,82,Russia,-165,172.5,190,190,,450,82.5,SBD,Raw,No,90,100,-105,100,,140,150,160,160,,Pro Open,32,1987-01-18
M,Roman Pavlenko,4,82.5,Russia,165,180,190,190,,437.5,82.5,SBD,Raw,No,80,92.5,-100,92.5,,135,145,155,155,,Pro Open,29,1990-06-27
M,Aleksey Sobolev,1,79.3,Russia,165,175,185,185,,452.5,82.5,SBD,Raw,No,105,112.5,-117.5,112.5,,140,150,155,155,,Pro Masters 40-44,40,1979-09-10
M,Andrey Styogantsev,1,79.9,Russia,130,142.5,150,150,,360,82.5,SBD,Raw,No,80,85,-87.5,85,,125,-135,-135,125,,Pro Masters 55-59,56,1963-06-27
M,Dubey Parth,1,89.4,India,120,135,-145,135,,320,90,SBD,Raw,No,80,-87.5,-87.5,80,,85,95,105,105,,Pro Teen 18-19,18,2001-08-13
M,Sergey Lovyagin,1,87,Russia,-250,-250,250,250,,570,90,SBD,Raw,No,115,125,-130,125,,-195,-195,195,195,,Pro Open,35,1984-08-30
M,Maksim Ushakov,1,85.2,Russia,160,-172.5,172.5,172.5,,430,90,SBD,Raw,No,105,-112.5,-115,105,,135,145,152.5,152.5,,Pro Masters 45-49,46,1973-05-22
M,Mitilesh Barla,1,99,India,210,220,-230,220,,542.5,100,SBD,Raw,No,100,112.5,-117.5,112.5,,190,200,210,210,,Pro Juniors 20-23,23,1996-06-21
M,Bakhtiyor Rahimov,1,95.9,Tajikistan,230,240,250,250,,590,100,SBD,Raw,No,140,-150,-150,140,,190,200,-210,200,,Pro Open,37,1981-12-28
M,Mitilesh Barla,2,99,India,210,220,-230,220,,542.5,100,SBD,Raw,No,100,112.5,-117.5,112.5,,190,200,210,210,,Pro Open,23,1996-06-21
M,Andrey Polukarov,3,94.2,Russia,145,155,165,165,,410,100,SBD,Raw,No,90,105,115,115,,120,130,-140,130,,Pro Open,38,1981-09-12
M,Evgeniy Mikhaylov,1,98.8,Russia,205,215,220,220,,570,100,SBD,Raw,No,-147.5,150,155,155,,185,195,-205,195,,Pro Masters 40-44,42,1977-06-23
M,Mohsen Jalilianafkham,1,104.7,Iran,,,,,,200,110,B,Unlimited,No,200,-215,-220,200,,,,,,,Pro Masters 40-44,41,1978-09-21
M,Aladár Uherík,1,108.6,Slovakia,,,,,,260,110,B,Unlimited,No,210,240,260,260,,,,,,,Pro Masters 45-49,47,1972-02-22
M,Rankyn Freyded,1,155.1,Cuba,,,,,,370,140+,B,Unlimited,No,-340,340,370,370,,,,,,,Pro Open,44,1975-10-07
M,Rankyn Freyded,1,155.1,Cuba,,,,,,370,140+,B,Unlimited,No,-340,340,370,370,,,,,,,Pro Masters 40-44,44,1975-10-07
M,Yuriy Eremin,1,80.2,Russia,,,,,,272.5,82.5,B,Unlimited,No,247.5,272.5,-280,272.5,,,,,,,Pro Open,36,1983-11-23
M,Sergey Kandaurov,1,82.5,Russia,,,,,,210,82.5,B,Unlimited,No,190,205,210,210,,,,,,,Pro Masters 45-49,45,1974-05-29
M,Mohammadhossein Abbasi,1,95.5,Iran,,,,,,222.5,100,B,Unlimited,No,200,215,222.5,222.5,,,,,,,Pro Open,39,1979-12-22
M,Leonid Filatov,1,96.3,Russia,,,,,,245,100,B,Unlimited,No,235,-245,245,245,,,,,,,Pro Masters 40-44,41,1978-09-14
M,Sergey Zakharov #8,1,109.3,Russia,,,,,,275,110,B,Unlimited,No,260,275,-290,275,,,,,,,Pro Open,28,1991-03-20
M,Andrey Ilyin,2,106.9,Russia,,,,,,265,110,B,Unlimited,No,250,260,265,265,,,,,,,Pro Open,43,1976-06-28
M,Andrey Ilyin,1,106.9,Russia,,,,,,265,110,B,Unlimited,No,250,260,265,265,,,,,,,Pro Masters 40-44,43,1976-06-28
M,Yuriy Korikov,1,80.9,Russia,,,,,,185,82.5,B,Multi-ply,No,-185,-185,185,185,,,,,,,Pro Open,57,1962-04-24
M,Erik Valent,2,79.5,Slovakia,,,,,,182.5,82.5,B,Multi-ply,No,182.5,-200,-200,182.5,,,,,,,Pro Open,35,1984-10-05
M,Yuriy Korikov,1,80.9,Russia,,,,,,185,82.5,B,Multi-ply,No,-185,-185,185,185,,,,,,,Pro Masters 55-59,57,1962-04-24
M,Ján Šiska,1,120,Slovakia,,,,,,220,125,B,Multi-ply,No,200,220,,220,,,,,,,Pro Open,39,1980-04-15
M,Peter Sakala,1,138,Slovakia,,,,,,342.5,140,B,Multi-ply,No,320,342.5,-352.5,342.5,,,,,,,Pro Juniors 20-23,23,1996-08-09
M,Artem Tarasov,1,88.9,Russia,,,,,,160,90,B,Single-ply,No,160,-170,-177.5,160,,,,,,,Pro Open,27,1992-07-31
F,Fatema Dhoondia,1,47.4,India,,,,,,47.5,48,B,Raw,No,42.5,47.5,,47.5,,,,,,,Pro Open,30,1989-02-19
F,Yulia Golubtsova,1,55.4,Russia,,,,,,65,56,B,Raw,No,57.5,62.5,65,65,,,,,,,Pro Open,30,1989-07-26
F,Elena Martinova,1,56.4,Russia,,,,,,37.5,60,B,Raw,No,32.5,37.5,,37.5,,,,,,,Pro Open,26,1993-02-11
F,Svetlana Maletskaya,1,74.2,Russia,,,,,,112.5,75,B,Raw,No,100,107.5,112.5,112.5,,,,,,,Pro Open,36,1983-06-04
F,Irina Yakovleva,1,81.3,Russia,,,,,,117.5,82.5,B,Raw,No,117.5,-125,-125,117.5,,,,,,,Pro Open,49,1970-01-08
F,Komal Trivedi,DQ,75.9,India,,,,,,,82.5,B,Raw,No,-35,,,,,,,,,,Pro Open,39,1980-07-11
F,Elena Konyashkina,1,80.2,Russia,,,,,,35,82.5,B,Raw,No,30,32.5,35,35,,,,,,,Pro Masters 45-49,45,1974-06-23
F,Virpi Knuutila,1,87.8,Finland,,,,,,140,90,B,Raw,No,127.5,140,-146,140,,,,,,,Pro Open,52,1967-10-11
F,Virpi Knuutila,1,87.8,Finland,,,,,,140,90,B,Raw,No,127.5,140,-146,140,,,,,,,Pro Masters 50-54,52,1967-10-11
M,Luchian Peledutse,1,67.8,Russia,,,,,,65,75,B,Raw,No,60,65,-70,65,,,,,,,Pro Teen 13-15,15,2004-08-16
M,Nikita Marin,1,74.2,Russia,,,,,,155,75,B,Raw,No,140,150,155,155,,,,,,,Pro Open,29,1990-04-20
M,Anton Martinov,2,74.4,Russia,,,,,,72.5,75,B,Raw,No,65,70,72.5,72.5,,,,,,,Pro Open,33,1986-05-15
M,Dmitriy Meleshin,1,74.5,Russia,,,,,,105,75,B,Raw,No,100,-105,105,105,,,,,,,Pro Masters 40-44,41,1978-09-06
M,Boshko Stamenkovski,1,75,North Macedonia,,,,,,132.5,75,B,Raw,No,125,130,132.5,132.5,,,,,,,Pro Masters 45-49,48,1971-01-08
M,Valeriy Boyarchenko,1,81.6,Russia,,,,,,160,82.5,B,Raw,No,150,160,,160,,,,,,,Pro Masters 45-49,45,1974-11-28
M,Anton Chilikin,1,90,Russia,,,,,,212.5,90,B,Raw,No,197.5,207.5,212.5,212.5,,,,,,,Pro Open,27,1992-03-25
M,Vadim Aksenchuk,2,88.1,Belarus,,,,,,190,90,B,Raw,No,180,190,-197.5,190,,,,,,,Pro Open,37,1982-05-26
M,Karandevsinh Jadeja,1,89.3,India,,,,,,100,90,B,Raw,No,95,100,,100,,,,,,,Pro Masters 40-44,42,1977-11-01
M,Vladimir Vetrov,1,86.2,Russia,,,,,,137.5,90,B,Raw,No,130,-135,137.5,137.5,,,,,,,Pro Masters 55-59,55,1964-09-02
M,Vladimir Soldatov,1,85.3,Russia,,,,,,132.5,90,B,Raw,No,125,-132.5,132.5,132.5,,,,,,,Pro Masters 60-64,61,1958-06-05
M,Evgeniy Khudoleev,1,86.2,Russia,,,,,,120,90,B,Raw,No,110,115,120,120,,,,,,,Pro Masters 70-74,73,1946-09-10
M,Dmitriy Petrov,1,97.3,Russia,,,,,,180,100,B,Raw,No,180,-190,-190,180,,,,,,,Pro Open,33,1986-01-29
M,Mohammadhossein Abbasi,2,95.5,Iran,,,,,,170,100,B,Raw,No,160,170,-180,170,,,,,,,Pro Open,39,1979-12-22
M,Aleksandr Petrov,1,95.5,Russia,,,,,,180,100,B,Raw,No,170,180,-190,180,,,,,,,Pro Masters 55-59,59,1960-07-17
M,Igor Goldman,1,96.6,Russia,,,,,,105,100,B,Raw,No,100,105,,105,,,,,,,Pro Masters 80+,86,1933-08-21
M,Denis Lazarev,1,107.6,Russia,,,,,,80,110,B,Raw,No,70,80,-90,80,,,,,,,Pro Teen 16-17,16,2003-09-02
M,Slavomír Kubica,1,105.3,Slovakia,,,,,,195,110,B,Raw,No,185,195,-200,195,,,,,,,Pro Juniors 20-23,21,1998-02-15
M,Aleksandr Kiryanov,1,108,Russia,,,,,,240,110,B,Raw,No,230,235,240,240,,,,,,,Pro Open,44,1975-04-15
M,Aleksandr Mantserov,2,110,Russia,,,,,,220,110,B,Raw,No,210,220,-230,220,,,,,,,Pro Open,36,1983-06-01
M,Vasiliy Kolybelin,1,109.8,Russia,,,,,,200,110,B,Raw,No,195,-200,200,200,,,,,,,Pro Masters 40-44,42,1976-12-27
M,Andrey Ilyin,2,106.9,Russia,,,,,,180,110,B,Raw,No,172.5,180,-185,180,,,,,,,Pro Masters 40-44,43,1976-06-28
M,Vladimir Sizov,1,107.8,Russia,,,,,,95,110,B,Raw,No,-90,90,95,95,,,,,,,Pro Masters 55-59,56,1963-10-18
M,Dmitriy Zheleznov,1,118.4,Russia,,,,,,242.5,125,B,Raw,No,230,237.5,242.5,242.5,,,,,,,Pro Open,26,1993-01-24
M,Aleksey Donskikh,2,120.6,Russia,,,,,,207.5,125,B,Raw,No,200,207.5,-210,207.5,,,,,,,Pro Open,33,1985-12-17
M,Aleksey Shishov,1,125,Russia,,,,,,195,125,B,Raw,No,185,-195,195,195,,,,,,,Pro Masters 45-49,46,1973-03-21
M,Igor Zhiltsov,2,121.3,Russia,,,,,,130,125,B,Raw,No,125,-130,130,130,,,,,,,Pro Masters 45-49,49,1970-08-14
M,Roman Chuba,1,114.2,Russia,,,,,,145,125,B,Raw,No,135,140,145,145,,,,,,,Pro Masters 65-69,65,1954-05-01
M,Maksim Nikolaev,1,146.6,Russia,,,,,,220,140+,B,Raw,No,-200,210,220,220,,,,,,,Pro Open,36,1983-07-26
M,Dmitriy Kochevatkin,1,87.6,Russia,210,230,240,240,,750,90,SBD,Multi-ply,No,210,215,-223,215,,280,295,-310,295,,Pro Open,43,1976-02-18
M,Dmitriy Kochevatkin,1,87.6,Russia,210,230,240,240,,750,90,SBD,Multi-ply,No,210,215,-223,215,,280,295,-310,295,,Pro Masters 40-44,43,1976-02-18
M,Aman Chaudhary,1,65,India,177.5,-187.5,192.5,192.5,,450,67.5,SBD,Single-ply,No,75,87.5,95,95,,140,155,162.5,162.5,,Pro Juniors 20-23,23,1996-04-13
M,Yuriy Malygin,1,92.6,Ukraine,120,145,160,160,,400,100,SBD,Single-ply,No,80,-110,110,110,,100,130,-150,130,,Pro Masters 50-54,52,1967-06-30
M,Dubey Hari,1,106.3,India,250,265,-272.5,265,,722.5,110,SBD,Single-ply,No,175,182.5,-187.5,182.5,,275,-285,-285,275,,Pro Open,33,1986-09-18
F,Olga Batinova,1,72.3,Russia,85,95,102.5,102.5,,212.5,75,SBD,Raw,No,40,-45,45,45,,65,-75,-80,65,,Pro Masters 45-49,45,1974-09-22
F,Ekaterina Pogula,2,68.5,Russia,75,82.5,87.5,87.5,,200,75,SBD,Raw,No,32.5,35,-37.5,35,,70,77.5,-82.5,77.5,,Pro Masters 45-49,47,1972-04-28
F,Elena Putilova,1,72.7,Russia,75,85,92.5,92.5,,212.5,75,SBD,Raw,No,37.5,42.5,45,45,,65,70,75,75,,Pro Masters 50-54,54,1965-11-29
M,Sagar Gurve,1,58.9,India,185,-200,200,200,,485,60,SBD,Raw,No,95,105,-110,105,,170,180,,180,,Pro Juniors 20-23,23,1996-01-04
M,Maksim Sukhobok,1,65.6,,205,-215,,205,,507.5,67.5,SBD,Raw,No,115,120,122.5,122.5,,160,170,180,180,,Pro Masters 50-54,54,1965-01-01
M,Utkarsh Dahiya,1,73.9,India,150,160,170,170,,370,75,SBD,Raw,No,60,-67.5,70.5,70.5,,100,115,130,130,,Pro Teen 13-15,15,2004-03-20
M,Prateek Yadav,1,74.5,India,200,220,-230,220,,575,75,SBD,Raw,No,-130,130,135,135,,200,220,-240,220,,Pro Open,25,1994-06-15
M,Abhishek Arya,1,85.4,India,210,-225,230,230,,570,90,SBD,Raw,No,-110,110,-125,110,,-190,200,230,230,,Pro Open,26,1993-09-27
M,Oleg Makushin,2,88.8,Russia,180,195,200,200,,515,90,SBD,Raw,No,110,115,-120,115,,180,190,200,200,,Pro Open,28,1991-07-09
M,Karandevsinh Jadeja,1,88.9,India,160,170,,170,,400,90,SBD,Raw,No,95,100,-105,100,,110,120,130,130,,Pro Masters 40-44,42,1977-11-01
M,Rajat Dalal,1,95.7,India,280,-300,312.5,312.5,,747.5,100,SBD,Raw,No,145,152.5,155,155,,260,280,-300,280,,Pro Juniors 20-23,23,1996-01-12
M,Rajat Dalal,1,95.7,India,280,-300,312.5,312.5,,747.5,100,SBD,Raw,No,145,152.5,155,155,,260,280,-300,280,,Pro Open,23,1996-01-12
M,Mohammadhossein Abbasi,2,95.3,Iran,185,200,210,210,,590,100,SBD,Raw,No,155,165,175,175,,185,-200,205,205,,Pro Open,39,1979-12-22
M,Aleksandr Tsvetkov,1,98.5,Russia,190,200,210,210,,520,100,SBD,Raw,No,90,100,,100,,190,-205,210,210,,Pro Masters 60-64,62,1957-04-10
M,Rishabh Bhatia,1,104.5,India,205,215,-222.5,215,,550,110,SBD,Raw,No,112.5,117.5,120,120,,200,215,-227.5,215,,Pro Juniors 20-23,22,1997-10-17
M,Mohammed Azamathulla,1,106.3,India,267.5,285,-300,285,,685,110,SBD,Raw,No,132.5,145,150,150,,-250,250,-270,250,,Pro Open,42,1977-11-23
M,Vladimir Semlev,DQ,107.6,Russia,-180,,,,,,110,SBD,Raw,No,-135,,,,,-185,-185,-185,,,Pro Open,38,1981-10-12
M,Mohammed Azamathulla,1,106.3,India,267.5,285,-300,285,,685,110,SBD,Raw,No,132.5,145,150,150,,-250,250,-270,250,,Pro Masters 40-44,42,1977-11-23
F,Yulia Zhuk,1,46.4,Russia,95,105,-110,105,,220,48,SBD,Raw,No,37.5,-40,-40,37.5,,-77.5,77.5,-80,77.5,,Pro Open,33,1986-04-01
F,Elena Bondarchuk,1,59.7,Russia,-142.5,152.5,-163,152.5,,370,60,SBD,Raw,No,80,85,87.5,87.5,-91,-125,125,130,130,,Pro Open,39,1980-06-18
F,Mariya Chernyshova,1,64.6,Estonia,90,95,97.5,97.5,,185,67.5,SBD,Raw,No,30,35,-37.5,35,,45,50,52.5,52.5,,Pro Juniors 20-23,21,1998-06-22
F,Komal Trivedi,1,75,India,-80,95,100,100,,197.5,75,SBD,Raw,No,35,37.5,-40,37.5,,-60,60,-65,60,,Pro Open,39,1980-07-11
