Place,Name,Division,BodyweightKg,Squat1Kg,Squat2Kg,Squat3Kg,Best3SquatKg,Squat4Kg,Bench1Kg,Bench2Kg,Bench3Kg,Best3BenchKg,Bench4Kg,Deadlift1Kg,Deadlift2Kg,Deadlift3Kg,Best3DeadliftKg,Deadlift4Kg,TotalKg,WeightClassKg,Sex,CyrillicName,BirthYear,Tested,Equipment,Event
1,Evgeniya Astafyeva,Amateur Open,47.3,-72.5,72.5,75,75,,42.5,47.5,-50,47.5,,85,92.5,97.5,97.5,,220,48,F,Евгения Астафьева,1982,Yes,Raw,SBD
2,Natalya Kondrashova,Amateur Open,45,57.5,65,-70,65,,30,35,37.5,37.5,,60,70,80,80,,182.5,48,F,Наталья Кондрашова,1988,Yes,Raw,SBD
1,Yuliya Semina,Amateur Teen 18-19,50.9,55,60,65,65,,40,42.5,-45,42.5,,70,80,90,90,,197.5,52,F,Юлия Семина,1994,Yes,Raw,SBD
1,Natalya Sergeeva,Amateur Open,50.4,-90,-90,90,90,,47.5,-50,50,50,,117.5,125,,125,,265,52,F,Наталья Сергеева,1987,Yes,Raw,SBD
2,Milana Isaeva,Amateur Open,50.8,80,87.5,-92.5,87.5,,50,52.5,55,55,,100,110,-122.5,110,,252.5,52,F,Милана Исаева,1989,Yes,Raw,SBD
3,Natalya Girdish,Amateur Open,51.7,75,-80,80,80,,35,-40,-40,35,,100,110,115,115,,230,52,F,Наталья Гирдиш,1976,Yes,Raw,SBD
4,Olesya Frolova,Amateur Open,50.5,80,85,-90,85,,40,-45,-45,40,,100,-105,-105,100,,225,52,F,Олеся Фролова,1987,Yes,Raw,SBD
5,Olga Razdorozhnaya,Amateur Open,51.5,-75,75,-80,75,,45,-47.5,-47.5,45,,80,85,92.5,92.5,,212.5,52,F,Ольга Раздорожная,1990,Yes,Raw,SBD
1,Olga Pyzhova,Amateur Open,53.8,80,100,-102.5,100,,40,-50,-50,40,,80,100,-117.5,100,,240,56,F,Ольга Пыжова,1986,Yes,Raw,SBD
2,Anna Ratnikova,Amateur Open,54.9,75,77.5,80,80,,52.5,55,-57.5,55,,92.5,97.5,-100,97.5,,232.5,56,F,Анна Ратникова,1982,Yes,Raw,SBD
1,Evgeniya Rozhkova,Amateur Teen 18-19,59.7,65,70,72.5,72.5,,-37.5,37.5,-42.5,37.5,,75,80,85,85,,195,60,F,Евгения Рожкова,1996,Yes,Raw,SBD
1,Irina Karpova,Amateur Open,58.5,95,105,-110,105,,62.5,65,-67.5,65,,115,125,132.5,132.5,,302.5,60,F,Ирина Карпова,1989,Yes,Raw,SBD
2,Mariya Yultsova,Amateur Open,60,80,85,87.5,87.5,,62.5,67.5,-70,67.5,,130,137.5,142.5,142.5,,297.5,60,F,Мария Юльцова,1982,Yes,Raw,SBD
1,Ekaterina Pozdnyakova,Amateur Juniors 20-23,65.9,110,117.5,-122.5,117.5,,57.5,-62.5,-62.5,57.5,,115,125,130,130,,305,67.5,F,Екатерина Позднякова,1991,Yes,Raw,SBD
1,Oksana Fomenko,Amateur Open,66.3,100,107.5,112.5,112.5,,52.5,57.5,-60,57.5,,110,122.5,-130,122.5,,292.5,67.5,F,Оксана Фоменко,1988,Yes,Raw,SBD
2,Olga Khomyakova,Amateur Open,66.2,90,95,-100,95,,50,55,-60,55,,102.5,112.5,120,120,,270,67.5,F,Ольга Хомякова,1983,Yes,Raw,SBD
3,Ekaterina Kolybelkina,Amateur Open,63.5,80,85,90,90,,55,57.5,-60,57.5,,95,100,105,105,,252.5,67.5,F,Екатерина Колыбелкина,1990,Yes,Raw,SBD
4,Svetlana Grigoryeva,Amateur Open,61,60,70,80,80,,50,-55,-55,50,,80,90,100,100,,230,67.5,F,Светлана Григорьева,1982,Yes,Raw,SBD
1,Anna Shaykhutdinova,Amateur Open,74.2,110,120,125,125,,65,-70,-70,65,,120,130,135,135,,325,75,F,Анна Шайхутдинова,1986,Yes,Raw,SBD
2,Oksana Novikova,Amateur Open,74.8,105,112.5,117.5,117.5,,62.5,67.5,-70,67.5,,117.5,127.5,135,135,,320,75,F,Оксана Новикова,1984,Yes,Raw,SBD
3,Ekaterina Shaeva,Amateur Open,73.6,110,120,-125,120,,-55,60,-62.5,60,,120,-127.5,127.5,127.5,,307.5,75,F,Екатерина Шаева,1985,Yes,Raw,SBD
DQ,Elena Davydova,Amateur Open,74.3,100,105,107.5,107.5,,-62.5,-65,-65,,,-125,,,,,,75,F,Елена Давыдова,1973,Yes,Raw,SBD
1,Irina Yaroshenko,Amateur Open,90,150,160,167.5,167.5,,85,92.5,97.5,97.5,,170,187.5,200,200,,465,90,F,Ирина Ярошенко,1986,Yes,Raw,SBD
1,Dmitriy Zherebtsov,Amateur Teen 16-17,58.8,100,115,-125,115,,62.5,67.5,70,70,,110,125,132.5,132.5,,317.5,60,M,Дмитрий Жеребцов,1997,Yes,Raw,SBD
1,Nikolay Starykh,Amateur Juniors 20-23,60,120,-135,-135,120,,90,-95,95,95,,145,155,-165,155,,370,60,M,Николай Старых,1992,Yes,Raw,SBD
1,Oleg Vaschenko,Amateur Open,59.2,140,-147.5,-147.5,140,,95,102.5,107.5,107.5,,140,147.5,155,155,,402.5,60,M,Олег Ващенко,1980,Yes,Raw,SBD
1,Grigoriy Kapustin,Amateur Teen 13-15,66.2,97.5,-105,110,110,,57.5,65,70,70,,130,145,-150,145,,325,67.5,M,Григорий Капустин,1998,Yes,Raw,SBD
1,Vladimir Panyutin,Amateur Teen 16-17,65.8,160,170,172.5,172.5,,120,122.5,-125,122.5,,170,-185,-195,170,,465,67.5,M,Владимир Панютин,1997,Yes,Raw,SBD
2,Artur Ten,Amateur Teen 16-17,66.3,-130,135,145,145,,92.5,97.5,-100,97.5,,165,175,-185,175,,417.5,67.5,M,Артур Тен,1996,Yes,Raw,SBD
1,Mikhail Kafash,Amateur Teen 18-19,67.5,115,-125,-125,115,,80,-92.5,92.5,92.5,,125,135,145,145,,352.5,67.5,M,Михаил Кафаш,1996,Yes,Raw,SBD
1,Anton Tolubaev,Amateur Juniors 20-23,66.6,105,112.5,117.5,117.5,,72.5,77.5,-85,77.5,,150,160,170,170,,365,67.5,M,Антон Толубаев,1991,Yes,Raw,SBD
2,Vladimir Avdeev,Amateur Juniors 20-23,60.7,105,110,115,115,,67.5,-70,-70,67.5,,120,-130,-130,120,,302.5,67.5,M,Владимир Авдеев,1992,Yes,Raw,SBD
1,Dmitriy Arkadyev,Amateur Open,67.4,160,165,172.5,172.5,,110,115,120,120,,200,210,220,220,,512.5,67.5,M,Дмитрий Аркадьев,1983,Yes,Raw,SBD
2,Mikhail Vorozhtsov,Amateur Open,67.4,155,160,-165,160,,-130,130,135,135,,180,-185,185,185,,480,67.5,M,Михаил Ворожцов,1979,Yes,Raw,SBD
3,Vitaliy Beskorovaynyy,Amateur Open,63.7,60,70,85,85,,65,70,-75,70,,75,90,105,105,,260,67.5,M,Виталий Бескоровайный,1999,Yes,Raw,SBD
DQ,Dmitriy Zamyshlyaev,Amateur Open,65.2,-130,-140,-140,,,,,,,,,,,,,,67.5,M,Дмитрий Замышляев,1989,Yes,Raw,SBD
1,Mikhail Volkov,Amateur Teen 16-17,72.5,120,-135,140,140,,90,-95,-97.5,90,,140,150,155,155,,385,75,M,Михаил Волков,1996,Yes,Raw,SBD
DQ,Georgiy Kovalevskiy,Amateur Teen 16-17,73.6,155,165,170,170,-173.5,110,117.5,-122.5,117.5,,-180,-180,-180,,,,75,M,Георгий Ковалевский,1997,Yes,Raw,SBD
1,Ivan Rodionov,Amateur Juniors 20-23,74.9,150,160,-170,160,,115,120,125,125,,170,185,195,195,,480,75,M,Иван Родионов,1991,Yes,Raw,SBD
1,Aleksey Shostak,Amateur Open,72.9,150,-155,155,155,,132.5,137.5,-140,137.5,,180,195,-200,195,,487.5,75,M,Алексей Шостак,1989,Yes,Raw,SBD
2,Mikhail Kostikov,Amateur Open,74.5,120,-127.5,127.5,127.5,,92.5,-97.5,-97.5,92.5,,155,-160,-160,155,,375,75,M,Михаил Костиков,1975,Yes,Raw,SBD
1,Georgiy Yagunov,Amateur Teen 16-17,80.4,105,-115,115,115,,90,100,-105,100,,137.5,150,-160,150,,365,82.5,M,Георгий Ягунов,1997,Yes,Raw,SBD
1,Aleksey Smirnov,Amateur Teen 18-19,81.8,-180,-180,180,180,,115,120,125,125,,200,215,225,225,,530,82.5,M,Алексей Смирнов,1995,Yes,Raw,SBD
2,Aleksandr Volkov,Amateur Teen 18-19,81.7,120,135,145,145,,-85,90,-95,90,,120,140,-150,140,,375,82.5,M,Александр Волков,1995,Yes,Raw,SBD
1,Aleksandr Prischepo,Amateur Juniors 20-23,81.9,135,145,-160,145,,120,127.5,135,135,,180,195,205,205,,485,82.5,M,Александр Прищепо,1991,Yes,Raw,SBD
1,Vasiliy Perov,Amateur Open,82,-210,-210,210,210,,150,157.5,-162.5,157.5,,-245,255,265,265,,632.5,82.5,M,Василий Перов,1979,Yes,Raw,SBD
2,Aleksey Ovchinnikov,Amateur Open,79.6,200,210,220,220,,-145,145,150,150,,240,250,-260,250,,620,82.5,M,Алексей Овчинников,1986,Yes,Raw,SBD
3,Yuriy Ivkin,Amateur Open,78.3,190,200,205,205,,120,127.5,130,130,,210,220,225,225,,560,82.5,M,Юрий Ивкин,1983,Yes,Raw,SBD
4,Yuriy Lesko,Amateur Open,81.4,-175,175,180,180,,130,137.5,-145,137.5,,220,227.5,232.5,232.5,,550,82.5,M,Юрий Лесько,1987,Yes,Raw,SBD
5,Sergey Stepanov,Amateur Open,80.5,-180,180,185,185,,110,115,-117.5,115,,220,-225,,220,,520,82.5,M,Сергей Степанов,1988,Yes,Raw,SBD
6,Petar Attia,Amateur Open,78.4,155,160,165,165,,-127.5,-130,130,130,,175,185,195,195,,490,82.5,M,Петар Аттиа,1983,Yes,Raw,SBD
7,Roman Seregin,Amateur Open,80.6,160,-165,-172.5,160,,115,120,-125,120,,170,180,190,190,,470,82.5,M,Роман Серегин,1989,Yes,Raw,SBD
8,Nikita Kovalyk,Amateur Open,81.1,-160,-160,160,160,,110,-115,-115,110,,185,195,-205,195,,465,82.5,M,Никита Ковалык,1989,Yes,Raw,SBD
DQ,Sergey Osipov,Amateur Open,78.4,-130,-130,-140,,,,,,,,,,,,,,82.5,M,Сергей Осипов,1988,Yes,Raw,SBD
1,Daniil Nasyrov,Amateur Teen 13-15,83.1,100,-120,120,120,,82.5,92.5,97.5,97.5,,120,135,-140,135,,352.5,90,M,Даниил Насыров,1999,Yes,Raw,SBD
DQ,Aleksandr Antipov,Amateur Teen 16-17,88.7,-130,-130,-130,,,,,,,,,,,,,,90,M,Александр Антипов,1997,Yes,Raw,SBD
1,Dmitriy Sobtsov,Amateur Juniors 20-23,88.6,170,180,-185,180,,145,152.5,160,160,,190,205,215,215,,555,90,M,Дмитрий Собцов,1991,Yes,Raw,SBD
2,Aleksandr Lokhadynov,Amateur Juniors 20-23,89.4,170,185,-192.5,185,,130,142.5,-150,142.5,,195,220,-230,220,,547.5,90,M,Александр Лохадынов,1992,Yes,Raw,SBD
3,Pavel Simanin,Amateur Juniors 20-23,86.9,150,170,177.5,177.5,,115,125,-130,125,,190,205,215,215,,517.5,90,M,Павел Симанин,1994,Yes,Raw,SBD
4,Dmitriy Pushkarev,Amateur Juniors 20-23,88.9,160,170,-175,170,,112.5,-120,-120,112.5,,190,210,-227.5,210,,492.5,90,M,Дмитрий Пушкарев,1991,Yes,Raw,SBD
5,Sergey Krasheninnikov,Amateur Juniors 20-23,88.8,120,135,-145,135,,120,132.5,-140,132.5,,175,-190,190,190,,457.5,90,M,Сергей Крашенинников,1994,Yes,Raw,SBD
1,Aleksandr Shuralev,Amateur Open,89,200,210,220,220,,170,175,-180,175,,220,230,,230,,625,90,M,Александр Шуралев,1975,Yes,Raw,SBD
2,Sergey Larionov,Amateur Open,90,185,192.5,-200,192.5,,135,145,-155,145,,265,275,-282.5,275,,612.5,90,M,Сергей Ларионов,1975,Yes,Raw,SBD
3,Viktor Pashkov,Amateur Open,90,180,200,-205,200,,130,140,-145,140,,220,-230,230,230,,570,90,M,Виктор Пашков,1982,Yes,Raw,SBD
4,Andrey Bulgar,Amateur Open,89.2,160,175,182.5,182.5,,-122.5,-125,125,125,,230,,,230,,537.5,90,M,Андрей Булгарь,1988,Yes,Raw,SBD
5,Sergey Klyauzov,Amateur Open,86.3,-170,170,190,190,,130,-135,-140,130,,190,200,-222.5,200,,520,90,M,Сергей Кляузов,1990,Yes,Raw,SBD
6,Aleksandr Rodionov,Amateur Open,88.8,175,182.5,190,190,,115,122.5,-130,122.5,,190,205,-212.5,205,,517.5,90,M,Александр Родионов,1986,Yes,Raw,SBD
7,Aleksey Pozdin,Amateur Open,87.3,170,-177.5,-177.5,170,,-130,135,-140,135,,190,195,-200,195,,500,90,M,Алексей Поздин,1980,Yes,Raw,SBD
8,Sergey Kurdyumov,Amateur Open,88.1,125,-132.5,140,140,,105,110,115,115,,165,175,182.5,182.5,,437.5,90,M,Сергей Курдюмов,1985,Yes,Raw,SBD
DQ,Yuriy Sakharov,Amateur Open,88.4,-185,-185,-185,,,,,,,,,,,,,,90,M,Юрий Сахаров,1986,Yes,Raw,SBD
1,Vadim Zhilin,Amateur Masters 45-49,87.2,120,130,140,140,,100,105,110,110,,-180,190,200,200,,450,90,M,Вадим Жилин,1968,Yes,Raw,SBD
1,Evgeniy Vladimirov,Amateur Masters 50-54,89.2,-200,-200,200,200,,130,135,-140,135,,210,215,222.5,222.5,,557.5,90,M,Евгений Владимиров,1964,Yes,Raw,SBD
2,Igor Trishkin,Amateur Masters 50-54,87.7,-170,170,180,180,,110,120,130,130,,-200,200,220,220,,530,90,M,Игорь Тришкин,1960,Yes,Raw,SBD
3,Mikhail Kozachuk,Amateur Masters 50-54,88.5,120,130,140,140,,80,82.5,85,85,,130,145,-150,145,,370,90,M,Михаил Козачук,1963,Yes,Raw,SBD
1,Ilya Alekhin,Amateur Teen 16-17,95,160,180,185,185,,105,-120,125,125,,180,200,-220,200,,510,100,M,Илья Алехин,1998,Yes,Raw,SBD
2,Viktor Novikov,Amateur Teen 16-17,93.4,132.5,-140,140,140,,92.5,-95,-95,92.5,,155,165,170,170,,402.5,100,M,Виктор Новиков,1996,Yes,Raw,SBD
1,Yuriy Kozlov,Amateur Teen 18-19,94.8,135,145,155,155,,100,110,-115,110,,140,160,165,165,,430,100,M,Юрий Козлов,1995,Yes,Raw,SBD
1,Gleb Brailko,Amateur Juniors 20-23,99.2,210,220,232.5,232.5,,155,160,167.5,167.5,,220,-230,230,230,,630,100,M,Глеб Браилко,1991,Yes,Raw,SBD
2,Dmitriy Runov,Amateur Juniors 20-23,93.4,-160,160,-175,160,,137.5,142.5,-147.5,142.5,,187.5,200,-212.5,200,,502.5,100,M,Дмитрий Рунов,1993,Yes,Raw,SBD
1,Anton Ilyasov,Amateur Open,99.3,225,-235,237.5,237.5,,145,150,155,155,,-320,320,330,330,,722.5,100,M,Антон Илясов,1988,Yes,Raw,SBD
2,Aleksandr Mescheryakov,Amateur Open,99.7,-210,220,225,225,,155,160,-162.5,160,,245,255,-260,255,,640,100,M,Александр Мещеряков,1990,Yes,Raw,SBD
3,Artem Bezpalenko,Amateur Open,98.1,170,185,-200,185,,150,-160,-160,150,,230,245,-255,245,,580,100,M,Артем Безпаленко,1990,Yes,Raw,SBD
4,Sergey Pereskokov,Amateur Open,98.7,205,217.5,-225,217.5,,147.5,-157.5,-157.5,147.5,,200,215,-227.5,215,,580,100,M,Сергей Перескоков,1987,Yes,Raw,SBD
5,Maksim Kiselgof,Amateur Open,92.2,180,190,200,200,,140,145,150,150,,200,215,225,225,,575,100,M,Максим Кисельгоф,1974,Yes,Raw,SBD
6,Sergey Rubin,Amateur Open,97.4,190,205,-215,205,,130,140,145,145,,210,-230,-230,210,,560,100,M,Сергей Рубин,1989,Yes,Raw,SBD
7,Nikita Matko,Amateur Open,95.4,160,180,-190,180,,140,150,160,160,,-180,205,-220,205,,545,100,M,Никита Матько,1984,Yes,Raw,SBD
DQ,Aleksey Gruzin,Amateur Open,97.9,-225,-230,-230,,,,,,,,,,,,,,100,M,Алексей Грузин,1983,Yes,Raw,SBD
1,Andrey Gridnev,Amateur Masters 40-44,95.7,-180,180,-190,180,,100,110,115,115,,190,210,220,220,,515,100,M,Андрей Гриднев,1970,Yes,Raw,SBD
2,Mikhail Rubtsov,Amateur Masters 40-44,99.4,-170,170,180,180,,130,-140,-140,130,,190,200,205,205,,515,100,M,Михаил Рубцов,1974,Yes,Raw,SBD
1,Ruslan Magomadov,Amateur Masters 50-54,93.5,140,150,-160,150,,100,-110,-110,100,,150,160,170,170,,420,100,M,Руслан Магомадов,1964,Yes,Raw,SBD
1,Aleksandr Lokotkov,Amateur Teen 18-19,101.5,110,120,130,130,,-110,117.5,-127.5,117.5,,140,160,-170,160,,407.5,110,M,Александр Локотков,1995,Yes,Raw,SBD
DQ,Denis Leonov,Amateur Juniors 20-23,107.8,-180,-185,-185,,,,,,,,,,,,,,110,M,Денис Леонов,1992,Yes,Raw,SBD
DQ,Aleksey Gavrilov,Amateur Juniors 20-23,102.3,-180,-185,-185,,,,,,,,,,,,,,110,M,Алексей Гаврилов,1992,Yes,Raw,SBD
1,Konstantin Morozov #1,Amateur Open,108.8,230,240,,240,,200,210,-215,210,,330,-350,,330,,780,110,M,Константин Морозов,1984,Yes,Raw,SBD
2,Pavel Shtatnov,Amateur Open,105,230,-237.5,,230,,160,167.5,-172.5,167.5,,260,270,-280,270,,667.5,110,M,Павел Штатнов,1980,Yes,Raw,SBD
3,Roman Klimov,Amateur Open,104.1,220,-230,230,230,,-150,150,-155,150,,240,-275,275,275,,655,110,M,Роман Климов,1981,Yes,Raw,SBD
4,Dmitriy Pavlovskiy,Amateur Open,102.2,190,205,220,220,,145,152.5,157.5,157.5,,240,260,-277.5,260,,637.5,110,M,Дмитрий Павловский,1988,Yes,Raw,SBD
5,Konstantin Gorbunov,Amateur Open,109.7,190,-200,205,205,,-120,-120,120,120,,190,-200,,190,,515,110,M,Константин Горбунов,1976,Yes,Raw,SBD
1,Igor Sharapov,Amateur Masters 40-44,108.8,220,230,-235,230,,165,172.5,-177.5,172.5,,250,260,-265,260,,662.5,110,M,Игорь Шарапов,1971,Yes,Raw,SBD
2,Igor Sereda,Amateur Masters 50-54,105.5,150,-160,-160,150,,-140,140,145,145,,180,200,-220,200,,495,110,M,Игорь Середа,1964,Yes,Raw,SBD
DQ,Ruslan Pakhomov,Amateur Juniors 20-23,121.8,-200,-220,-220,,,,,,,,,,,,,,125,M,Руслан Пахомов,1991,Yes,Raw,SBD
1,Evgeniy Baranov,Amateur Open,120.7,275,280,285,285,,195,205,-207.5,205,,300,-312.5,-312.5,300,,790,125,M,Евгений Баранов,1982,Yes,Raw,SBD
2,Nikolay Rudenko,Amateur Open,116,-230,230,245,245,,165,170,-180,170,,250,-270,-270,250,,665,125,M,Николай Руденко,1982,Yes,Raw,SBD
3,Sergey Oleynikov,Amateur Open,113.9,185,192.5,-200,192.5,,155,162.5,170,170,,220,235,-245,235,,597.5,125,M,Сергей Олейников,1981,Yes,Raw,SBD
1,Mikhail Kondratenko,Amateur Open,151.7,210,230,242.5,242.5,,145,152.5,-157.5,152.5,,-257.5,257.5,272.5,272.5,,667.5,140+,M,Михаил Кондратенко,1987,Yes,Raw,SBD
1,Mariya Donskova,Pro Teen 16-17,62.7,60,-70,70,70,77.5,32.5,37.5,-40,37.5,-40,85,-90,95,95,100,202.5,67.5,F,Мария Донскова,1998,No,Raw,SBD
1,Oksana Maksimova,Pro Open,67.5,65,75,82.5,82.5,,35,40,-45,40,,-90,90,100,100,,222.5,67.5,F,Оксана Максимова,1987,No,Raw,SBD
1,Dias Dzhelilov,Pro Juniors 20-23,62.4,-135,145,155,155,,110,115,120,120,,180,190,200,200,-205,475,67.5,M,Диас Джелилов,1993,No,Raw,SBD
1,Mikhail Zalygin,Pro Open,65.6,105,115,125,125,,92.5,97.5,-100,97.5,,150,160,-165,160,,382.5,67.5,M,Михаил Залыгин,1985,No,Raw,SBD
1,Maksim Khersonskiy,Pro Teen 18-19,72.9,130,140,150,150,,-105,110,-120,110,,180,190,-200,190,,450,75,M,Максим Херсонский,1996,No,Raw,SBD
1,Anton Altukhov,Pro Juniors 20-23,82.1,220,-230,-230,220,,160,170,180,180,,-240,240,260,260,,660,82.5,M,Антон Алтухов,1991,No,Raw,SBD
2,Anton Arzhanov,Pro Juniors 20-23,81.2,160,-170,170,170,,90,95,100,100,,165,177.5,185,185,,455,82.5,M,Антон Аржанов,1994,No,Raw,SBD
DQ,Artem Tarasov,Pro Juniors 20-23,81.1,-170,-170,-170,,,,,,,,,,,,,,82.5,M,Артем Тарасов,1992,No,Raw,SBD
1,Maksim Grekov,Pro Open,82,220,230,-235,230,,165,170,-175,170,,260,270,-275,270,,670,82.5,M,Максим Греков,1985,No,Raw,SBD
2,Aleksey Sukhoruchenko,Pro Open,80.3,130,-140,140,140,,130,140,-150,140,,180,195,-210,195,,475,82.5,M,Алексей Сухорученко,1982,No,Raw,SBD
DQ,Sergey Mozhaev,Pro Open,78.4,-175,-175,-175,,,,,,,,,,,,,,82.5,M,Сергей Можаев,1988,No,Raw,SBD
DQ,Aleksandr Fedorkov,Pro Teen 18-19,85,-175,-190,-190,,,,,,,,,,,,,,90,M,Александр Федорков,1996,No,Raw,SBD
DQ,Aleksey Zyuban,Pro Juniors 20-23,89.5,200,-207.5,-207.5,200,,135,140,-145,140,,-230,-230,-230,,,,90,M,Алексей Зюбан,1994,No,Raw,SBD
1,Anton Anikanov,Pro Open,88.9,235,245,255,255,,180,190,195,195,,260,270,-277.5,270,,720,90,M,Антон Аниканов,1985,No,Raw,SBD
2,Kirill Tsaparov,Pro Open,86.3,200,220,235,235,,160,-170,-170,160,,-265,265,285,285,,680,90,M,Кирилл Цапаров,1984,No,Raw,SBD
3,Arseniy Mikhaylenko,Pro Open,89.1,-205,215,-220,215,,175,182.5,-187.5,182.5,,245,252.5,262.5,262.5,,660,90,M,Арсений Михайленко,1987,No,Raw,SBD
4,Radiy Spitsin,Pro Open,89.2,210,225,230,230,,150,-162.5,-162.5,150,,270,280,-287.5,280,,660,90,M,Радій Спицин,1981,No,Raw,SBD
5,Denis Bubnov,Pro Open,89.3,210,-220,220,220,,135,-145,147.5,147.5,,245,260,270,270,,637.5,90,M,Денис Бубнов,1989,No,Raw,SBD
6,Dmitriy Chuzhakov,Pro Open,89.3,-205,205,-217.5,205,,145,152.5,-157.5,152.5,,250,-262.5,,250,,607.5,90,M,Дмитрий Чужаков,1989,No,Raw,SBD
7,Kirill Taratinskiy,Pro Open,88.1,160,170,-180,170,,-110,115,-120,115,,200,210,-230,210,,495,90,M,Кирилл Таратинский,1989,No,Raw,SBD
8,Tochiddin Abdurokhmonov,Pro Open,83.9,-110,115,130,130,,100,110,-112.5,110,,140,155,170,170,,410,90,M,,1982,No,Raw,SBD
1,Andrey Ivanov,Pro Masters 40-44,85.3,-140,140,-150,140,,90,100,-110,100,,150,170,180,180,,420,90,M,Андрей Иванов,1971,No,Raw,SBD
1,Artem Zharkov,Pro Teen 16-17,100,185,-192.5,200,200,,120,130,140,140,,-230,230,-240,230,,570,100,M,Артем Жарков,1996,No,Raw,SBD
1,Dmitriy Bogdanov,Pro Juniors 20-23,98.5,272.5,-280,-280,272.5,,182.5,-188,188,188,,272.5,285,-300.5,285,,745.5,100,M,Дмитрий Богданов,1992,No,Raw,SBD
2,Aleksey Kaloshin,Pro Juniors 20-23,98.9,-230,230,-240,230,,-160,165,-170,165,,270,280,287.5,287.5,,682.5,100,M,Алексей Калошин,1991,No,Raw,SBD
3,Vitaliy Ryabykh,Pro Juniors 20-23,99.2,195,-205,205,205,,-160,165,-170,165,,230,245,-260,245,,615,100,M,Виталий Рябых,1992,No,Raw,SBD
1,Aleksey Sizov,Pro Open,94.8,235,255,265,265,,190,202.5,-207.5,202.5,,250,270,-290,270,,737.5,100,M,Алексей Сизов,1979,No,Raw,SBD
2,Pavel Papenkov,Pro Open,100,-220,220,-232.5,220,,165,172.5,-177.5,172.5,,265,280,290,290,,682.5,100,M,Павел Папенков,1980,No,Raw,SBD
3,Maksim Yakovlev,Pro Open,97.3,-230,-235,235,235,,140,150,157.5,157.5,,240,250,262.5,262.5,,655,100,M,Максим Яковлев,1987,No,Raw,SBD
4,Ivan Kozulya,Pro Open,95.9,180,195,205,205,,155,165,175,175,,220,240,255,255,,635,100,M,Иван Козуля,1983,No,Raw,SBD
5,Sergey Zotov,Pro Open,95.8,-165,175,185,185,,100,107.5,115,115,,175,185,-195,185,,485,100,M,Сергей Зотов,1988,No,Raw,SBD
1,Ilnur Zalyaliev,Pro Juniors 20-23,106.4,210,230,250,250,,160,-172.5,180,180,,-240,260,280,280,,710,110,M,Ильнур Залялиев,1991,No,Raw,SBD
1,Aleksey Gorbonosov,Pro Open,105.6,230,237.5,,237.5,,160,170,172.5,172.5,,300,,,300,,710,110,M,Алексей Горбоносов,1985,No,Raw,SBD
2,Oleg Skorobreschuk,Pro Open,105.9,245,255,260,260,,165,175,185,185,,240,,,240,,685,110,M,Олег Скоробрещук,1977,No,Raw,SBD
3,Sergey Mineev,Pro Open,103.7,190,210,215,215,,170,180,-185,180,,235,250,265,265,,660,110,M,Сергей Минеев,1989,No,Raw,SBD
4,Maksim Antonov,Pro Open,110,200,215,230,230,,140,150,-160,150,,220,240,260,260,,640,110,M,Максим Антонов,1981,No,Raw,SBD
1,Marat Savosin,Pro Juniors 20-23,113.9,275,290,300.5,300.5,,190,202.5,-210,202.5,,275,285,-295,285,,788,125,M,Марат Савосин,1990,No,Raw,SBD
1,Aleksandr Volkov,Pro Open,124.6,280,290,300,300,,180,190,-200,190,,300,-315,-315,300,,790,125,M,Александр Волков,1975,No,Raw,SBD
2,Aleksandr Chervyakov,Pro Open,124.8,230,240,250,250,,210,-220,-220,210,,310,330,-340,330,,790,125,M,Александр Червяков,1988,No,Raw,SBD
3,Anton Vildanov,Pro Open,121.7,-200,-200,200,200,,-225,225,240,240,,-220,-220,220,220,,660,125,M,Антон Вильданов,1980,No,Raw,SBD
1,Aleksey Ivanov,Pro Masters 40-44,115.8,-252.5,255,260,260,,175,180,-185,180,,282.5,-290,-290,282.5,,722.5,125,M,Алексей Иванов,1972,No,Raw,SBD
1,Vladimir Shevchuk,Pro Masters 45-49,119,205,215,220,220,,150,157.5,160,160,,215,225,230,230,,610,125,M,Владимир Шевчук,1966,No,Raw,SBD
1,Yuriy Vartabedyan,Pro Juniors 20-23,127.1,280,-290,300,300,,-230,230,-235.5,230,,280,290,-300,290,,820,140,M,Юрий Вартабедьян,1991,No,Raw,SBD
DQ,Aleksandr Pirogov #2,Pro Open,137,-330,,,,,,,,,,,,,,,,140,M,Александр Пирогов,1984,No,Raw,SBD
1,Polina Andreeva,Amateur Open,50.7,-120,120,130,130,,72.5,80,-85,80,,112.5,120,125,125,,335,52,F,Полина Андреева,1987,Yes,Single-ply,SBD
1,Natalya Guzenina,Amateur Open,64.8,-120,130,145,145,,70,-77.5,77.5,77.5,,130,145,-160,145,,367.5,67.5,F,Наталья Гузенина,1989,Yes,Single-ply,SBD
1,Yaroslav Khvalevko,Amateur Teen 18-19,65.4,-90,-90,90,90,,50,-60,-70,50,,100,120,-135,120,,260,67.5,M,Ярослав Хвалевко,1996,Yes,Single-ply,SBD
1,Igor Filippov,Amateur Open,75,182.5,-195,200,200,,132.5,140,145,145,,-217.5,217.5,227.5,227.5,,572.5,75,M,Игорь Филиппов,1984,Yes,Single-ply,SBD
2,Rail Albikov,Amateur Open,74.3,185,-195,-195,185,,110,130,-140,130,,180,192.5,-200,192.5,,507.5,75,M,Раиль Альбиков,1989,Yes,Single-ply,SBD
1,Vladislav Petrov,Amateur Teen 16-17,88.2,180,-200,-200,180,,130,150,-165,150,,170,-200,-220,170,,500,90,M,Владислав Петров,1997,Yes,Single-ply,SBD
2,Nikolay Dokuchaev,Amateur Juniors 20-23,83.8,-200,210,220,220,,110,122.5,-130,122.5,,-210,215,220,220,,562.5,90,M,Николай Докучаев,1992,Yes,Single-ply,SBD
1,Mikhail Malinov,Amateur Open,87.2,210,230,240,240,,145,-155,-155,145,,-217.5,230,240,240,,625,90,M,Михаил Малинов,1985,Yes,Single-ply,SBD
2,Andrey Karpov,Amateur Open,88.5,215,225,230,230,,170,-177.5,-180,170,,215,225,-232.5,225,,625,90,M,Андрей Карпов,1985,Yes,Single-ply,SBD
3,Maksim Derezhovskiy,Amateur Open,88.6,-190,190,200,200,,-150,-150,150,150,,220,230,240,240,,590,90,M,Максим Дережовский,1984,Yes,Single-ply,SBD
1,Valeriy Seleznev,Amateur Juniors 20-23,92.5,230,-240,-240,230,,140,150,-160,150,,190,200,210,210,,590,100,M,Валерий Селезнев,1993,Yes,Single-ply,SBD
1,Pavel Noskov,Amateur Teen 13-15,106,240,257.5,270,270,,115,127.5,-135,127.5,,-205,205,237.5,237.5,,635,110,M,Павел Носков,1999,Yes,Single-ply,SBD
1,Sergey Mavrenkov,Pro Masters 45-49,105,265,-275,275,275,,220,230,235,235,,235,250,-260,250,,760,110,M,Сергей Мавренков,1966,No,Multi-ply,SBD
1,Viktoriya Lavrischeva,Pro Open,65.9,150,160,-170,160,,60,-80,-80,60,,140,160,170,170,,390,67.5,F,Виктория Лаврищева,1989,No,Single-ply,SBD
2,Yuliya Shakirova,Pro Open,62.1,95,100,-107.5,100,,40,45,-50,45,,90,100,112.5,112.5,,257.5,67.5,F,Юлия Шакирова,1983,No,Single-ply,SBD
1,Andrey Matveev,Pro Open,74.7,220,230,-240,230,,-160,160,170,170,,230,240,-250,240,,640,75,M,Андрей Матвеев,1986,No,Single-ply,SBD
1,Aleksey Nikolaev,Pro Open,81.4,-270,-270,270,270,,170,180,-190,180,,270,-280,280,280,,730,82.5,M,Алексей Николаев,1984,No,Single-ply,SBD
DQ,Sergey Dolnikov,Pro Open,80.7,-250,-250,-250,,,-185,,,,,-240,,,,,,82.5,M,Сергей Дольников,1986,No,Single-ply,SBD
1,Vadim Seleznev,Pro Open,89.5,140,155,-170,155,,-100,110,120,120,,-140,140,150,150,,425,90,M,Вадим Селезнев,1988,No,Single-ply,SBD
1,Andrey Drozhzhin,Pro Open,105.4,300,310,325,325,,185,-200,-200,185,,275,285,-295,285,,795,110,M,Андрей Дрожжин,1977,No,Single-ply,SBD
DQ,Viktor Andrianov,Pro Open,116.2,-300,-320,-320,,,,,,,,,,,,,,125,M,Віктор Андріанов,1980,No,Single-ply,SBD
1,Dmitriy Shabalin #1,Pro Open,136.5,300,-320,320,320,,280,-300,,280,,280,300,,300,,900,140,M,Дмитрий Шабалин,1969,No,Single-ply,SBD
1,Yuliya Murasheva,Amateur Open,43.3,,,,,,70,72.5,75,75,,,,,,,75,44,F,Юлия Мурашева,1970,Yes,Raw,B
2,Elena Sorokina,Amateur Open,44,,,,,,57.5,62.5,-65,62.5,,,,,,,62.5,44,F,Елена Сорокина,1985,Yes,Raw,B
1,Viktoriya Yultsova,Amateur Youth,47.8,,,,,,60,63,65,65,,,,,,,65,48,F,Виктория Юльцова,2002,Yes,Raw,B
1,Viktoriya Klementyeva,Amateur Juniors 20-23,47.3,,,,,,47.5,52.5,-55,52.5,,,,,,,52.5,48,F,Виктория Клементьева,1994,Yes,Raw,B
1,Viktoriya Yultsova,Amateur Open,47.8,,,,,,60,63,65,65,,,,,,,65,48,F,Виктория Юльцова,2002,Yes,Raw,B
2,Irina Suvorova,Amateur Open,47.1,,,,,,-52.5,52.5,-55,52.5,,,,,,,52.5,48,F,Ирина Суворова,1982,Yes,Raw,B
3,Ekaterina Petukhova,Amateur Open,47.9,,,,,,50,-52.5,52.5,52.5,,,,,,,52.5,48,F,Екатерина Петухова,1986,Yes,Raw,B
1,Arina Muchkina,Amateur Teen 18-19,49.2,,,,,,40,47.5,-50,47.5,,,,,,,47.5,52,F,Арина Мучкина,1996,Yes,Raw,B
1,Anna Ivanova #6,Amateur Open,51,,,,,,52.5,57.5,-60,57.5,,,,,,,57.5,52,F,Анна Иванова,1984,Yes,Raw,B
DQ,Marina Zelenina,Amateur Open,51.2,,,,,,-50,-50,-50,,,,,,,,,52,F,Марина Зеленина,1984,Yes,Raw,B
1,Darya Galaeva,Amateur Teen 13-15,53.7,,,,,,47.5,-50,50,50,,,,,,,50,56,F,Дарья Галаева,1999,Yes,Raw,B
1,Vasilisa Dudareva,Amateur Teen 16-17,55.2,,,,,,50,52.5,55,55,-57.5,,,,,,55,56,F,Василиса Дударева,1997,Yes,Raw,B
2,Yuliya Kolykhalova,Amateur Teen 16-17,55.9,,,,,,47.5,52.5,55,55,-57.5,,,,,,55,56,F,Юлия Колыхалова,1997,Yes,Raw,B
1,Yuliya Arsentyeva,Amateur Juniors 20-23,54.2,,,,,,55,-60,-60,55,,,,,,,55,56,F,Юлия Арсентьева,1990,Yes,Raw,B
1,Marina Gorikova,Amateur Open,52.5,,,,,,67.5,-72.5,-72.5,67.5,,,,,,,67.5,56,F,Марина Горикова,1983,Yes,Raw,B
2,Ekaterina Mansurova,Amateur Open,55.4,,,,,,-45,45,47.5,47.5,,,,,,,47.5,56,F,Екатерина Мансурова,1980,Yes,Raw,B
DQ,Galina Isaykina,Amateur Masters 45-49,53.1,,,,,,-45,-45,-45,,,,,,,,,56,F,Галина Исайкина,1967,Yes,Raw,B
1,Marianna Rubina,Amateur Open,60,,,,,,55,57.5,60,60,,,,,,,60,60,F,Марианна Рубина,1990,Yes,Raw,B
2,Galina Lazareva,Amateur Open,59.1,,,,,,-52.5,52.5,57.5,57.5,,,,,,,57.5,60,F,Галина Лазарева,1983,Yes,Raw,B
1,Ekaterina Butenko,Amateur Juniors 20-23,63.6,,,,,,25,-32.5,35,35,,,,,,,35,67.5,F,Екатерина Бутенко,1993,Yes,Raw,B
1,Nataliya Zagrebina,Amateur Open,62.5,,,,,,80,-85,-85,80,,,,,,,80,67.5,F,Наталия Загребина,1977,Yes,Raw,B
2,Svetlana Grigoryeva,Amateur Open,66.6,,,,,,50,52.5,55,55,,,,,,,55,67.5,F,Светлана Григорьева,1982,Yes,Raw,B
3,Natalya Myasina,Amateur Open,63.8,,,,,,45,50,-52.5,50,,,,,,,50,67.5,F,Наталья Мясина,1985,Yes,Raw,B
3,Mariya Novikova,Amateur Open,67.1,,,,,,45,47.5,-50,47.5,,,,,,,47.5,67.5,F,Мария Новикова,1981,Yes,Raw,B
1,Anna Galaktionova,Amateur Juniors 20-23,68.3,,,,,,-60,60,-70,60,,,,,,,60,75,F,Анна Галактионова,1992,Yes,Raw,B
1,Tatyana Sivkovich,Amateur Masters 45-49,105.7,,,,,,75,80,-82.5,80,,,,,,,80,90+,F,Татьяна Сивкович,1965,Yes,Raw,B
1,Anatoliy Malakhovskiy,Amateur Youth,40,,,,,,40,-45,-45,40,,,,,,,40,52,M,Анатолий Малаховский,2003,Yes,Raw,B
1,Egor Arkharov,Amateur Teen 13-15,58.1,,,,,,67.5,-75,-75,67.5,,,,,,,67.5,60,M,Егор Архаров,1998,Yes,Raw,B
1,Konstantin Burmanov,Amateur Teen 16-17,57.8,,,,,,77.5,-82.5,87.5,87.5,,,,,,,87.5,60,M,Константин Бурманов,1997,Yes,Raw,B
1,Artem Abramkin,Amateur Juniors 20-23,58.6,,,,,,-97.5,-105,105,105,,,,,,,105,60,M,Артем Абрамкин,1993,Yes,Raw,B
1,Oleg Vaschenko,Amateur Open,59.5,,,,,,90,100,-110,100,,,,,,,100,60,M,Олег Ващенко,1980,Yes,Raw,B
1,Dmitriy Egorov,Amateur Teen 13-15,65.2,,,,,,92.5,97.5,100,100,,,,,,,100,67.5,M,Дмитрий Егоров,1999,Yes,Raw,B
1,Maksim Konyashin,Amateur Teen 16-17,67.5,,,,,,97.5,100,102.5,102.5,,,,,,,102.5,67.5,M,Максим Коняшин,1996,Yes,Raw,B
2,Artem Barinov,Amateur Teen 16-17,66,,,,,,90,-95,-95,90,,,,,,,90,67.5,M,Артем Баринов,1998,Yes,Raw,B
1,Vitaliy Yakovlev,Amateur Teen 18-19,66.2,,,,,,120,-125,125,125,,,,,,,125,67.5,M,Виталий Яковлев,1995,Yes,Raw,B
1,Ruben Davidyan,Amateur Juniors 20-23,67,,,,,,125,130,137.5,137.5,,,,,,,137.5,67.5,M,Рубен Давидян,1992,Yes,Raw,B
2,Aleksey Kolosov,Amateur Juniors 20-23,66.9,,,,,,120,-125,-125,120,,,,,,,120,67.5,M,Алексей Колосов,1993,Yes,Raw,B
3,Dmitriy Moryganov,Amateur Juniors 20-23,65.7,,,,,,75,-87.5,87.5,87.5,,,,,,,87.5,67.5,M,Дмитрий Морыганов,1991,Yes,Raw,B
DQ,Aleksey Popovich,Amateur Juniors 20-23,64.4,,,,,,-115,-125,-125,,,,,,,,,67.5,M,Алексей Попович,1991,Yes,Raw,B
1,Aleksandr Gapuzin,Amateur Open,65.1,,,,,,125,-135,140,140,,,,,,,140,67.5,M,Александр Гапузин,1988,Yes,Raw,B
2,Dmitriy Mitin,Amateur Open,66.7,,,,,,130,135,140,140,,,,,,,140,67.5,M,Дмитрий Митин,1984,Yes,Raw,B
3,Aleksey Yushin,Amateur Open,66.9,,,,,,127.5,132.5,-135,132.5,,,,,,,132.5,67.5,M,Алексей Юшин,1982,Yes,Raw,B
4,Maksim Kanapiev,Amateur Open,66.9,,,,,,125,-130,-132.5,125,,,,,,,125,67.5,M,Максим Канапиев,1987,Yes,Raw,B
1,Evgeniy Gorshkov,Amateur Teen 13-15,71.8,,,,,,80,87.5,95,95,,,,,,,95,75,M,Евгений Горшков,1999,Yes,Raw,B
1,Maksim Kamenschikov,Amateur Teen 16-17,71.5,,,,,,-95,95,-105,95,,,,,,,95,75,M,Максим Каменьщиков,1997,Yes,Raw,B
1,Suleyman Suleymanov,Amateur Teen 18-19,69.9,,,,,,115,125,132.5,132.5,,,,,,,132.5,75,M,Сулейман Сулейманов,1996,Yes,Raw,B
2,Aleksey Zhidkov,Amateur Teen 18-19,72.9,,,,,,-117.5,117.5,127.5,127.5,,,,,,,127.5,75,M,Алексей Жидков,1995,Yes,Raw,B
3,Daniil Arzhakov,Amateur Teen 18-19,74.4,,,,,,-120,125,-132.5,125,,,,,,,125,75,M,Даниил Аржаков,1995,Yes,Raw,B
4,Dmitriy Karpenkov,Amateur Teen 18-19,74.5,,,,,,105,110,-117.5,110,,,,,,,110,75,M,Дмитрий Карпенков,1996,Yes,Raw,B
DQ,Mikhail Pavlenko,Amateur Teen 18-19,75,,,,,,-125,-135,-135,,,,,,,,,75,M,Михаил Павленко,1995,Yes,Raw,B
1,Konstantin Borisov,Amateur Juniors 20-23,73.8,,,,,,122.5,135,-140,135,,,,,,,135,75,M,Константин Борисов,1992,Yes,Raw,B
DQ,Dmitriy Troshin,Amateur Juniors 20-23,71.8,,,,,,-105,-105,-105,,,,,,,,,75,M,Дмитрий Трошин,1993,Yes,Raw,B
1,Artem Larionov,Amateur Open,74.8,,,,,,155,160,165,165,,,,,,,165,75,M,Артем Ларионов,1978,Yes,Raw,B
2,Mikhail Buriev,Amateur Open,73.8,,,,,,127.5,135,142.5,142.5,,,,,,,142.5,75,M,Михаил Буриев,1975,Yes,Raw,B
3,Evgeniy Kovach,Amateur Open,72.2,,,,,,130,135,140,140,,,,,,,140,75,M,Евгений Ковач,1988,Yes,Raw,B
4,Artem Sadaev,Amateur Open,72.3,,,,,,125,135,-140,135,,,,,,,135,75,M,Артем Садаев,1987,Yes,Raw,B
5,Maksim Afanasyev,Amateur Open,74,,,,,,130,135,-140,135,,,,,,,135,75,M,Максим Афанасьев,1988,Yes,Raw,B
6,Andrey Korekhov,Amateur Open,74.4,,,,,,117.5,125,135,135,,,,,,,135,75,M,Андрей Корехов,1990,Yes,Raw,B
7,Pavel Galkin,Amateur Open,72.5,,,,,,127.5,-135,-135,127.5,,,,,,,127.5,75,M,Павел Галкин,1987,Yes,Raw,B
8,Timur Ortskhanov,Amateur Open,71.6,,,,,,120,125,-130,125,,,,,,,125,75,M,Тимур Орцханов,1988,Yes,Raw,B
9,Maksim Kostyukov,Amateur Open,72.3,,,,,,-117.5,117.5,120,120,,,,,,,120,75,M,Максим Костюков,1985,Yes,Raw,B
10,Artem Glazatov,Amateur Open,73.5,,,,,,117.5,120,-125,120,,,,,,,120,75,M,Артем Глазатов,1989,Yes,Raw,B
11,Maksim Maller,Amateur Open,72.3,,,,,,-117.5,-117.5,117.5,117.5,,,,,,,117.5,75,M,Максим Маллер,1981,Yes,Raw,B
12,Dmitriy Navoev,Amateur Open,73.4,,,,,,110,-117.5,-117.5,110,,,,,,,110,75,M,Дмитрий Навоев,1985,Yes,Raw,B
13,Timofey Grishkov,Amateur Open,73.1,,,,,,-105,105,-112.5,105,,,,,,,105,75,M,Тимофей Гришков,1990,Yes,Raw,B
14,Sergey Ulmer,Amateur Open,73.4,,,,,,105,-117.5,-117.5,105,,,,,,,105,75,M,Сергей Ульмер,1977,Yes,Raw,B
15,Roman Nistratov,Amateur Open,69,,,,,,100,-110,-117.5,100,,,,,,,100,75,M,Роман Нистратов,1984,Yes,Raw,B
16,Sergey Sitnikov,Amateur Open,73.1,,,,,,100,-105,-105,100,,,,,,,100,75,M,Сергей Ситников,1989,Yes,Raw,B
DQ,Igor Pochitalkin,Amateur Open,72.5,,,,,,-115,-115,,,,,,,,,,75,M,Игорь Почиталкин,1984,Yes,Raw,B
DQ,Dmitriy Ustinin,Amateur Open,73.4,,,,,,-117.5,-117.5,-117.5,,,,,,,,,75,M,Дмитрий Устинин,1983,Yes,Raw,B
1,Sergey Sidorovskiy,Amateur Masters 40-44,73.8,,,,,,117.5,-120,,117.5,,,,,,,117.5,75,M,Сергей Сидоровский,1971,Yes,Raw,B
1,Andrey Belyakov,Amateur Masters 45-49,74.6,,,,,,-125,-135,135,135,,,,,,,135,75,M,Андрей Беляков,1966,Yes,Raw,B
1,Igor Branovitskiy,Amateur Masters 50-54,73.7,,,,,,95,105,-107.5,105,,,,,,,105,75,M,Игорь Брановицкий,1961,Yes,Raw,B
1,Daniil Nasyrov,Amateur Teen 13-15,82,,,,,,90,95,-97.5,95,,,,,,,95,82.5,M,Даниил Насыров,1999,Yes,Raw,B
1,Daniil Kryukov,Amateur Teen 18-19,78.9,,,,,,125,132.5,137.5,137.5,,,,,,,137.5,82.5,M,Даниил Крюков,1995,Yes,Raw,B
2,Yaroslav Dikun,Amateur Teen 18-19,81.1,,,,,,-127.5,135,-145,135,,,,,,,135,82.5,M,Ярослав Дикун,1995,Yes,Raw,B
3,Nail Galimulin,Amateur Teen 18-19,78.8,,,,,,110,115,-117.5,115,,,,,,,115,82.5,M,Наиль Галимулин,1996,Yes,Raw,B
1,Dmitriy Ukolov,Amateur Juniors 20-23,81.1,,,,,,130,140,-145,140,,,,,,,140,82.5,M,Дмитрий Уколов,1992,Yes,Raw,B
DQ,Aleksandr Aleksandrov #5,Amateur Juniors 20-23,81.6,,,,,,-135,-145,-145,,,,,,,,,82.5,M,Александр Александров,1990,Yes,Raw,B
1,Leonid Schukin,Amateur Open,80.8,,,,,,-145,152.5,-162.5,152.5,,,,,,,152.5,82.5,M,Леонид Щукин,1982,Yes,Raw,B
2,Lev Drozdenko,Amateur Open,80.7,,,,,,145,147.5,150,150,,,,,,,150,82.5,M,Лев Дрозденко,1985,Yes,Raw,B
3,Aleksandr Solodovnikov,Amateur Open,80.7,,,,,,-145,145,-150,145,,,,,,,145,82.5,M,Александр Солодовников,1989,Yes,Raw,B
4,Sergey Savrasov,Amateur Open,81.9,,,,,,137.5,-145,145,145,,,,,,,145,82.5,M,Сергей Саврасов,1983,Yes,Raw,B
5,Petr Zakharov,Amateur Open,80.9,,,,,,130,137.5,142.5,142.5,,,,,,,142.5,82.5,M,Петр Захаров,1985,Yes,Raw,B
6,Roman Konovalov,Amateur Open,80.3,,,,,,-130,-130,130,130,,,,,,,130,82.5,M,Роман Коновалов,1990,Yes,Raw,B
7,Alexey Romanov,Amateur Open,82.5,,,,,,122.5,-127.5,,122.5,,,,,,,122.5,82.5,M,Алексей Романов,1986,Yes,Raw,B
8,Aleksandr Kuznetsov #2,Amateur Open,79.4,,,,,,100,105,110,110,,,,,,,110,82.5,M,Александр Кузнецов,1978,Yes,Raw,B
9,Sergey Lazarev,Amateur Open,77.8,,,,,,100,107.5,-115,107.5,,,,,,,107.5,82.5,M,Сергей Лазарев,1990,Yes,Raw,B
10,Stepan Bugaev,Amateur Open,82.4,,,,,,-87.5,87.5,90,90,,,,,,,90,82.5,M,Степан Бугаев,1983,Yes,Raw,B
DQ,Roman Skudaev,Amateur Open,76.5,,,,,,-140,-140,-145,,,,,,,,,82.5,M,Роман Скудаев,1989,Yes,Raw,B
DQ,Mikhail Zuev,Amateur Open,79.1,,,,,,-132.5,-132.5,-132.5,,,,,,,,,82.5,M,Михаил Зуев,1985,Yes,Raw,B
DQ,Kirill Volkov,Amateur Open,80.9,,,,,,-110,-115,-117.5,,,,,,,,,82.5,M,Кирилл Волков,1984,Yes,Raw,B
DQ,Sergey Lilev,Amateur Open,81.5,,,,,,-122.5,,,,,,,,,,,82.5,M,Сергей Лилев,1989,Yes,Raw,B
1,Evgeniy Zhidkov,Amateur Masters 40-44,80.3,,,,,,140,147.5,-150,147.5,,,,,,,147.5,82.5,M,Евгений Жидков,1974,Yes,Raw,B
1,Sergey Gopko,Amateur Masters 55-59,76.4,,,,,,-105,-112.5,112.5,112.5,,,,,,,112.5,82.5,M,Сергей Гопко,1956,Yes,Raw,B
1,Nikita Antonenko,Amateur Teen 16-17,88,,,,,,-92.5,92.5,-95,92.5,,,,,,,92.5,90,M,Никита Антоненко,1998,Yes,Raw,B
1,Artur Makhno,Amateur Teen 18-19,87.3,,,,,,127.5,132.5,140,140,,,,,,,140,90,M,Артур Махно,1995,Yes,Raw,B
1,Evgeniy Fedyainov,Amateur Juniors 20-23,87.5,,,,,,142.5,-152.5,-152.5,142.5,,,,,,,142.5,90,M,Евгений Федяинов,1991,Yes,Raw,B
2,Andrey Podlipaev,Amateur Juniors 20-23,88.2,,,,,,132.5,135,137.5,137.5,,,,,,,137.5,90,M,Андрей Подлипаев,1992,Yes,Raw,B
3,Aleksandr Menschikov,Amateur Juniors 20-23,87.5,,,,,,125,-132.5,132.5,132.5,,,,,,,132.5,90,M,Александр Меньщиков,1990,Yes,Raw,B
4,Maksim Gromov,Amateur Juniors 20-23,85.2,,,,,,117.5,125,-132.5,125,,,,,,,125,90,M,Максим Громов,1990,Yes,Raw,B
5,Igor Pronin,Amateur Juniors 20-23,85.4,,,,,,115,120,125,125,,,,,,,125,90,M,Игорь Пронин,1991,Yes,Raw,B
1,Boris Apanasevich,Amateur Open,87.8,,,,,,-160,165,-170,165,,,,,,,165,90,M,Борис Апанасевич,1982,Yes,Raw,B
2,Denis Radyushin,Amateur Open,88.2,,,,,,155,-160,160,160,,,,,,,160,90,M,Денис Радюшин,1989,Yes,Raw,B
3,Aleksey Silantyev,Amateur Open,88.4,,,,,,140,152.5,157.5,157.5,,,,,,,157.5,90,M,Алексей Силантьев,1984,Yes,Raw,B
4,Andrey Danilkov,Amateur Open,87.3,,,,,,132.5,145,152.5,152.5,,,,,,,152.5,90,M,Андрей Данилков,1988,Yes,Raw,B
5,Aleksandr Kozlov,Amateur Open,88.3,,,,,,147.5,-152.5,152.5,152.5,,,,,,,152.5,90,M,Александр Козлов,1982,Yes,Raw,B
6,Vadim Kolomyychenko,Amateur Open,88.3,,,,,,140,152.5,-155,152.5,,,,,,,152.5,90,M,Вадим Коломыйченко,1975,Yes,Raw,B
7,Sergey Chernokhvostov,Amateur Open,88.4,,,,,,-152.5,152.5,-155,152.5,,,,,,,152.5,90,M,Сергей Чернохвостов,1990,Yes,Raw,B
8,Roman Shikhaleev,Amateur Open,88.4,,,,,,140,-152.5,-152.5,140,,,,,,,140,90,M,Роман Шихалеев,1990,Yes,Raw,B
9,Leonid Saukov,Amateur Open,89.2,,,,,,140,-152.5,-152.5,140,,,,,,,140,90,M,Леонид Сауков,1986,Yes,Raw,B
10,Roman Kashtanov,Amateur Open,84.4,,,,,,125,132.5,135,135,,,,,,,135,90,M,Роман Каштанов,1989,Yes,Raw,B
11,Nasimi Akhmedov,Amateur Open,85.7,,,,,,130,135,-152.5,135,,,,,,,135,90,M,Насими Ахмедов,1976,Yes,Raw,B
12,Nikolay Mishin,Amateur Open,87.5,,,,,,120,132.5,135,135,,,,,,,135,90,M,Николай Мишин,1982,Yes,Raw,B
13,Dmitriy Volobuev,Amateur Open,87.8,,,,,,125,132.5,135,135,,,,,,,135,90,M,Дмитрий Волобуев,1989,Yes,Raw,B
14,Roman Sklyar,Amateur Open,89.2,,,,,,-132.5,-135,135,135,,,,,,,135,90,M,Роман Скляр,1979,Yes,Raw,B
15,Vladimir Bolataev,Amateur Open,84.9,,,,,,125,132.5,-135,132.5,,,,,,,132.5,90,M,Владимир Болатаев,1983,Yes,Raw,B
16,Kirill Orlov,Amateur Open,87,,,,,,120,132.5,-137.5,132.5,,,,,,,132.5,90,M,Кирилл Орлов,1990,Yes,Raw,B
17,Viktor Bodrenkov,Amateur Open,88,,,,,,127.5,132.5,-135,132.5,,,,,,,132.5,90,M,Виктор Бодренков,1990,Yes,Raw,B
18,Aleksandr Obedientov,Amateur Open,88.3,,,,,,132.5,-137.5,-137.5,132.5,,,,,,,132.5,90,M,Александр Обедиентов,1986,Yes,Raw,B
19,Vladimir Samokhvalov,Amateur Open,88.9,,,,,,-132.5,132.5,,132.5,,,,,,,132.5,90,M,Владимир Самохвалов,1986,Yes,Raw,B
20,Aleksey Chernyakov,Amateur Open,89.2,,,,,,125,132.5,-137.5,132.5,,,,,,,132.5,90,M,Алексей Черняков,1978,Yes,Raw,B
21,Vladimir Akulenkov,Amateur Open,88.3,,,,,,120,130,-135,130,,,,,,,130,90,M,Владимир Акуленков,1984,Yes,Raw,B
22,Pavel Kretts,Amateur Open,86.9,,,,,,125,-132.5,-132.5,125,,,,,,,125,90,M,Павел Кретц,1986,Yes,Raw,B
23,Isam Arabiya,Amateur Open,85.2,,,,,,120,-132.5,-132.5,120,,,,,,,120,90,M,Исам Арабия,1988,Yes,Raw,B
24,Gennadiy Kamyshnikov,Amateur Open,88.8,,,,,,90,107.5,-120,107.5,,,,,,,107.5,90,M,Геннадий Камышников,1969,Yes,Raw,B
DQ,Evgeniy Vasilenko,Amateur Open,83.5,,,,,,-130,-135,,,,,,,,,,90,M,Евгений Василенко,1983,Yes,Raw,B
DQ,Kirill Emelyanov,Amateur Open,87.7,,,,,,-137.5,-137.5,-137.5,,,,,,,,,90,M,Кирилл Емельянов,1986,Yes,Raw,B
DQ,Sergey Kurzakov,Amateur Open,88.3,,,,,,-125,-125,-125,,,,,,,,,90,M,Сергей Курзаков,1980,Yes,Raw,B
DQ,Aleksey Borisov,Amateur Open,90,,,,,,-132.5,-132.5,-132.5,,,,,,,,,90,M,Алексей Борисов,1987,Yes,Raw,B
1,Dmitriy Korotkov,Amateur Masters 40-44,88,,,,,,145,-152.5,-152.5,145,,,,,,,145,90,M,Дмитрий Коротков,1972,Yes,Raw,B
2,Aleksey Ladontsev,Amateur Masters 40-44,89.3,,,,,,140,-152.5,-152.5,140,,,,,,,140,90,M,Алексей Ладонцев,1973,Yes,Raw,B
3,Vladimir Belozerov,Amateur Masters 40-44,88,,,,,,125,132.5,,132.5,,,,,,,132.5,90,M,Владимир Белозеров,1971,Yes,Raw,B
4,Sergey Korolev,Amateur Masters 40-44,86.3,,,,,,130,-152.5,-152.5,130,,,,,,,130,90,M,Сергей Королев,1972,Yes,Raw,B
1,Leonid Skvortsov,Amateur Masters 50-54,89.2,,,,,,160,170,175,175,,,,,,,175,90,M,Леонид Скворцов,1962,Yes,Raw,B
1,Vladimir Rimarevskiy,Amateur Masters 65-69,88.9,,,,,,90,97.5,102.5,102.5,,,,,,,102.5,90,M,Владимир Римаревский,1946,Yes,Raw,B
1,Ilya Obraztsov,Amateur Juniors 20-23,98.5,,,,,,150,157.5,160,160,,,,,,,160,100,M,Илья Образцов,1991,Yes,Raw,B
2,Dmitriy Petrovskiy,Amateur Juniors 20-23,95.9,,,,,,140,-142.5,-142.5,140,,,,,,,140,100,M,Дмитрий Петровский,1991,Yes,Raw,B
1,Andrey Kukhnevskiy,Amateur Open,98.2,,,,,,200,,,200,,,,,,,200,100,M,Андрей Кухневский,1981,Yes,Raw,B
2,Rinat Ilyasov,Amateur Open,94.6,,,,,,155,162.5,-165,162.5,,,,,,,162.5,100,M,Ринат Ильясов,1979,Yes,Raw,B
3,Dmitriy Pavchinskiy,Amateur Open,98.4,,,,,,-150,150,162.5,162.5,,,,,,,162.5,100,M,Дмитрий Павчинский,1988,Yes,Raw,B
4,Aleksandr Zotov,Amateur Open,95.7,,,,,,145,-150,152.5,152.5,,,,,,,152.5,100,M,Александр Зотов,1986,Yes,Raw,B
5,Evgeniy Smirnov,Amateur Open,91.3,,,,,,145,-152.5,-152.5,145,,,,,,,145,100,M,Евгений Смирнов,1983,Yes,Raw,B
6,Artem Kushik,Amateur Open,97.7,,,,,,135,140,145,145,,,,,,,145,100,M,Артем Кушик,1986,Yes,Raw,B
7,Valeriy Smolnikov,Amateur Open,96.4,,,,,,130,140,-152.5,140,,,,,,,140,100,M,Валерий Смольников,1976,Yes,Raw,B
8,Aleksandr Gorodilov,Amateur Open,98,,,,,,-125,140,-145,140,,,,,,,140,100,M,Александр Городилов,1990,Yes,Raw,B
9,Artem Agishev,Amateur Open,98.8,,,,,,-125,-140,140,140,,,,,,,140,100,M,Артем Агишев,1985,Yes,Raw,B
10,Dmitriy Govorukhin,Amateur Open,94,,,,,,125,130,-135,130,,,,,,,130,100,M,Дмитрий Говорухин,1990,Yes,Raw,B
DQ,Igor Chernyshov,Amateur Open,98.2,,,,,,-125,-125,,,,,,,,,,100,M,Игорь Чернышов,1985,Yes,Raw,B
DQ,Vadim Vasilenko,Amateur Open,96.3,,,,,,-150,-150,-162.5,,,,,,,,,100,M,Вадим Василенко,1981,Yes,Raw,B
DQ,Kirill Antonov,Amateur Open,95.1,,,,,,-162.5,-162.5,-162.5,,,,,,,,,100,M,Кирилл Антонов,1988,Yes,Raw,B
DD,Dmitriy Bubyr,Amateur Open,99.2,,,,,,-160,170,-175,170,,,,,,,,100,M,Дмитрий Бубырь,1981,Yes,Raw,B
1,Oleg Tsygankov,Amateur Masters 40-44,97.9,,,,,,145,155,160,160,,,,,,,160,100,M,Олег Цыганков,1974,Yes,Raw,B
2,Aleksey Strulev,Amateur Masters 40-44,96.5,,,,,,130,140,142.5,142.5,,,,,,,142.5,100,M,Алексей Струлев,1971,Yes,Raw,B
3,Roman Pavlenko,Amateur Masters 40-44,97.5,,,,,,125,-132.5,132.5,132.5,,,,,,,132.5,100,M,Роман Павленко,1974,Yes,Raw,B
1,Valeriy Terentyev,Amateur Masters 45-49,98.5,,,,,,130,140,-142.5,140,,,,,,,140,100,M,Валерий Терентьев,1966,Yes,Raw,B
2,Yuriy Lyubach,Amateur Masters 45-49,94.6,,,,,,130,137.5,-140,137.5,,,,,,,137.5,100,M,Юрий Любач,1968,Yes,Raw,B
1,Andrey Makevnin,Amateur Masters 50-54,91.8,,,,,,130,-135,-135,130,,,,,,,130,100,M,Андрей Макевнин,1961,Yes,Raw,B
1,Anatoliy Klyuev,Amateur Juniors 20-23,103.1,,,,,,160,172.5,180,180,,,,,,,180,110,M,Анатолий Клюев,1992,Yes,Raw,B
2,Ruslan Kulebyakin,Amateur Juniors 20-23,107.2,,,,,,170,177.5,180,180,,,,,,,180,110,M,Руслан Кулебякин,1991,Yes,Raw,B
3,Dmitriy Samsonov,Amateur Juniors 20-23,109.5,,,,,,-167.5,-175,175,175,,,,,,,175,110,M,Дмитрий Самсонов,1993,Yes,Raw,B
4,Dmitriy Odnorog,Amateur Juniors 20-23,107.8,,,,,,137.5,142.5,-147.5,142.5,,,,,,,142.5,110,M,Дмитрий Однорог,1992,Yes,Raw,B
5,Kirill Klimenkov,Amateur Juniors 20-23,102.1,,,,,,-132.5,132.5,-137.5,132.5,,,,,,,132.5,110,M,Кирилл Клименков,1994,Yes,Raw,B
1,Valeriy Bashkirov,Amateur Open,108.5,,,,,,167.5,180,-185,180,,,,,,,180,110,M,Валерий Башкиров,1986,Yes,Raw,B
2,Vadim Pronin,Amateur Open,107.3,,,,,,170,-180,-180,170,,,,,,,170,110,M,Вадим Пронин,1979,Yes,Raw,B
3,Sergey Povstanyuk,Amateur Open,109.9,,,,,,162.5,-167.5,-167.5,162.5,,,,,,,162.5,110,M,Сергей Повстанюк,1985,Yes,Raw,B
4,Roman Romanenko,Amateur Open,107.8,,,,,,155,160,-167.5,160,,,,,,,160,110,M,Роман Романенко,1983,Yes,Raw,B
5,Igor Skiba,Amateur Open,105,,,,,,140,147.5,155,155,,,,,,,155,110,M,Игорь Скиба,1987,Yes,Raw,B
6,Kirill Chepurenkov,Amateur Open,107.3,,,,,,147.5,-160,,147.5,,,,,,,147.5,110,M,Кирилл Чепуренков,1973,Yes,Raw,B
7,Aleksey Zabelin,Amateur Open,107.8,,,,,,130,140,-147.5,140,,,,,,,140,110,M,Алексей Забелин,1984,Yes,Raw,B
1,Kirill Kharabadze,Amateur Masters 40-44,107.8,,,,,,150,160,165,165,,,,,,,165,110,M,Кирилл Харабадзе,1972,Yes,Raw,B
2,Denis Favorskiy,Amateur Masters 40-44,108.7,,,,,,140,145,150,150,,,,,,,150,110,M,Денис Фаворский,1971,Yes,Raw,B
3,Oleg Zadubrovskiy,Amateur Masters 40-44,109,,,,,,150,-160,-160,150,,,,,,,150,110,M,Олег Задубровский,1972,Yes,Raw,B
2,Dmitriy Kalinovskiy,Amateur Masters 45-49,104,,,,,,125,130,-132.5,130,,,,,,,130,110,M,Дмитрий Калиновский,1967,Yes,Raw,B
1,Igor Golovanov,Amateur Open,119.8,,,,,,180,187.5,-195,187.5,,,,,,,187.5,125,M,Игорь Голованов,1983,Yes,Raw,B
2,Vladislav Romanov,Amateur Open,119.2,,,,,,147.5,152.5,162.5,162.5,,,,,,,162.5,125,M,Владислав Романов,1987,Yes,Raw,B
3,Vladimir Seleznev,Amateur Open,121.6,,,,,,162.5,-167.5,-167.5,162.5,,,,,,,162.5,125,M,Владимир Селезнев,1977,Yes,Raw,B
4,Vladimir Maksyutenko,Amateur Open,116.4,,,,,,160,-165,-165,160,,,,,,,160,125,M,Владимир Максютенко,1986,Yes,Raw,B
5,Aleksandr Yanichev,Amateur Open,120.9,,,,,,147.5,152.5,-155,152.5,,,,,,,152.5,125,M,Александр Яничев,1977,Yes,Raw,B
6,Vyacheslav Khodakovskiy,Amateur Open,118.3,,,,,,-115,122.5,-130,122.5,,,,,,,122.5,125,M,Вячеслав Ходаковский,1986,Yes,Raw,B
1,Oleg Butenko,Amateur Masters 40-44,123.3,,,,,,170,-177.5,-177.5,170,,,,,,,170,125,M,Олег Бутенко,1971,Yes,Raw,B
2,Artem Berdnik,Amateur Masters 40-44,117.4,,,,,,125,132.5,-137.5,132.5,,,,,,,132.5,125,M,Артем Бердник,1974,Yes,Raw,B
1,Mikhail Nikolaev,Amateur Masters 50-54,125,,,,,,170,180,190,190,,,,,,,190,125,M,Михаил Николаев,1961,Yes,Raw,B
1,Vladimir Chubarov,Amateur Masters 50-54,113.1,,,,,,150,-160,-160,150,,,,,,,150,125,M,Владимир Чубаров,1964,Yes,Raw,B
1,Roman Marachev,Amateur Open,141.3,,,,,,190,200,210,210,,,,,,,210,140+,M,Роман Марачев,1978,Yes,Raw,B
2,Roman Mishurenkov,Amateur Open,141.2,,,,,,170,180,190,190,,,,,,,190,140+,M,Роман Мишуренков,1982,Yes,Raw,B
1,Natalya Royanova,Pro Open,50,,,,,,30,35,,35,,,,,,,35,52,F,Наталья Роянова,1979,No,Raw,B
1,Valentina Samokhina,Pro Teen 18-19,60,,,,,,30,32.5,35,35,,,,,,,35,60,F,Валентина Самохина,1995,No,Raw,B
1,Kseniya Schekina,Pro Teen 18-19,67.5,,,,,,55,60,67.5,67.5,,,,,,,67.5,67.5,F,Ксения Щекина,1995,No,Raw,B
1,Anzhela Kulagina,Pro Open,63.6,,,,,,95,100,105,105,,,,,,,105,67.5,F,Анжела Кулагина,1988,No,Raw,B
1,Anna Gumenyuk,Pro Teen 16-17,74.2,,,,,,32.5,-40,40,40,,,,,,,40,75,F,Анна Гуменюк,1997,No,Raw,B
1,Maksim Rudakov,Pro Juniors 20-23,74.9,,,,,,140,150,-155,150,,,,,,,150,75,M,Максим Рудаков,1991,No,Raw,B
1,Nikolay Masnukha,Pro Open,73.1,,,,,,135,145,-150,145,,,,,,,145,75,M,Николай Маснуха,1982,No,Raw,B
1,Dmitriy Kovalenko,Pro Masters 40-44,69.3,,,,,,77.5,82.5,-85,82.5,,,,,,,82.5,75,M,Дмитрий Коваленко,1972,No,Raw,B
DQ,Eduard Martirosov,Pro Teen 18-19,81.3,,,,,,-140,-140,-140,,,,,,,,,82.5,M,Эдуард Мартиросов,1995,No,Raw,B
1,Sergey Kogtev,Pro Open,81.1,,,,,,-170,170,-175,170,,,,,,,170,82.5,M,Сергей Когтев,1988,No,Raw,B
2,Nikolay Petrakovich,Pro Open,78.3,,,,,,130,-135,135,135,,,,,,,135,82.5,M,Николай Петракович,1979,No,Raw,B
3,Valeriy Kovalev,Pro Open,81.7,,,,,,-125,132.5,-140,132.5,,,,,,,132.5,82.5,M,Валерий Ковалев,1981,No,Raw,B
1,Sergey Goncharov,Pro Masters 60-64,82.5,,,,,,120,125,130,130,,,,,,,130,82.5,M,Сергей Гончаров,1952,No,Raw,B
1,Egor Levit,Pro Teen 18-19,87.6,,,,,,95,-100,100,100,,,,,,,100,90,M,Егор Левит,1996,No,Raw,B
1,Aleksandr Baranov,Pro Juniors 20-23,85.6,,,,,,130,140,-145,140,,,,,,,140,90,M,Александр Баранов,1991,No,Raw,B
1,Dmitriy Shumilov,Pro Open,89.5,,,,,,185,-192.5,-195,185,,,,,,,185,90,M,Дмитрий Шумилов,1981,No,Raw,B
2,Petr Dvurechenskiy,Pro Open,87.7,,,,,,165,-170,-175,165,,,,,,,165,90,M,Петр Двуреченский,1986,No,Raw,B
3,Oleg Savchenko,Pro Open,86.1,,,,,,140,150,155,155,,,,,,,155,90,M,Олег Савченко,1989,No,Raw,B
4,Kirill Tsaparov,Pro Open,86.3,,,,,,155,-165,-165,155,,,,,,,155,90,M,Кирилл Цапаров,1984,No,Raw,B
1,Vyacheslav Nechpal,Pro Masters 40-44,87.6,,,,,,-170,-180,180,180,,,,,,,180,90,M,Вячеслав Нечпал,1973,No,Raw,B
1,Igor Zakharov,Pro Masters 45-49,88.8,,,,,,140,150,155,155,,,,,,,155,90,M,Игорь Захаров,1969,No,Raw,B
2,Dmitriy Semenov,Pro Masters 45-49,89.3,,,,,,150,155,-157.5,155,,,,,,,155,90,M,Дмитрий Семенов,1965,No,Raw,B
1,Anton Chekulaev,Pro Teen 16-17,94.9,,,,,,120,137.5,-147.5,137.5,,,,,,,137.5,100,M,Антон Чекулаев,1997,No,Raw,B
2,Mikhail Anokhin,Pro Teen 16-17,91.3,,,,,,85,95,-100,95,,,,,,,95,100,M,Михаил Анохин,1997,No,Raw,B
1,Nikita Popov,Pro Teen 18-19,92.2,,,,,,110,117.5,122.5,122.5,,,,,,,122.5,100,M,Никита Попов,1996,No,Raw,B
1,Aleksandr Tyschenko,Pro Open,100,,,,,,190,200,202.5,202.5,,,,,,,202.5,100,M,Александр Тыщенко,1986,No,Raw,B
2,Roman Fedorenko,Pro Open,97,,,,,,180,190,192.5,192.5,,,,,,,192.5,100,M,Роман Федоренко,1988,No,Raw,B
3,Anton Doroshenkov,Pro Open,94.9,,,,,,190,-200,-200,190,,,,,,,190,100,M,Антон Дорошенков,1979,No,Raw,B
4,Sergey Sidorov,Pro Open,96.9,,,,,,160,170,-180,170,,,,,,,170,100,M,Сергей Сидоров,1982,No,Raw,B
5,Denis Litvinov,Pro Open,98.5,,,,,,-150,-150,150,150,,,,,,,150,100,M,Денис Литвинов,1986,No,Raw,B
DQ,Nikolay Polyakov,Pro Open,96,,,,,,-170,-170,-170,,,,,,,,,100,M,Николай Поляков,1984,No,Raw,B
1,Konstantin Pasechnik,Pro Masters 40-44,96.8,,,,,,190,195,-200,195,,,,,,,195,100,M,Константин Пасечник,1972,No,Raw,B
2,Vladislav Duminika,Pro Masters 40-44,94.4,,,,,,180,190,-192.5,190,,,,,,,190,100,M,Владислав Думиника,1972,No,Raw,B
3,Kirill Potekhin,Pro Masters 40-44,99.4,,,,,,175,185,-190,185,,,,,,,185,100,M,Кирилл Потехин,1971,No,Raw,B
1,Andrey Nikulin,Pro Masters 45-49,99.1,,,,,,-190,190,-197.5,190,,,,,,,190,100,M,Андрей Никулин,1967,No,Raw,B
1,Evgeniy Spirkin,Pro Open,108.6,,,,,,210,217.5,225,225,,,,,,,225,110,M,Евгений Спиркин,1987,No,Raw,B
2,Evgeniy Glazyev,Pro Open,108.5,,,,,,190,197.5,-200,197.5,,,,,,,197.5,110,M,Евгений Глазьев,1986,No,Raw,B
3,Dmitriy Skripnik,Pro Open,103.6,,,,,,160,-172.5,,160,,,,,,,160,110,M,Дмитрий Скрипник,1976,No,Raw,B
4,Aleksandr Savitskiy,Pro Open,108.6,,,,,,150,160,-162.5,160,,,,,,,160,110,M,Александр Савицкий,1986,No,Raw,B
DQ,Yuriy Molodtsov,Pro Open,102.6,,,,,,-197.5,-197.5,,,,,,,,,,110,M,Юрий Молодцов,1975,No,Raw,B
1,Eduard Dmitriev,Pro Masters 40-44,108.8,,,,,,200,205,210,210,,,,,,,210,110,M,Эдуард Дмитриев,1972,No,Raw,B
1,Igor Kurotchenko,Pro Masters 50-54,101.7,,,,,,140,145,-150,145,,,,,,,145,110,M,Игорь Куротченко,1962,No,Raw,B
1,Evgeniy Vasilyev,Pro Open,119,,,,,,220,225,230,230,,,,,,,230,125,M,Евгений Васильев,1982,No,Raw,B
2,Dmitriy Kostin,Pro Open,118.4,,,,,,215,220,-225,220,,,,,,,220,125,M,Дмитрий Костин,1985,No,Raw,B
3,Sergey Gerasimov,Pro Open,119.1,,,,,,-200,-200,200,200,,,,,,,200,125,M,Сергей Герасимов,1975,No,Raw,B
1,Dmitriy Belov,Pro Masters 40-44,121.4,,,,,,190,195,-197.5,195,,,,,,,195,125,M,Дмитрий Белов,1972,No,Raw,B
1,Sergey Mironov,Pro Masters 40-44,132.3,,,,,,190,200,205,205,,,,,,,205,140,M,Сергей Миронов,1973,No,Raw,B
1,Evgeniy Deryuzhenko,Pro Open,156.1,,,,,,210,220,225,225,,,,,,,225,140+,M,Евгений Дерюженко,1981,No,Raw,B
1,Nataliya Zagrebina,Amateur Open,62.5,,,,,,90,95,105,105,,,,,,,105,67.5,F,Наталия Загребина,1977,Yes,Multi-ply,B
1,Evgeniy Pivovarov,Amateur Open,90,,,,,,220,-225,-225,220,,,,,,,220,90,M,Евгений Пивоваров,1988,Yes,Multi-ply,B
1,Maksim Kirilin,Amateur Open,105.4,,,,,,140,150,155,155,,,,,,,155,110,M,Максим Кирилин,1983,Yes,Multi-ply,B
1,Andrey Dezhin,Amateur Juniors 20-23,67,,,,,,137.5,145,147.5,147.5,150,,,,,,147.5,67.5,M,Андрей Дежин,1992,Yes,Single-ply,B
1,Andrey Dezhin,Amateur Open,67,,,,,,137.5,145,147.5,147.5,150,,,,,,147.5,67.5,M,Андрей Дежин,1992,Yes,Single-ply,B
1,Anton Sosunov,Amateur Open,73.5,,,,,,150,157.5,165,165,,,,,,,165,75,M,Антон Сосунов,1980,Yes,Single-ply,B
2,Aleksandr Astakhov,Amateur Open,74.5,,,,,,147.5,-152.5,-152.5,147.5,,,,,,,147.5,75,M,Александр Астахов,1988,Yes,Single-ply,B
1,Dmirtriy Korneev,Amateur Open,81.9,,,,,,170,177.5,-180,177.5,,,,,,,177.5,82.5,M,Дмиртрий Корнеев,1987,Yes,Single-ply,B
1,Igor Sirotkin,Amateur Masters 40-44,90,,,,,,185,-195,-195,185,,,,,,,185,90,M,Игорь Сироткин,1970,Yes,Single-ply,B
1,Yuriy Golubkov,Amateur Open,96.1,,,,,,120,130,140,140,,,,,,,140,100,M,Юрий Голубков,1985,Yes,Single-ply,B
DQ,Aleksandr Dorofeev,Amateur Open,98.7,,,,,,-187.5,-187.5,-190,,,,,,,,,100,M,Александр Дорофеев,1981,Yes,Single-ply,B
DQ,Denis Karpov,Amateur Open,98.1,,,,,,-187.5,-187.5,-187.5,,,,,,,,,100,M,Денис Карпов,1981,Yes,Single-ply,B
1,Ivan Semenov,Amateur Open,101,,,,,,-165,175,-185,175,,,,,,,175,110,M,Иван Семенов,1978,Yes,Single-ply,B
1,Ivan Rak,Amateur Masters 40-44,104,,,,,,-175,-180,180,180,,,,,,,180,110,M,Иван Рак,1974,Yes,Single-ply,B
1,Konstantin Kryzhanovskiy,Amateur Open,111,,,,,,230,240,-247.5,240,,,,,,,240,125,M,Константин Крыжановский,1975,Yes,Single-ply,B
1,Ilya Filippov,Pro Juniors 20-23,98.7,,,,,,220,230,-240,230,,,,,,,230,100,M,Илья Филиппов,1993,No,Multi-ply,B
1,Maksim Stepanov #4,Pro Open,107.2,,,,,,-225,225,230,230,,,,,,,230,110,M,Максим Степанов,1988,No,Multi-ply,B
DQ,Mikhail Royanov,Pro Open,104,,,,,,-245,-245,,,,,,,,,,110,M,Михаил Роянов,1977,No,Multi-ply,B
1,Alla Pugovkina,Pro Open,82.5,,,,,,-127.5,127.5,-135,127.5,,,,,,,127.5,82.5,F,Алла Пуговкина,1975,No,Single-ply,B
1,Nikita Vasilyev,Pro Teen 16-17,81.7,,,,,,-75,-75,75,75,,,,,,,75,82.5,M,Никита Васильев,1998,No,Single-ply,B
1,Sergey Goncharov,Pro Masters 60-64,82.5,,,,,,130,140,-145,140,,,,,,,140,82.5,M,Сергей Гончаров,1952,No,Single-ply,B
1,Sergey Myachik,Pro Open,88.4,,,,,,-190,-190,190,190,,,,,,,190,90,M,Сергей Мячик,1979,No,Single-ply,B
1,Aleksey Yagunov,Pro Masters 45-49,88.9,,,,,,-180,180,-187.5,180,,,,,,,180,90,M,Алексей Ягунов,1968,No,Single-ply,B
1,Sergey Mokhov,Pro Open,100,,,,,,265,-280,,265,,,,,,,265,100,M,Сергей Мохов,1990,No,Single-ply,B
1,Oleg Mironov,Pro Masters 40-44,106.7,,,,,,150,170,180,180,,,,,,,180,110,M,Олег Миронов,1973,No,Single-ply,B
1,Andrey Zhukov,Pro Open,115.9,,,,,,260,270,280,280,,,,,,,280,125,M,Андрей Жуков,1976,No,Single-ply,B
1,Andrey Aksenov,Pro Juniors 20-23,137.4,,,,,,240,250,260,260,-270,,,,,,260,140,M,Андрей Аксенов,1992,No,Single-ply,B
1,Roman Zalutskiy,Pro Open,126.5,,,,,,305,310,320,320,,,,,,,320,140,M,Роман Залуцкий,1979,No,Single-ply,B
1,Aleksandra Kotova,Amateur Open,51.7,,,,,,,,,,,102.5,-110,115,115,,115,52,F,Александра Котова,1979,Yes,Raw,D
2,Natalya Girdish,Amateur Open,52,,,,,,,,,,,100,115,-117.5,115,,115,52,F,Наталья Гирдиш,1976,Yes,Raw,D
3,Darya Evdokimova,Amateur Open,52,,,,,,,,,,,110,115,-122.5,115,,115,52,F,Дарья Евдокимова,1988,Yes,Raw,D
1,Oksana Maksutova,Amateur Masters 40-44,50.5,,,,,,,,,,,-105,110,115,115,,115,52,F,Оксана Максутова,1973,Yes,Raw,D
1,Aleksandra Chizh,Amateur Juniors 20-23,53.8,,,,,,,,,,,115,-122.5,-122.5,115,,115,56,F,Александра Чиж,1992,Yes,Raw,D
1,Oksana Lapinskaya,Amateur Open,55.1,,,,,,,,,,,95,105,,105,,105,56,F,Оксана Лапинская,1989,Yes,Raw,D
2,Tatyana Sakhnova,Amateur Open,55.2,,,,,,,,,,,90,95,-97.5,95,,95,56,F,Татьяна Сахнова,1980,Yes,Raw,D
1,Natalya Mironova,Amateur Open,59,,,,,,,,,,,-110,117.5,127.5,127.5,,127.5,60,F,Наталья Миронова,1974,Yes,Raw,D
2,Anastasiya Tsatsulina,Amateur Open,57.8,,,,,,,,,,,100,110,-117.5,110,,110,60,F,Анастасия Цацулина,1989,Yes,Raw,D
1,Oksana Fomenko,Amateur Open,66.3,,,,,,,,,,,110,120,125,125,,125,67.5,F,Оксана Фоменко,1988,Yes,Raw,D
1,Irina Yaroshenko,Amateur Open,90,,,,,,,,,,,180,197.5,-222.5,197.5,,197.5,90,F,Ирина Ярошенко,1986,Yes,Raw,D
1,Oleg Vaschenko,Amateur Open,59.5,,,,,,,,,,,140,150,160,160,,160,60,M,Олег Ващенко,1980,Yes,Raw,D
1,Nikita Merinets,Amateur Teen 16-17,66.3,,,,,,,,,,,112.5,-125.5,,112.5,,112.5,67.5,M,Никита Меринец,1998,Yes,Raw,D
1,Pavel Zubkov,Amateur Open,73.5,,,,,,,,,,,220,235,245,245,,245,75,M,Павел Зубков,1985,Yes,Raw,D
2,Aleksandr Grechukhin,Amateur Open,73.2,,,,,,,,,,,200,215,225,225,,225,75,M,Александр Гречухин,1989,Yes,Raw,D
3,Pavel Kochnikov,Amateur Open,68.9,,,,,,,,,,,155,177.5,180,180,,180,75,M,Павел Кочников,1988,Yes,Raw,D
4,Maksim Kostyukov,Amateur Open,72.3,,,,,,,,,,,-177.5,177.5,180,180,,180,75,M,Максим Костюков,1985,Yes,Raw,D
5,Dmitriy Troshin,Amateur Open,71.8,,,,,,,,,,,142.5,155,165,165,,165,75,M,Дмитрий Трошин,1993,Yes,Raw,D
6,Vladislav Matyushin,Amateur Open,72.2,,,,,,,,,,,-130,130,142.5,142.5,,142.5,75,M,Владислав Матюшин,1995,Yes,Raw,D
1,Sergey Sidorovskiy,Amateur Masters 40-44,73.8,,,,,,,,,,,170,-180,180,180,,180,75,M,Сергей Сидоровский,1971,Yes,Raw,D
1,Ilya Katigaridi,Amateur Teen 16-17,80.4,,,,,,,,,,,185,195,-200,195,,195,82.5,M,Илья Катигариди,1997,Yes,Raw,D
1,Daniil Kryukov,Amateur Teen 18-19,78.9,,,,,,,,,,,190,200,-215,200,,200,82.5,M,Даниил Крюков,1995,Yes,Raw,D
1,Vasiliy Perov,Amateur Open,81.7,,,,,,,,,,,240,252.5,260,260,,260,82.5,M,Василий Перов,1979,Yes,Raw,D
2,Aleksey Ovchinnikov,Amateur Open,80.6,,,,,,,,,,,245,-252.5,-252.5,245,,245,82.5,M,Алексей Овчинников,1986,Yes,Raw,D
3,Egor Opichenok,Amateur Open,80,,,,,,,,,,,200,215,220,220,,220,82.5,M,Егор Опиченок,1981,Yes,Raw,D
4,Aleksey Aleksandrov,Amateur Open,80.2,,,,,,,,,,,200,215,-222.5,215,,215,82.5,M,Алексей Александров,1985,Yes,Raw,D
5,Alexey Romanov,Amateur Open,82.5,,,,,,,,,,,195,-205,215,215,,215,82.5,M,Алексей Романов,1986,Yes,Raw,D
6,Sergey Sivak,Amateur Open,80.1,,,,,,,,,,,190,200,-215,200,,200,82.5,M,Сергей Сивак,1979,Yes,Raw,D
7,Ilya Starostin,Amateur Open,80.7,,,,,,,,,,,185,-195,200,200,,200,82.5,M,Илья Старостин,1990,Yes,Raw,D
8,Ilya Kuznetsov,Amateur Open,80.2,,,,,,,,,,,185,195,-200,195,,195,82.5,M,Илья Кузнецов,1975,Yes,Raw,D
9,Sergey Tereschenko,Amateur Open,79,,,,,,,,,,,185,192.5,-200,192.5,,192.5,82.5,M,Сергей Терещенко,1988,Yes,Raw,D
10,Aleksandr Matskevich,Amateur Open,80.1,,,,,,,,,,,190,-205,-205,190,,190,82.5,M,Александр Мацкевич,1988,Yes,Raw,D
1,Mikhail Butorin,Amateur Masters 40-44,79.6,,,,,,,,,,,185,195,200,200,,200,82.5,M,Михаил Буторин,1971,Yes,Raw,D
2,Evgeniy Zhidkov,Amateur Masters 40-44,80.3,,,,,,,,,,,165,-185,185,185,,185,82.5,M,Евгений Жидков,1974,Yes,Raw,D
1,Vladimir Kulakov,Amateur Masters 55-59,78.6,,,,,,,,,,,115,125,,125,,125,82.5,M,Владимир Кулаков,1955,Yes,Raw,D
1,Vitaliy Ignatov,Amateur Teen 18-19,88.7,,,,,,,,,,,170,180,-195,180,,180,90,M,Виталий Игнатов,1995,Yes,Raw,D
2,Ilya Chernavin,Amateur Teen 18-19,89.7,,,,,,,,,,,-150,160,-170,160,,160,90,M,Илья Чернавин,1995,Yes,Raw,D
1,Oleg Lepakhin,Amateur Juniors 20-23,84,,,,,,,,,,,205,215,-222.5,215,,215,90,M,Олег Лепахин,1990,Yes,Raw,D
2,Yaroslav Khvatov,Amateur Juniors 20-23,87.7,,,,,,,,,,,200,210,-222.5,210,,210,90,M,Ярослав Хватов,1994,Yes,Raw,D
3,Danila Krapivenko,Amateur Juniors 20-23,88.4,,,,,,,,,,,177.5,-195,195,195,,195,90,M,Данила Крапивенко,1993,Yes,Raw,D
4,Kirill Matveev,Amateur Juniors 20-23,88.9,,,,,,,,,,,-175,-185,185,185,,185,90,M,Кирилл Матвеев,1991,Yes,Raw,D
5,Sergey Gavrish,Amateur Juniors 20-23,87.8,,,,,,,,,,,170,-182.5,-182.5,170,,170,90,M,Сергей Гавриш,1993,Yes,Raw,D
1,Andrey Bulgar,Amateur Open,88.8,,,,,,,,,,,230,240,255,255,,255,90,M,Андрей Булгарь,1988,Yes,Raw,D
2,Vitaliy Zheludev,Amateur Open,87.7,,,,,,,,,,,240,-250,-252.5,240,,240,90,M,Виталий Желудев,1986,Yes,Raw,D
3,Pavel Kretts,Amateur Open,86.9,,,,,,,,,,,207.5,215,220,220,,220,90,M,Павел Кретц,1986,Yes,Raw,D
4,Kirill Orlov,Amateur Open,87,,,,,,,,,,,180,195,205,205,,205,90,M,Кирилл Орлов,1990,Yes,Raw,D
5,Yuriy Bubentsov,Amateur Open,87.9,,,,,,,,,,,185,195,-200,195,,195,90,M,Юрий Бубенцов,1988,Yes,Raw,D
1,Nikolay Novikov,Amateur Masters 75-79,89.9,,,,,,,,,,,160,170,,170,,170,90,M,Николай Новиков,1938,Yes,Raw,D
1,Mikhail Zhukov,Amateur Open,95.9,,,,,,,,,,,210,232.5,-240,232.5,,232.5,100,M,Михаил Жуков,1987,Yes,Raw,D
2,Andrey Dyachev,Amateur Open,98.9,,,,,,,,,,,210,232.5,-237.5,232.5,,232.5,100,M,Андрей Дьячев,1984,Yes,Raw,D
3,Sergey Mishenin,Amateur Open,93.8,,,,,,,,,,,180,202.5,215,215,,215,100,M,Сергей Мишенин,1978,Yes,Raw,D
4,Andrey Naumov,Amateur Open,97.3,,,,,,,,,,,177.5,-202.5,-202.5,177.5,,177.5,100,M,Андрей Наумов,1981,Yes,Raw,D
1,Dmitriy Postnov,Amateur Masters 40-44,92.9,,,,,,,,,,,207.5,222.5,227.5,227.5,,227.5,100,M,Дмитрий Постнов,1971,Yes,Raw,D
2,Andrey Gridnev,Amateur Masters 40-44,95.2,,,,,,,,,,,205,220,225,225,,225,100,M,Андрей Гриднев,1970,Yes,Raw,D
1,Aleksey Popov #12,Amateur Masters 45-49,97.8,,,,,,,,,,,220,245,-250,245,,245,100,M,,1968,Yes,Raw,D
1,Aleksandr Pervachuk,Amateur Open,108.2,,,,,,,,,,,145,155,-167.5,155,,155,110,M,Александр Первачук,1983,Yes,Raw,D
1,Sergey Evdokushin,Amateur Masters 40-44,102.9,,,,,,,,,,,210,222.5,230,230,,230,110,M,Сергей Евдокушин,1974,Yes,Raw,D
1,Ivan Rak,Amateur Masters 40-44,104,,,,,,,,,,,200,210,220,220,,220,110,M,Иван Рак,1974,Yes,Raw,D
1,Andrey Burakov,Amateur Masters 55-59,101.6,,,,,,,,,,,180,200,210,210,,210,110,M,Андрей Бураков,1958,Yes,Raw,D
1,Aleksandr Gusinskiy,Amateur Open,121.9,,,,,,,,,,,210,225,237.5,237.5,,237.5,125,M,Александр Гусинский,1984,Yes,Raw,D
2,Aleksandr Yanichev,Amateur Open,120.9,,,,,,,,,,,215,225,-235,225,,225,125,M,Александр Яничев,1977,Yes,Raw,D
1,Galina Bocharova,Pro Juniors 20-23,59.2,,,,,,,,,,,-80,80,90,90,,90,60,F,Галина Бочарова,1992,No,Raw,D
1,Lyubov Terekhova,Pro Open,59.3,,,,,,,,,,,110,120,130,130,,130,60,F,Любовь Терехова,1980,No,Raw,D
1,Mariya Donskova,Pro Teen 16-17,62.7,,,,,,,,,,,92.5,102.5,105,105,107.5,105,67.5,F,Мария Донскова,1998,No,Raw,D
1,Oksana Maksimova,Pro Open,68.1,,,,,,,,,,,95,105,-110,105,,105,75,F,Оксана Максимова,1987,No,Raw,D
1,Alla Pugovkina,Pro Open,82.5,,,,,,,,,,,165,175,,175,,175,82.5,F,Алла Пуговкина,1975,No,Raw,D
1,Rinat Fayzullin,Pro Open,63.3,,,,,,,,,,,160,170,-175,170,,170,67.5,M,Ринат Файзуллин,1990,No,Raw,D
1,Kirill Kotov,Pro Juniors 20-23,80.6,,,,,,,,,,,240,255,-265,255,,255,82.5,M,Кирилл Котов,1994,No,Raw,D
1,Maksim Luzin,Pro Open,80,,,,,,,,,,,-222.5,232.5,-240,232.5,,232.5,82.5,M,Максим Лузин,1987,No,Raw,D
1,Andrey Bykonya,Pro Juniors 20-23,88.5,,,,,,,,,,,-230,230,240,240,,240,90,M,Андрей Быконя,1991,No,Raw,D
1,Radiy Spitsin,Pro Open,89.8,,,,,,,,,,,-270,275,285,285,,285,90,M,Радій Спицин,1981,No,Raw,D
2,Kirill Tsaparov,Pro Open,86.3,,,,,,,,,,,270,280,-290,280,,280,90,M,Кирилл Цапаров,1984,No,Raw,D
1,Bogdan Matiko,Pro Juniors 20-23,95.1,,,,,,,,,,,200,240,250,250,,250,100,M,Богдан Матико,1992,No,Raw,D
1,Pavel Papenkov,Pro Open,100,,,,,,,,,,,265,277.5,282.5,282.5,,282.5,100,M,Павел Папенков,1980,No,Raw,D
2,Ivan Slavinskiy,Pro Open,100,,,,,,,,,,,257.5,267.5,-277.5,267.5,,267.5,100,M,Иван Славинский,1983,No,Raw,D
3,Dmitriy Alekseevskiy,Pro Open,96.7,,,,,,,,,,,260,-280,-280,260,,260,100,M,Дмитрий Алексеевский,1990,No,Raw,D
1,Dmitriy Basetskiy,Pro Masters 45-49,95,,,,,,,,,,,180,200,220,220,,220,100,M,Дмитрий Басецкий,1964,No,Raw,D
1,Aleksey Baryshev,Pro Open,109.5,,,,,,,,,,,350,355,-360,355,,355,110,M,Алексей Барышев,1989,No,Raw,D
2,Roman Zverev,Pro Open,104.55,,,,,,,,,,,290,310,322.5,322.5,,322.5,110,M,Роман Зверев,1988,No,Raw,D
3,Aleksandr Tarakin,Pro Open,104.6,,,,,,,,,,,-255,255,270,270,,270,110,M,Александр Таракин,1986,No,Raw,D
1,Ivan Arsentyev,Pro Open,113.6,,,,,,,,,,,-240,240,250,250,,250,125,M,Иван Арсентьев,1976,No,Raw,D
1,Maksim Kuchin,Pro Teen 18-19,130.1,,,,,,,,,,,280,290,302.5,302.5,,302.5,140,M,Максим Кучин,1995,No,Raw,D
1,Konstantin Sapunkov,Amateur Open,80.6,,,,,,,,,,,240,-262.5,265,265,270,265,82.5,M,Константин Сапунков,1981,Yes,Single-ply,D
2,Vladimir Kulakov,Amateur Open,78.6,,,,,,,,,,,115,,,115,,115,82.5,M,Владимир Кулаков,1955,Yes,Single-ply,D
1,Vladimir Kulakov,Amateur Masters 55-59,78.6,,,,,,,,,,,115,,,115,,115,82.5,M,Владимир Кулаков,1955,Yes,Single-ply,D
1,Aleksey Selischev,Amateur Open,88.2,,,,,,,,,,,200,220,-230,220,,220,90,M,Алексей Селищев,1978,Yes,Single-ply,D
1,Mikhail Kozachuk,Amateur Masters 50-54,87.9,,,,,,,,,,,-155,155,,155,,155,90,M,Михаил Козачук,1963,Yes,Single-ply,D
1,Petr Samko,Amateur Open,92.2,,,,,,,,,,,200,-220,-220,200,,200,100,M,Петр Самко,1987,Yes,Single-ply,D
1,Denis Demkin,Amateur Open,108,,,,,,,,,,,200,220,232.5,232.5,,232.5,110,M,Денис Демкин,1979,Yes,Single-ply,D
2,Maksim Kirilin,Amateur Open,105.4,,,,,,,,,,,-100,100,120,120,,120,110,M,Максим Кирилин,1983,Yes,Single-ply,D
1,Roman Korshunov,Pro Open,72,,,,,,,,,,,200,-210,210,210,,210,75,M,Роман Коршунов,1980,No,Single-ply,D
1,Nikita Vasilyev,Pro Teen 16-17,81.7,,,,,,,,,,,150,160,-170,160,,160,82.5,M,Никита Васильев,1998,No,Single-ply,D
1,Anton Arzhanov,Pro Juniors 20-23,81.2,,,,,,,,,,,170,185,205,205,,205,82.5,M,Антон Аржанов,1994,No,Single-ply,D
1,Dmitry Gorelikov,Pro Open,86.9,,,,,,,,,,,260,272.5,280,280,,280,90,M,Дмитрий Гореликов,1968,No,Single-ply,D
1,Dmitry Gorelikov,Pro Masters 45-49,86.9,,,,,,,,,,,260,272.5,280,280,,280,90,M,Дмитрий Гореликов,1968,No,Single-ply,D
1,Viktor Polosukhin,Pro Open,102.35,,,,,,,,,,,-275,275,-295,275,,275,110,M,Виктор Полосухин,1988,No,Single-ply,D
2,Artem Artyukhov,Pro Open,109.6,,,,,,,,,,,245,257.5,-262.5,257.5,,257.5,110,M,Артем Артюхов,1987,No,Single-ply,D
3,Dmitriy Yakovlev,Pro Open,103.9,,,,,,,,,,,250,255,-260,255,,255,110,M,Дмитрий Яковлев,1984,No,Single-ply,D
