Division,WeightClassKg,Place,Name,Team,BodyweightKg,Best3SquatKg,Best3BenchKg,Best3DeadliftKg,TotalKg,Equipment,Event,Sex,BirthDate
Girls,44.23,1,Alyssa Martinez,Kyle Lehman,43.45,127.01,54.43,131.54,312.98,Single-ply,SBD,F,
Girls,44.23,2,Brianna Caballero,San Marcos,44.23,111.13,47.63,99.79,258.55,Single-ply,SBD,F,
Girls,44.23,3,Mariah Watts,Georgetown East View,42,97.52,49.9,104.33,251.74,Single-ply,SBD,F,
Girls,44.23,4,Alyssa Marmolejo,Copperas Cove,43.64,88.45,47.63,104.33,240.4,Single-ply,SBD,F,
Girls,44.23,5,Jolie Sanchez,College Station A&M Cons,41.19,97.52,31.75,68.04,197.31,Single-ply,SBD,F,
Girls,44.23,6,May London,Granbury,38.56,56.7,40.82,79.38,176.9,Single-ply,SBD,F,
Girls,44.23,7,Michaela Grimm,Copperas Cove,35.65,52.16,27.22,61.23,140.61,Single-ply,SBD,F,
Girls,44.23,DQ,Mercedes Reyes,Del Valle,41.91,52.16,27.22,,,Single-ply,SBD,F,
Girls,47.85,1,Ashley Villanueva,Kyle Lehman,47.26,158.76,86.18,151.95,396.89,Single-ply,SBD,F,
Girls,47.85,2,Gaby Niswanger,College Station,47.45,124.74,63.5,113.4,301.64,Single-ply,SBD,F,
Girls,47.85,3,Geneva Reyes,Kyle Lehman,46.9,111.13,52.16,113.4,276.69,Single-ply,SBD,F,
Girls,47.85,4,Charlie Harris #2,Liberty Hill,47.72,97.52,61.23,106.59,265.35,Single-ply,SBD,F,
Girls,47.85,5,Nexi Gutierrez,Kyle Lehman,47.08,106.59,49.9,106.59,263.08,Single-ply,SBD,F,
Girls,47.85,6,Maddie Brown,Burleson,47.54,111.13,43.09,95.25,249.48,Single-ply,SBD,F,
Girls,47.85,7,Lexsie Thomas,Burleson,47.17,102.06,40.82,102.06,244.94,Single-ply,SBD,F,
Girls,47.85,8,Kara Swinford,Burleson Centennial,47.04,81.65,31.75,104.33,217.72,Single-ply,SBD,F,
Girls,47.85,9,Athena Aviles,Copperas Cove,44.81,81.65,36.29,92.99,210.92,Single-ply,SBD,F,
Girls,47.85,10,Valerie Garza,Kyle Lehman,47.26,77.11,40.82,86.18,204.12,Single-ply,SBD,F,
Girls,47.85,11,Bella Montemayor,Elgin,47.4,88.45,38.56,72.57,199.58,Single-ply,SBD,F,
Girls,47.85,12,Jada Lopez,Del Valle,47.17,68.04,43.09,83.91,195.04,Single-ply,SBD,F,
Girls,47.85,13,Stormi Guinaldo,Temple,47.72,74.84,31.75,74.84,181.44,Single-ply,SBD,F,
Girls,47.85,14,Madison Purvis,Granbury,47.81,58.97,36.29,81.65,176.9,Single-ply,SBD,F,
Girls,47.85,DQ,Jetta Roye,Cleburne,46.63,,,,,Single-ply,SBD,F,
Girls,51.94,1,Paige Bridenstine,Killeen Harker Heights,50.35,145.15,77.11,140.61,362.87,Single-ply,SBD,F,
Girls,51.94,2,Jasmine Jaimes,Kyle Lehman,51.44,140.61,56.7,129.27,326.59,Single-ply,SBD,F,
Girls,51.94,3,Anna Scarborough,College Station,49.12,136.08,72.57,115.67,324.32,Single-ply,SBD,F,
Girls,51.94,4,Jasmine Rodriguez,Kyle Lehman,49.35,138.35,56.7,127.01,322.05,Single-ply,SBD,F,
Girls,51.94,5,Hailey Sanchez,Burleson,50.71,117.93,45.36,127.01,290.3,Single-ply,SBD,F,
Girls,51.94,6,Kiara Rivera,Bastrop Cedar Creek,51.35,115.67,40.82,113.4,269.89,Single-ply,SBD,F,
Girls,51.94,7,Eviana Castillo,Kyle Lehman,51.17,102.06,56.7,108.86,267.62,Single-ply,SBD,F,
Girls,51.94,8,Maria Rivera-Roman,Killeen Ellison,49.99,102.06,52.16,111.13,265.35,Single-ply,SBD,F,
Girls,51.94,9,Bianca Arciniega,Burleson Centennial,50.08,95.25,45.36,111.13,251.74,Single-ply,SBD,F,
Girls,51.94,10,LeeAnn Edmond,Copperas Cove,49.71,92.99,56.7,99.79,249.48,Single-ply,SBD,F,
Girls,51.94,11,Alyssa Mendez,Kyle Lehman,51.53,102.06,43.09,97.52,242.67,Single-ply,SBD,F,
Girls,51.94,12,McKeanne Saenz,San Marcos,51.17,90.72,43.09,97.52,231.33,Single-ply,SBD,F,
Girls,56.02,1,Kaitlin Diers,Kyle Lehman,54.88,158.76,79.38,151.95,390.09,Single-ply,SBD,F,
Girls,56.02,2,Gabriella Medellin,San Marcos,54.7,142.88,61.23,122.47,326.59,Single-ply,SBD,F,
Girls,56.02,3,Lisette Sabillon,San Marcos,54.52,117.93,63.5,136.08,317.51,Single-ply,SBD,F,
Girls,56.02,4,Ximena Castillo,Kyle Lehman,54.7,133.81,56.7,117.93,308.44,Single-ply,SBD,F,
Girls,56.02,5,Reese Sigler,College Station,55.07,127.01,65.77,115.67,308.44,Single-ply,SBD,F,
Girls,56.02,6,Jentri Wallace,Burleson,55.79,120.2,63.5,124.74,308.44,Single-ply,SBD,F,
Girls,56.02,7,Emma Hagerman,College Station,54.25,117.93,47.63,108.86,274.42,Single-ply,SBD,F,
Girls,56.02,8,Ashlyn Hall,Bastrop Cedar Creek,54.07,90.72,49.9,120.2,260.82,Single-ply,SBD,F,
Girls,56.02,9,Rosita Driscoll,Del Valle,54.61,92.99,65.77,99.79,258.55,Single-ply,SBD,F,
Girls,56.02,DQ,Keileigh Bowie,College Station,54.88,113.4,65.77,,,Single-ply,SBD,F,
Girls,56.02,DQ,Brooke Dillon,Killeen Ellison,53.8,102.06,,,,Single-ply,SBD,F,
Girls,56.02,DQ,Hazel Jackson,Joshua,53.16,,,,,Single-ply,SBD,F,
Girls,56.02,DQ,Elise Eckford,Liberty Hill,54.52,,,,,Single-ply,SBD,F,
Girls,60.1,1,Brooke Davenport,Kyle Lehman,59.06,163.29,86.18,136.08,385.55,Single-ply,SBD,F,
Girls,60.1,2,Madi Kimes,College Station,59.78,154.22,72.57,145.15,371.95,Single-ply,SBD,F,
Girls,60.1,3,Eden Buchanan,Burleson Centennial,59.33,158.76,74.84,117.93,351.53,Single-ply,SBD,F,
Girls,60.1,4,Jacci Myers,Belton,60.1,124.74,63.5,156.49,344.73,Single-ply,SBD,F,
Girls,60.1,5,Jayden Jennings,Burleson Centennial,58.6,136.08,68.04,124.74,328.85,Single-ply,SBD,F,
Girls,60.1,6,Megan Kelnar,Buda Hays,59.42,127.01,79.38,122.47,328.85,Single-ply,SBD,F,
Girls,60.1,7,Ahlyss McDaniel,Burleson,57.24,138.35,49.9,136.08,324.32,Single-ply,SBD,F,
Girls,60.1,8,Leilani Dudley,Killeen Ellison,59.87,122.47,65.77,120.2,308.44,Single-ply,SBD,F,
Girls,60.1,9,Hayoung Lee,College Station A&M Cons,59.15,117.93,45.36,115.67,278.96,Single-ply,SBD,F,
Girls,60.1,10,Valeria Barrera,Kyle Lehman,59.15,111.13,52.16,113.4,276.69,Single-ply,SBD,F,
Girls,60.1,DQ,Gabby Parra,Lockhart,57.61,117.93,,,,Single-ply,SBD,F,
Girls,60.1,DQ,Taylor Moore #1,Burleson,59.24,,,,,Single-ply,SBD,F,
Girls,67.36,1,Sidney Shipley,College Station,65.23,170.1,72.57,145.15,387.82,Single-ply,SBD,F,
Girls,67.36,2,Arianna Eseroma,Copperas Cove,64.77,142.88,83.91,149.69,376.48,Single-ply,SBD,F,
Girls,67.36,3,Morgan Marvell,Cleburne,64.05,136.08,79.38,122.47,337.93,Single-ply,SBD,F,
Girls,67.36,4,Madison Barber,College Station,63.59,120.2,58.97,145.15,324.32,Single-ply,SBD,F,
Girls,67.36,5,Ana Jakubauskas,Buda Johnson,64.59,115.67,65.77,138.35,319.78,Single-ply,SBD,F,
Girls,67.36,6,Alexis Torres,Del Valle,66.68,115.67,70.31,124.74,310.71,Single-ply,SBD,F,
Girls,67.36,7,Ava Herrera,Lockhart,65.32,111.13,52.16,122.47,285.76,Single-ply,SBD,F,
Girls,67.36,8,Erika Neal,Waco Midway,67.36,90.72,77.11,117.93,285.76,Single-ply,SBD,F,
Girls,67.36,DQ,Cryslynn Duron,Waco Midway,66.5,,,,,Single-ply,SBD,F,
Girls,67.36,DQ,Carmara McElrath,Killeen Ellison,66.5,,,,,Single-ply,SBD,F,
Girls,67.36,DQ,Stephanny Ruiz,Belton,65.68,120.2,,,,Single-ply,SBD,F,
Girls,67.36,DQ,Gabrielle Edouard,Copperas Cove,65.5,,,,,Single-ply,SBD,F,
Girls,67.36,DQ,Taseia Rashid,College Station A&M Cons,62.96,,,,,Single-ply,SBD,F,
Girls,75.07,1,Fayth Ham,College Station,69.76,199.58,97.52,161.03,458.13,Single-ply,SBD,F,
Girls,75.07,2,Leah Lara,Kyle Lehman,70.13,188.24,88.45,163.29,439.98,Single-ply,SBD,F,
Girls,75.07,3,Reagan Gault,Burleson,72.57,147.42,99.79,145.15,392.36,Single-ply,SBD,F,
Girls,75.07,4,Jiya Edwards,Copperas Cove,68.76,145.15,86.18,156.49,387.82,Single-ply,SBD,F,
Girls,75.07,5,Allison Perez,Cleburne,68.58,149.69,83.91,140.61,374.21,Single-ply,SBD,F,
Girls,75.07,6,Maya Jones,Belton,72.39,163.29,79.38,131.54,374.21,Single-ply,SBD,F,
Girls,75.07,7,Cesia Rivera,Temple,73.21,154.22,77.11,140.61,371.95,Single-ply,SBD,F,
Girls,75.07,8,Aniya Gutierrez,Kyle Lehman,74.03,142.88,81.65,120.2,344.73,Single-ply,SBD,F,
Girls,75.07,9,Laisha Perez,Kyle Lehman,69.67,133.81,70.31,136.08,340.19,Single-ply,SBD,F,
Girls,75.07,10,Shalese Rhoder,Belton,71.67,120.2,68.04,145.15,333.39,Single-ply,SBD,F,
Girls,75.07,11,Lydia Guereca,Cleburne,73.39,117.93,68.04,140.61,326.59,Single-ply,SBD,F,
Girls,75.07,12,Dayla Palacios,Elgin,71.85,136.08,68.04,117.93,322.05,Single-ply,SBD,F,
Girls,75.07,13,Jaslyne Santos,Cleburne,72.76,122.47,68.04,113.4,303.91,Single-ply,SBD,F,
Girls,75.07,14,Madi Dodd,Burleson,69.85,124.74,52.16,120.2,297.1,Single-ply,SBD,F,
Girls,82.33,1,Karla Olmedo,Kyle Lehman,80.56,192.78,97.52,158.76,449.06,Single-ply,SBD,F,
Girls,82.33,2,Arianna Prill,Kyle Lehman,79.65,183.7,92.99,149.69,426.38,Single-ply,SBD,F,
Girls,82.33,3,Hanah Scott,College Station,78.11,167.83,65.77,151.95,385.55,Single-ply,SBD,F,
Girls,82.33,4,Tiana Stevenson,Burleson Centennial,80.92,149.69,81.65,154.22,385.55,Single-ply,SBD,F,
Girls,82.33,5,Taylor Sims,Liberty Hill,79.29,136.08,83.91,145.15,365.14,Single-ply,SBD,F,
Girls,82.33,6,Viviana Sandoval,Granbury,80.65,154.22,70.31,136.08,360.61,Single-ply,SBD,F,
Girls,82.33,7,Bryce Allen Bourland,Belton,80.29,124.74,88.45,138.35,351.53,Single-ply,SBD,F,
Girls,82.33,8,Maddie Hargrove,Cleburne,79.11,131.54,79.38,133.81,344.73,Single-ply,SBD,F,
Girls,82.33,9,Isabelle Vasquez-Villarreal,Buda Hays,79.11,133.81,72.57,136.08,342.46,Single-ply,SBD,F,
Girls,82.33,10,Brittany Proctor,Granbury,80.65,142.88,74.84,124.74,342.46,Single-ply,SBD,F,
Girls,82.33,11,Azlyn Schwarzer,Burleson,80.83,129.27,74.84,129.27,333.39,Single-ply,SBD,F,
Girls,82.33,12,Sadie Rhoder,Belton,75.3,138.35,63.5,120.2,322.05,Single-ply,SBD,F,
Girls,82.33,13,Joy Jones,College Station A&M Cons,80.83,138.35,63.5,120.2,322.05,Single-ply,SBD,F,
Girls,82.33,14,Rozalyn Simmons,Killeen Harker Heights,81.19,136.08,63.5,120.2,319.78,Single-ply,SBD,F,
Girls,90.04,1,Mayte Martinez,Cleburne,88,204.12,90.72,170.1,464.93,Single-ply,SBD,F,
Girls,90.04,2,Abigail Mitchell,Joshua,87.63,192.78,115.67,149.69,458.13,Single-ply,SBD,F,
Girls,90.04,3,Crystal Martinez,Kyle Lehman,89.45,197.31,99.79,154.22,451.32,Single-ply,SBD,F,
Girls,90.04,4,Avery Tapia,Cleburne,87.54,190.51,102.06,133.81,426.38,Single-ply,SBD,F,
Girls,90.04,5,Abby Adame,Kyle Lehman,87.72,174.63,83.91,165.56,424.11,Single-ply,SBD,F,
Girls,90.04,6,Jenna Champlin,College Station,88,190.51,77.11,154.22,421.84,Single-ply,SBD,F,
Girls,90.04,7,Bethany Sherwood,Belton,87.54,151.95,106.59,133.81,392.36,Single-ply,SBD,F,
Girls,90.04,8,Alivia Saenz,Buda Johnson,87.27,149.69,79.38,138.35,367.41,Single-ply,SBD,F,
Girls,90.04,9,Ainsley Orme,Elgin,83.82,142.88,70.31,115.67,328.85,Single-ply,SBD,F,
Girls,90.04,10,Abagail Ybarra,Marble Falls,82.92,136.08,56.7,133.81,326.59,Single-ply,SBD,F,
Girls,90.04,11,Isabella Maldonado,Georgetown East View,84.1,108.86,58.97,138.35,306.17,Single-ply,SBD,F,
Girls,90.04,DQ,Faith Gilstrap,Burleson,86,151.95,81.65,,,Single-ply,SBD,F,
Girls,90.04,DQ,Aracella Quinonez-Rivera,Temple,86.73,120.2,,,,Single-ply,SBD,F,
Girls,100.02,1,Malia Gonzales,Kyle Lehman,98.97,231.33,131.54,195.04,557.92,Single-ply,SBD,F,
Girls,100.02,2,J'Lyssa Gonzales,San Marcos,92.9,199.58,86.18,163.29,449.06,Single-ply,SBD,F,
Girls,100.02,3,Brook Ragan,College Station,98.88,190.51,102.06,147.42,439.98,Single-ply,SBD,F,
Girls,100.02,4,Ezra Mendez,San Marcos,93.62,174.63,77.11,176.9,428.64,Single-ply,SBD,F,
Girls,100.02,5,Abby Hodgson,Georgetown,98.61,163.29,95.25,140.61,399.16,Single-ply,SBD,F,
Girls,100.02,6,Audra Parsons,Cleburne,92.35,145.15,79.38,149.69,374.21,Single-ply,SBD,F,
Girls,100.02,7,Emily Thompson #3,College Station,91.35,142.88,83.91,145.15,371.95,Single-ply,SBD,F,
Girls,100.02,8,Makayla Wesley,Georgetown East View,91.72,147.42,68.04,147.42,362.87,Single-ply,SBD,F,
Girls,100.02,9,Mikylie Geiger,Georgetown,91.26,142.88,63.5,140.61,347,Single-ply,SBD,F,
Girls,100.02,10,Isabel Micus,Waco Midway,95.71,124.74,77.11,133.81,335.66,Single-ply,SBD,F,
Girls,100.02,11,Riana Reyes,Lockhart,96.89,124.74,61.23,106.59,292.57,Single-ply,SBD,F,
Girls,100.02,12,Anne Barnes,Granbury,96.43,102.06,65.77,115.67,283.5,Single-ply,SBD,F,
Girls,100.02,DQ,Breanna Salgado,Buda Johnson,93.44,,,,,Single-ply,SBD,F,
Girls,117.71,1,Cate Julius,Kyle Lehman,105.23,197.31,79.38,165.56,442.25,Single-ply,SBD,F,
Girls,117.71,2,Abbie Thumudo,Burleson Centennial,116.03,149.69,90.72,138.35,378.75,Single-ply,SBD,F,
Girls,117.71,3,Angelica Portillo,Manor,103.69,131.54,83.91,154.22,369.68,Single-ply,SBD,F,
Girls,117.71,4,Kylee Grigsby,Cleburne,110.68,149.69,70.31,127.01,347,Single-ply,SBD,F,
Girls,117.71,5,Kinlee Russell,Waco Midway,106.05,127.01,90.72,124.74,342.46,Single-ply,SBD,F,
Girls,117.71,6,Ashley Grande,Buda Johnson,109.04,129.27,70.31,140.61,340.19,Single-ply,SBD,F,
Girls,117.71,7,Aranza Zuniga-Hernandez,Elgin,101.29,129.27,74.84,115.67,319.78,Single-ply,SBD,F,
Girls,117.71,8,Josephine Mitchell,Joshua,111.9,133.81,83.91,102.06,319.78,Single-ply,SBD,F,
Girls,117.71,9,Kynadi Blackmore,Elgin,112.85,129.27,54.43,117.93,301.64,Single-ply,SBD,F,
Girls,117.71,10,Kallista Smith,Georgetown,104.96,117.93,72.57,97.52,288.03,Single-ply,SBD,F,
Girls,117.71,11,Nicole Parisi,Burleson,112.22,95.25,61.23,117.93,274.42,Single-ply,SBD,F,
Girls,117.71,12,Emily Sullivan,Georgetown,108.14,102.06,63.5,102.06,267.62,Single-ply,SBD,F,
Girls,117.71,13,Kyleigh Wheetley,Copperas Cove,108.41,90.72,36.29,90.72,217.72,Single-ply,SBD,F,
Girls,117.71,DQ,Grace Sagebiel,Bastrop,104.78,131.54,70.31,,,Single-ply,SBD,F,
Girls,117.71+,1,Lagi Ahsang,Killeen Ellison,131.54,219.99,113.4,210.92,544.31,Single-ply,SBD,F,
Girls,117.71+,2,Courtney Nichols,Burleson,124.47,260.82,90.72,158.76,510.29,Single-ply,SBD,F,
Girls,117.71+,3,Adecela Martinez,Lockhart,123.38,201.85,81.65,142.88,426.38,Single-ply,SBD,F,
Girls,117.71+,4,Olivia Valdez,Kyle Lehman,148.32,183.7,92.99,149.69,426.38,Single-ply,SBD,F,
Girls,117.71+,5,Kayla Suaste,Del Valle,129.73,161.03,95.25,140.61,396.89,Single-ply,SBD,F,
Girls,117.71+,6,Zenaida Tucker,Lockhart,127.28,151.95,86.18,149.69,387.82,Single-ply,SBD,F,
Girls,117.71+,7,Kayla Garmon,Killeen Shoemaker,117.84,154.22,79.38,142.88,376.48,Single-ply,SBD,F,
Girls,117.71+,8,Kyra Baker,Cleburne,163.75,136.08,74.84,124.74,335.66,Single-ply,SBD,F,
Girls,117.71+,9,Cheyenne Stratton,Elgin,133.54,124.74,74.84,124.74,324.32,Single-ply,SBD,F,
Girls,,NS,Keri Sanford,Georgetown East View,,,,,,Single-ply,SBD,F,
Girls,,NS,Samantha Swan,Georgetown,,,,,,Single-ply,SBD,F,
Girls,,NS,Ashtyn Cole,Joshua,,,,,,Single-ply,SBD,F,
Girls,,NS,Alizah Fields,Hutto,,,,,,Single-ply,SBD,F,
Girls,,NS,Ashley Moreno,Kyle Lehman,,,,,,Single-ply,SBD,F,
Girls,,NS,Paola Losoya,Del Valle,,,,,,Single-ply,SBD,F,
Girls,,NS,Tianna Stevens,Burleson Centennial,,,,,,Single-ply,SBD,F,
Girls,,NS,Isabel Martinez,Bastrop Cedar Creek,,,,,,Single-ply,SBD,F,
Girls,,NS,Amber Sahley,Buda Johnson,,,,,,Single-ply,SBD,F,
Girls,,NS,Alexandra Esquivel,Waco University,,,,,,Single-ply,SBD,F,
Girls,,NS,Lashonda Roby,Temple,,,,,,Single-ply,SBD,F,
