Name,Sex,Team,Division,BodyweightKg,WeightClassKg,BirthDate,Squat1Kg,Squat2Kg,Squat3Kg,Best3SquatKg,Bench1Kg,Bench2Kg,Bench3Kg,Best3BenchKg,Deadlift1Kg,Deadlift2Kg,Deadlift3Kg,Best3DeadliftKg,TotalKg,Event,Equipment,Place
Maraea Borell-Puru,F,Ruthless Barbell Club,Juniors 16-17,102.1,90+,2004-08-27,137.5,-147.5,147.5,147.5,52.5,60,-65,60,137.5,150,-160,150,357.5,SBD,Wraps,1
Sophie Harding,F,Kiwi Strength,Juniors 18-19,77.6,82.5,2002-09-02,-140,-150,-150,,50,-60,,50,,,,,,SBD,Wraps,DQ
Tyla Bradley,F,,Juniors 20-23,64.7,67.5,1999-04-21,110,120,125,125,80,85,-90,85,150,160,170,170,380,SBD,Wraps,1
Teresa Poli,F,Kiwi Strength,Juniors 20-23,91.35,90+,1997-08-08,90,110,-125,110,70,75,-80,75,-150,-150,-150,,,SBD,Wraps,DQ
Deborah Wilson,F,Kiwi Strength,Masters 50-54,86.65,90,1966-09-27,107.5,-115,115,115,62.5,-67.5,,62.5,150,157.5,165,165,342.5,SBD,Wraps,1
Nicala Cuthbert,F,Chop Shop,Open,63.3,67.5,1991-08-17,90,100,105,105,45,50,-52.5,50,125,140,-145,140,295,SBD,Wraps,2
Ashleigh Hoeta,F,Kiwi Strength,Open,124.5,90+,1996-06-28,235,-247.5,255,255,117.5,-125,125,125,225,237.5,-250,237.5,617.5,SBD,Wraps,1
Jo Wemyss,F,Valkyriea Nz/ cage Barbell,Masters 45-49,72.5,75,1974-04-09,85,97.5,-105,97.5,40,45,-50,45,125,-140,,125,267.5,SBD,Wraps,1
Paula Johnstone,F,,Masters 45-49,83,90,1972-11-27,100,110,-120,110,85,-90,-92.5,85,120,125,-130,125,320,SBD,Wraps,1
Christine Henwood,F,Trainstation,Masters 60-64,86.45,90,1958-11-26,180,190,195,195,92.5,100,-105,100,190,195,200,200,495,SBD,Wraps,1
Amy Sparks,F,Trainstation,Open,63.7,67.5,1985-01-02,-110,117.5,-122.5,117.5,55,-60,60,60,110,115,120,120,297.5,SBD,Wraps,1
Zoe Marr,F,Cage Barbell,Open,79.3,82.5,1983-05-30,110,120,-130,120,80,85,87.5,87.5,160,170,-180,170,377.5,SBD,Wraps,1
Kareena Conn,F,Kiwi Strength,Open,79.55,82.5,1991-11-04,120,127.5,-135,127.5,,,,,,,,,127.5,S,Wraps,1
Jimmylee Foreman,M,Snap Fitness Frankton,Juniors 20-23,100.5,110,1997-08-02,170,185,195,195,145,152.5,-157.5,152.5,230,240,250,250,597.5,SBD,Wraps,1
Shaun Little,M,Tec,Open,79.9,82.5,1991-06-02,195,207.5,-215,207.5,127.5,135,140,140,225,240,250,250,597.5,SBD,Wraps,1
Connor Foster,M,Kiwi Strength,Open,87.55,90,1996-08-14,195,-205,210,210,125,-130,,125,215,227.5,-235,227.5,562.5,SBD,Wraps,2
Jason Dark,M,Chop Shop,Open,133,140,1993-04-20,240,265,280,280,160,170,-180,170,220,250,260,260,710,SBD,Wraps,1
Terry Zamora,M,Kiwi Strength,Juniors 20-23,108.5,110,2000-07-26,-185,190,210,210,85,95,100,100,180,195,-210,195,505,SBD,Wraps,2
Heywood Kuka,M,Ruthless Barbell Club,Masters 40-44,129.7,140,1980-06-20,280,295,305,305,145,155,-162.5,155,260,-280,-280,260,720,SBD,Wraps,1
Delfin Fincham,M,Kiwi Strength,Masters 45-49,63.55,67.5,1975-08-06,160,-167.5,170,170,90,97.5,-100,97.5,195,205,-210,205,472.5,SBD,Wraps,1
Mike Smith #1,M,Trainstation,Masters 45-49,83.85,90,1974-10-18,185,-195,195,195,135,-140,,135,-260,,,,,SBD,Wraps,DQ
Clinton Rowe,M,,Masters 45-49,98.95,100,1976-02-01,180,190,-195,190,-130,130,-135,130,190,205,220,220,540,SBD,Wraps,1
Shayne Cook,M,Kiwi Strength,Masters 55-59,102.55,110,1965-01-10,132.5,140,150,150,107.5,115,-120,115,150,-160,160,160,425,SBD,Wraps,1
Cody Ludwig,M,,Open,76,82.5,1996-11-07,112.5,120,125,125,80,-85,90,90,130,140,-145,140,355,SBD,Wraps,2
Mike Jones #21,M,Ruthless Barbell Club,Open,89.9,90,1993-12-05,210,220,227.5,227.5,130,-137.5,-137.5,130,230,252.5,260,260,617.5,SBD,Wraps,1
Richard Morton,M,Chop Shop,Open,102.2,110,1990-10-17,220,240,250,250,110,120,-125,120,220,240,260,260,630,SBD,Wraps,1
Shane Poihipi-Paul,M,HT Fitness,Open,108.8,110,1993-01-31,200,210,-225,210,130,135,140,140,200,220,235,235,585,SBD,Wraps,2
Kotuku Iharairaemanuera,M,Kiwi Strength,Open,167,140+,1993-10-12,312.5,320,335,335,-205,205,,205,300,,,300,840,SBD,Wraps,1
John Tyrrell,M,Kiwi Strength,Masters 50-54,109.3,110,1969-09-06,-240,240,-250,240,110,-150,-150,110,240,-260,260,260,610,SBD,Wraps,1
Trent Segetin,M,Kiwi Strength,Open,82.4,82.5,1997-03-04,165,175,-185,175,,,,,,,,,175,S,Wraps,1
Daniel Rudolph,M,Kiwi Strength,Open,133,140,1982-09-01,365,,,365,,,,,,,,,365,S,Multi-ply,1
Mark Wood,M,Trainstation,Open,98.55,100,1984-01-08,,,,,110,-115,-115,110,,,,,110,B,Raw,1
Alan Kissick,M,Loser Barbell,Masters 40-44,124.4,125,1978-07-14,,,,,-180,-190,-190,,,,,,,B,Multi-ply,DQ
Peter Bishop,M,Kiwi Strength,Open,73.45,75,1989-05-10,,,,,,,,,210,225,235,235,235,D,Raw,1
Mark Wood,M,Trainstation,Open,98.55,100,1984-01-08,,,,,,,,,200,-210,-210,200,200,D,Raw,1
