Name,WeightClassKg,Division,Sex,Age,AgeRange,Best3SquatKg,Best3BenchKg,Best3DeadliftKg,TotalKg,Event,Equipment,Place
Loc Tran,52,Open,M,,,142.5,87.5,172.5,402.5,SBD,Single-ply,1
Mark Lynde,52,Open,M,,,132.5,90,155,377.5,SBD,Single-ply,2
Pat Weber,52,Open,F,,,92.5,55,117.5,265,SBD,Single-ply,3
Kathy Tascona,52,Open,F,,,100,47.5,110,257.5,SBD,Single-ply,4
P. Carruny,52,Open,F,,,77.5,52.5,97.5,227.5,SBD,Single-ply,5
Joy Martin,52,Open,F,,,72.5,35,92.5,200,SBD,Single-ply,6
Jane Nelson,52,Open,F,,,72.5,40,85,197.5,SBD,Single-ply,7
Monte Mason,56,Open,M,,,192.5,115,192.5,500,SBD,Single-ply,1
David Garvey,56,Open,M,,,142.5,95,162.5,400,SBD,Single-ply,2
Dwayne Feakes,56,Open,M,,,130,75,162.5,367.5,SBD,Single-ply,3
John Schiley,60,Open,M,,,147.5,105,207.5,460,SBD,Single-ply,1
Mark Murphy,60,Open,M,,,110,90,160,360,SBD,Single-ply,2
Dave Glende,60,Open,M,,,137.5,67.5,155,360,SBD,Single-ply,3
L. Magnuson,60,Open,F,,,77.5,45,90,212.5,SBD,Single-ply,4
Pat Jensen,60,Open,F,,,62.5,37.5,92.5,192.5,SBD,Single-ply,5
John Jones #6,67.5,Open,M,,,190,117.5,245,552.5,SBD,Single-ply,1
Dave Boogaard,67.5,Open,M,,,165,110,185,460,SBD,Single-ply,2
Pat Murphy,67.5,Open,M,,,147.5,105,185,437.5,SBD,Single-ply,3
Shawn Friday,67.5,Open,M,15,,150,147.5,112.5,410,SBD,Single-ply,4
M. Stensaas,67.5,Open,F,,,105,52.5,125,282.5,SBD,Single-ply,5
Craig Steinberg,75,Open,M,,,190,110,230,530,SBD,Single-ply,1
T. Washington,75,Open,M,,,157.5,112.5,235,505,SBD,Single-ply,2
Scott Terca,75,Open,M,,,172.5,125,205,502.5,SBD,Single-ply,3
Bruce Wolf,75,Open,M,,,157.5,107.5,232.5,497.5,SBD,Single-ply,4
Jeff Cushing,75,Open,M,,,172.5,125,187.5,485,SBD,Single-ply,5
Lyle Morgan,75,Open,M,,,137.5,87.5,187.5,412.5,SBD,Single-ply,6
L. Danielson,75,Open,F,,,102.5,52.5,115,270,SBD,Single-ply,7
R. Karlen,75,Open,M,,,,,,,SBD,Single-ply,DQ
Todd Rachwal,82.5,Open,M,,,265,200,277.5,742.5,SBD,Single-ply,1
Jim Eichelberger,82.5,Open,M,,,250,160,282.5,692.5,SBD,Single-ply,2
Douglas Heeren,82.5,Open,M,,,255,137.5,285,677.5,SBD,Single-ply,4
Andy Wharton,82.5,Open,M,,,255,145,272.5,672.5,SBD,Single-ply,5
Brad Weber,82.5,Open,M,,,227.5,182.5,270,680,SBD,Single-ply,3
Spike Lambert,82.5,Open,M,,,230,160,272.5,662.5,SBD,Single-ply,6
Ron Martin,82.5,Open,M,,,210,145,217.5,572.5,SBD,Single-ply,7
Blake Smith,82.5,Open,M,,,190,112.5,187.5,490,SBD,Single-ply,8
Tom Hooker,82.5,Open,M,,,155,117.5,182.5,455,SBD,Single-ply,9
C. Clarambeau,82.5,Open,M,,,142.5,107.5,182.5,432.5,SBD,Single-ply,10
Rod Carr,82.5,Open,M,,,192.5,157.5,,,SBD,Single-ply,DQ
R. Burchatz,82.5,Open,M,,,,,,,SBD,Single-ply,DQ
Davy Ellefson,90,Open,M,,,282.5,195,267.5,745,SBD,Single-ply,1
Mike Ricker,90,Open,M,,14-19,237.5,145,305,687.5,SBD,Single-ply,2
J. Schmoller,90,Open,M,,,250,157.5,252.5,660,SBD,Single-ply,3
Kevin Hansen,90,Open,M,,,237.5,147.5,255,640,SBD,Single-ply,4
Mark Kiger,90,Open,M,,,235,157.5,245,637.5,SBD,Single-ply,5
Gary Clock,90,Open,M,,,212.5,150,225,587.5,SBD,Single-ply,6
J. Trenhaile,90,Open,M,,,192.5,127.5,217.5,537.5,SBD,Single-ply,7
D. Christenson,90,Open,M,,,142.5,110,200,452.5,SBD,Single-ply,8
Dan Gnerre,100,Open,M,,,282.5,195,297.5,775,SBD,Single-ply,1
Steve Glende,100,Open,M,,,282.5,137.5,325,745,SBD,Single-ply,2
Gunn's Hulett,100,Open,M,,,277.5,172.5,282.5,732.5,SBD,Single-ply,3
Wayne Oberg,100,Open,M,,,282.5,142.5,292.5,717.5,SBD,Single-ply,5
Wayne Jackson,100,Open,M,,,257.5,192.5,277.5,727.5,SBD,Single-ply,4
Owen Britton,100,Open,M,,,260,142.5,275,677.5,SBD,Single-ply,7
C. Sufficool,100,Open,M,,,247.5,165,267.5,680,SBD,Single-ply,6
Bill Whelpley,100,Open,M,,,230,172.5,262.5,665,SBD,Single-ply,8
Brian Schutt,100,Open,M,,,260,140,240,640,SBD,Single-ply,9
Adam Clark,100,Open,M,,,237.5,127.5,247.5,612.5,SBD,Single-ply,10
Tony Franklin,100,Open,M,,,155,130,185,470,SBD,Single-ply,11
Doug Moore #2,110,Open,M,,,325,227.5,320,872.5,SBD,Single-ply,1
Reid McCormick,110,Open,M,,,280,172.5,320,772.5,SBD,Single-ply,2
Mike Berg,110,Open,M,,,285,182.5,290,757.5,SBD,Single-ply,3
Marcel Saul,110,Open,M,,,252.5,175,265,692.5,SBD,Single-ply,4
Tom Berg,110,Open,M,,,197.5,160,250,607.5,SBD,Single-ply,5
D. Kowlowski,110,Open,M,,,205,165,237.5,607.5,SBD,Single-ply,6
Dan Hoagland,110,Open,M,,,215,150,230,595,SBD,Single-ply,7
Brian Jacobson,125,Open,M,,,340,202.5,297.5,840,SBD,Single-ply,1
Ray Bonus,125,Open,M,,,257.5,145,272.5,675,SBD,Single-ply,2
Brad Kretsch,125+,Open,M,,,295,212.5,330,837.5,SBD,Single-ply,1
Maurice Peak,125+,Open,M,,,315,205,300,820,SBD,Single-ply,2
Ralph Dirksen,125+,Open,M,,,290,165,265,720,SBD,Single-ply,3
David Johnston #3,125+,Open,M,,,250,182.5,250,682.5,SBD,Single-ply,4
