Division,Name,BodyweightKg,WeightClassKg,Bench1Kg,Bench2Kg,Bench3Kg,Best3BenchKg,TotalKg,Place,Equipment,Event,Sex
LW,Tim Hensley,89.99,100,317.51,326.59,-331.12,326.59,326.59,1,Multi-ply,B,M
LW,Eric DeCaires,99.06,100,317.51,-328.85,-328.85,317.51,317.51,2,Multi-ply,B,M
LW,Jeff Johnston #1,98.88,100,290.3,303.91,-328.85,303.91,303.91,3,Multi-ply,B,M
LW,James Matta,97.16,100,263.08,-272.16,272.16,272.16,272.16,4,Multi-ply,B,M
HW,Matt Minuth,103.51,100+,-385.55,385.55,-401.43,385.55,385.55,1,Multi-ply,B,M
HW,Barzeen Vaziri,151.86,100+,-362.87,-362.87,371.95,371.95,371.95,2,Multi-ply,B,M
HW,Richard Singh,157.67,100+,-331.12,-331.12,-331.12,,,DQ,Multi-ply,B,M
HW,Matt Houser,143.06,100+,-408.23,-408.23,-408.23,,,DQ,Multi-ply,B,M
HW,Jim Phraner,114.94,100+,-340.19,,,,,DQ,Multi-ply,B,M
