Name,Country,Sex,Age,BodyweightKg,WeightClassKg,Division,Squat1Kg,Squat2Kg,Squat3Kg,Squat4Kg,Best3SquatKg,Bench1Kg,Bench2Kg,Bench3Kg,Bench4Kg,Best3BenchKg,Deadlift1Kg,Deadlift2Kg,Deadlift3Kg,Deadlift4Kg,Best3DeadliftKg,TotalKg,Place,Equipment,Event
Máté Kiss,,M,18,56,56,T3,130,145,-155,,145,70,77.5,80,,80,150,160,170,,170,395,1,Wraps,SBD
Totte Salmi,,M,42,55.68,56,O,130,140,156,,156,95,102.5,107.5,,107.5,165,-186,-186,,165,428.5,1,Wraps,SBD
Štefan Lehocký,,M,15,60,60,T1,120,137.5,-145,,137.5,55,62.5,-65,,62.5,140,160,,,160,360,1,Wraps,SBD
Dan Ashcroft,,M,18,60,60,T3,162.5,170,,,170,80,90,95,,95,180,192.5,,,192.5,457.5,1,Wraps,SBD
Josef Cichý,,M,64,59.34,60,M5,120,130,135,,135,-45,45,-52.5,,45,130,-145,145,,145,325,1,Wraps,SBD
Karabo Philimon Manamela,,M,17,63.65,67.5,T2,160,-170,170,,170,70,80,-87.5,,80,180,190,-197.5,,190,440,1,Wraps,SBD
Matej Pavlák,,M,19,66.65,67.5,T3,-160,-160,160,,160,90,-95,95,,95,-200,200,-210,,200,455,1,Wraps,SBD
Tomaž Prijanovič,,M,23,66.8,67.5,J,185,190,-202.5,,190,120,127.5,-130,,127.5,190,195,205,,205,522.5,1,Wraps,SBD
Michael Watt,,M,35,67.5,67.5,O,180,-200,200,,200,130,140,-150.5,,140,230,240,247.5,,247.5,587.5,1,Wraps,SBD
Mateusz Kaczmarek,,M,24,67.5,67.5,O,160,170,-175,,170,115,122.5,125,,125,180,190,-200,,190,485,2,Wraps,SBD
Łukasz Górecki,,M,33,66.45,67.5,O,170,180,187.5,,187.5,95,102.5,-110,,102.5,180,192.5,-200,,192.5,482.5,3,Wraps,SBD
Eduard Synák,,M,31,66.8,67.5,O,135,-145,-145,,135,95,100,-107.5,,100,170,180,-200,,180,415,4,Wraps,SBD
Vjekolav Karakaš,,M,47,65.35,67.5,M2,100,110,-120,,110,90,,,,90,140,157.5,,,157.5,357.5,1,Wraps,SBD
Gary Bobrovitz,,M,65,66.6,67.5,M6,60,,,,60,107.5,110,112.5,115,112.5,60,160,170,-175,170,342.5,1,Wraps,SBD
Budgie Mullan,,M,73,66.15,67.5,M7,80,90,-97.5,,90,60,65,-70,,65,140,150,160,-171,160,315,1,Wraps,SBD
Ondřej Kaucký,,M,15,67.9,75,T1,102.5,112.5,120,,120,75,82.5,-90,,82.5,115,122.5,130,,130,332.5,1,Wraps,SBD
Roman Fuksa,,M,16,72.35,75,T2,-170,170,195,,195,-90,90,-105,,90,200,220,-230,,220,505,1,Wraps,SBD
Jiří Píbal,,M,18,74.8,75,T3,200,210,217.5,,217.5,120,130,-135,,130,220,-240,240,,240,587.5,1,Wraps,SBD
Ondřej Mališka,,M,19,74.95,75,T3,195,-205,205,,205,130,135,-140,,135,220,230,-237.5,,230,570,2,Wraps,SBD
Milan Hožďora,,M,23,73.6,75,J,190,200,215,,215,130,135,-137.5,,135,230,245,255,,255,605,1,Wraps,SBD
Lukáš Vašíček,,M,22,72.1,75,J,195,-205,-205,,195,105,115,125,,125,200,210,-220,,210,530,2,Wraps,SBD
Zdeno Briš,,M,23,73.95,75,J,170,-180,180,,180,122.5,127.5,-130,,127.5,220,-230,-230,,220,527.5,3,Wraps,SBD
Lukáš Jadlovský,,M,20,74.2,75,J,160,-170,-170,,160,100,110,-115,,110,185,205,-212.5,,205,475,4,Wraps,SBD
Václav Smolík,,M,20,71.55,75,J,145,-160,-160,,145,80,85,-90,,85,172.5,180,-190,,180,410,5,Wraps,SBD
Sami Vaskelainen,,M,33,73.2,75,O,-220,220,232.5,241,232.5,120,130,135,,135,250,260,262.5,,262.5,630,1,Wraps,SBD
Oriol Josep Ragues,,M,31,72.8,75,O,190,202.5,-210,,202.5,115,120,-125,,120,222.5,230,-235,,230,552.5,2,Wraps,SBD
Milan Krupička,,M,27,72.3,75,O,180,-200,200,,200,110,-120,-120,,110,200,220,230,,230,540,3,Wraps,SBD
Damian Zapart,,M,34,73.1,75,O,170,180,-190,,180,110,-120,-120,,110,180,190,195,,195,485,4,Wraps,SBD
Nael Tassabehji,,M,37,74.85,75,O,205,215,-222.5,,215,130,140,-145,,140,-240,-240,-240,,,,DQ,Wraps,SBD
Ivan Stanković,,M,42,74.65,75,M1,215,230,-241,-241,230,120,130,-135,,130,210,225,240,-251,240,600,1,Wraps,SBD
Peter Lehocký,,M,45,74.95,75,M2,210,230,235.5,,235.5,140,150,157.5,,157.5,240,-262.5,-262.5,,240,632.5,1,Wraps,SBD
Roman Mandík,,M,49,73.9,75,M2,155,162.5,-165,,162.5,107.5,112.5,115,,115,172.5,182.5,192.5,,192.5,470,2,Wraps,SBD
Adriano DaCosta,,M,54,72.2,75,M3,215,-225,,,215,115,122.5,130,,130,215,225,-230,,225,570,1,Wraps,SBD
Sejfo Šehović,,M,58,71.6,75,M4,-160,-160,160,,160,100,105,,,105,210,225,230,,230,495,1,Wraps,SBD
Jozef Gabrhel,,M,61,73.35,75,M5,130,140,145,,145,95,100,-102.5,,100,165,175,-180,,175,420,1,Wraps,SBD
Guylhem Feraud,,M,72,73.1,75,M7,125,-138.5,-138.5,,125,105,-113,-113,,105,170,178.5,180,,180,410,1,Wraps,SBD
Esko Ketola,,M,75,73.6,75,M8,-140,140,-150,150,140,80,90,,,90,150,165,,,165,395,1,Wraps,SBD
Grigori Rubin,,M,81,72.65,75,M9,120,125,127.5,,127.5,87.5,92.5,-95,-95,92.5,147.5,152.5,155,,155,375,1,Wraps,SBD
Daniel Lažek,,M,17,81.6,82.5,T2,170,190,-200,,190,110,120,-125,,120,200,-215,215,,215,525,1,Wraps,SBD
Vadim Sugonyako,,M,17,81.5,82.5,T2,170,180,190,,190,-110,-110,-110,,,,,,,,,DQ,Wraps,SBD
Bvinder Singh Barrah,,M,19,82.2,82.5,T3,227.5,242.5,253,,253,155,-167.5,167.5,180.5,167.5,240,262.5,273,-280,273,693.5,1,Wraps,SBD
Petr Hloušek,,M,19,80.9,82.5,T3,180,200,-220,,200,100,110,-120,,110,200,215,-220,,215,525,2,Wraps,SBD
Patrik Tomáš,,M,21,80.6,82.5,J,190,210,220,,220,140,150,157.5,,157.5,240,250,260,,260,637.5,1,Wraps,SBD
Daniel Peković,,M,23,80.15,82.5,J,200,220,-230,,220,125,-130,130,,130,230,250,-260,,250,600,2,Wraps,SBD
Tsvetomir Pelovski,,M,21,81.2,82.5,J,202.5,215,-225,,215,120,130,135,,135,202.5,215,-232.5,,215,565,3,Wraps,SBD
Petr Horák,,M,38,81.85,82.5,O,230,265,278,,278,140,155,160,,160,250,285,-301,,285,722.5,1,Wraps,SBD
Petr Gažko,,M,35,77,82.5,O,210,220,-230,,220,150,160,-170,,160,210,220,225,,225,605,2,Wraps,SBD
Adam Vokál,,M,24,76.9,82.5,O,200,215,,,215,145,152.5,157.5,,157.5,200,220,227.5,,227.5,600,3,Wraps,SBD
Péter Karácsony,,M,35,79.9,82.5,O,170,180,187.5,,187.5,105,115,-120,,115,200,210,220,,220,522.5,4,Wraps,SBD
Lee Cutler,,M,40,81.75,82.5,M1,250,270,285,,285,150,160,-165,,160,250,275,-295,,275,720,1,Wraps,SBD
Jeffrey Podszuweit,,M,40,76.5,82.5,M1,210,-227.5,-227.5,,210,170,180,-185,,180,205,220,235,,235,625,2,Wraps,SBD
Zsolt Horváth,,M,42,82.2,82.5,M1,220,230,-240,,230,130,142.5,-145,,142.5,230,245,250,,250,622.5,3,Wraps,SBD
Pekka Anttila,,M,52,82.05,82.5,M3,-202.5,202.5,220,,220,90,100,105,,105,200,215,-230,,215,540,1,Wraps,SBD
Rane Ovaska,,M,57,80.2,82.5,M4,150,170,190,,190,95,105,-112.5,,105,190,210,220.5,,220.5,515.5,1,Wraps,SBD
Tibor Zvada,,M,59,80.65,82.5,M4,120,130,-140,,130,80,-85,,,80,170,175,-180,,175,385,2,Wraps,SBD
Józef Bejgrowicz,,M,64,81.15,82.5,M5,150,-170,170,,170,70,80,,,80,210,225,-243.5,,225,475,1,Wraps,SBD
Jean Palicot,,M,64,77.55,82.5,M5,120,130,137.5,,137.5,75,80,85,,85,150,170,-175,,170,392.5,2,Wraps,SBD
Bill Healy,,M,67,80.45,82.5,M6,210,220,-230,,220,130,137.5,142.5,-147.5,142.5,225,-232.5,232.5,-237.5,232.5,595,1,Wraps,SBD
Miklós Kardos,,M,66,80.15,82.5,M6,110,120,130,,130,75,-80,80,,80,145,155,-160,,155,365,2,Wraps,SBD
William Kidd,,M,72,81.25,82.5,M7,110,140,170,-184,170,80,85,90,,90,150,-180,-180,,150,410,1,Wraps,SBD
Ulrich Mielich,,M,77,75.6,82.5,M8,65,70,75,,75,55,60,62.5,,62.5,95,110,117.5,,117.5,255,1,Wraps,SBD
Stanislav Dašek,,M,17,89.9,90,T2,215,230,250,-260.5,250,150.5,160,170,-180,170,225,240,,,240,660,1,Wraps,SBD
Jakub Didi,,M,17,89.3,90,T2,180,-190,190,,190,-110,110,120,,120,200,210,-215,,210,520,2,Wraps,SBD
Tomáš Kopečný,,M,16,89.45,90,T2,150,160,170,,170,85,92.5,-100,,92.5,170,180,190,,190,452.5,3,Wraps,SBD
Matěj Syrovátka,,M,18,89.25,90,T3,260,275,-290,,275,170,180,185,,185,260,280,290,,290,750,1,Wraps,SBD
Dominik Kovalčík,,M,18,83.35,90,T3,245,255,265,,265,145,155,162.5,,162.5,-240,240,,,240,667.5,2,Wraps,SBD
Ondřej Kasal,,M,18,87.9,90,T3,150,-160,165,,165,95,102.5,-110,,102.5,195,205,212.5,,212.5,480,3,Wraps,SBD
Patrik Nguyen,,M,23,90,90,J,-250,250,270,,270,130,150,160,,160,250,270,282.5,,282.5,712.5,1,Wraps,SBD
Přemek Skoták,,M,20,89.6,90,J,-260,260,-270,,260,-160,160,170,,170,260,275,280,,280,710,2,Wraps,SBD
Jesse Moran,,M,23,88.7,90,J,-250,-250,250,,250,-180,-180,180,-191,180,-255,265,-285,,265,695,3,Wraps,SBD
Greg Steele #1,,M,22,89.2,90,J,212.5,222.5,-230,,222.5,137.5,147.5,-152.5,,147.5,255,265,-272.5,,265,635,4,Wraps,SBD
Sean Hough,,M,20,87.75,90,J,-235,-235,235,,235,117.5,125,-130,,125,210,225,240,,240,600,5,Wraps,SBD
Robert Kolena,,M,22,90,90,J,185,195,205,,205,-105,112.5,120,,120,180,195,200,,200,525,6,Wraps,SBD
Nik Stefančič,,M,23,88.2,90,J,120,,,,120,115,-120,-120,,115,-215,-215,-215,,,,DQ,Wraps,SBD
Daniel Lane,,M,38,88.55,90,O,260,-272.5,272.5,,272.5,160,171,-180,,171,275,285,-292.5,,285,728.5,1,Wraps,SBD
Richard Novotný,,M,24,88.85,90,O,250,-275,275,,275,130,140,145,,145,290,302.5,-310,,302.5,722.5,2,Wraps,SBD
Chris Pugh #1,,M,24,85.15,90,O,-275,275,-285,,275,170,177.5,-182.5,,177.5,255,-267.5,-277.5,,255,707.5,3,Wraps,SBD
Josef Ml. Peška,,M,27,89.3,90,O,255,-265,-265,,255,180,191,-197.5,,191,240,,,,240,686,4,Wraps,SBD
Steven Sepp,,M,24,89.6,90,O,220,230,-240,,230,150,160,-165,,160,260,270,-280,,270,660,5,Wraps,SBD
Petr Keliar,,M,33,89.65,90,O,215,225,230,,230,125,132.5,135,,135,210,220,230,,230,595,6,Wraps,SBD
Rostislav Grygerek,,M,27,86.65,90,O,200,-210,210,,210,110,120,-125,,120,210,-220,,,210,540,7,Wraps,SBD
Steve Plunkett,,M,43,88.75,90,M1,-230,230,-245,,230,150,-160,-160,,150,230,-245,-245,,230,610,1,Wraps,SBD
Rodrigo Sanchez,,M,46,89.55,90,M2,200,220,-240.5,,220,140,160,170.5,,170.5,220,240,250,,250,640.5,1,Wraps,SBD
Miroslav Šefl,,M,46,87.85,90,M2,155,175,190,,190,130,137.5,-145,,137.5,190,210,217.5,,217.5,545,2,Wraps,SBD
Phil Beniston,,M,54,88.05,90,M3,-210,210,-225,,210,152.5,160,170,-172.5,170,230,240,250,,250,630,1,Wraps,SBD
Adrian Tucker,,M,55,86.4,90,M4,220,235,247.5,,247.5,125,130,135,,135,230,-250,-250,,230,612.5,1,Wraps,SBD
Peter Herák,,M,56,89.05,90,M4,220,235,245,,245,115,120,-125,,120,215,230,-235,,230,595,2,Wraps,SBD
Ferenc Smuk,,M,65,87.85,90,M6,232.5,242.5,250,255,250,105,110,115,,115,230,240,250,255,250,615,1,Wraps,SBD
Vilho Määttä,,M,65,88,90,M6,140,150,160,,160,100,115,120,,120,180,200,,,200,480,2,Wraps,SBD
Petr Kutner,,M,67,83.15,90,M6,140,150,155,,155,72.5,80,-85,,80,170,182.5,190,,190,425,3,Wraps,SBD
Antonín Vala,,M,19,97.67,100,T3,240,260,272.5,,272.5,120,-130,132.5,,132.5,250,-285.5,-285.5,,250,655,1,Wraps,SBD
Petr Varyš,,M,19,98.6,100,T3,205,215,-225,,215,122.5,132.5,-140,,132.5,225,240,-252.5,,240,587.5,2,Wraps,SBD
Jacob Bagley,,M,23,95.6,100,J,260,272.5,280,,280,150,157.5,-160,,157.5,302.5,312.5,320,-328,320,757.5,1,Wraps,SBD
Dávid Bartó,,M,23,96.75,100,J,260,275,280,,280,180.5,190,-195,,190,270,280,-290,,280,750,2,Wraps,SBD
Alexandr Globa,,M,23,97.9,100,J,252.5,262.5,-270,,262.5,145,155,157.5,,157.5,250,275,285,,285,705,3,Wraps,SBD
Charlie Wilson #2,,M,23,93.9,100,J,220,235,245,,245,120,140,152.5,,152.5,-260,260,-300,,260,657.5,4,Wraps,SBD
Jiří Štich,,M,20,98.15,100,J,215,230,-245,,230,135,145,152.5,,152.5,210,220,227.5,,227.5,610,5,Wraps,SBD
Gor Andreasyan,,M,20,94.65,100,J,-170,-195,200,,200,145,155,165,,165,180,210,-240,,210,575,6,Wraps,SBD
Ondřej Matušinec,,M,20,93,100,J,200,-220,,,200,,,,,,,,,,,,DQ,Wraps,SBD
Luke Harrison,,M,22,99.55,100,J,-280,-280,-280,,,180,-200,,,180,,,,,,,DQ,Wraps,SBD
Dávid Marušinec,,M,23,93,100,J,-200,-200,-200,,,,,,,,,,,,,,DQ,Wraps,SBD
Martin Brown #1,,M,37,99.55,100,O,300,-325,325,,325,170,180,190,,190,280,290,300,,300,815,1,Wraps,SBD
Raees Dangor,,M,27,98.1,100,O,280,297.5,-305,,297.5,170,180,185,,185,290,310,-317.5,,310,792.5,2,Wraps,SBD
Donavin Hawkey,,M,34,100,100,O,255,-270,270,,270,190,-200,-200,,190,310,320,333,,333,792.5,3,Wraps,SBD
Robert Masson,,M,26,97.65,100,O,270,290,305,,305,155,162.5,165,,165,280,295,,,295,765,4,Wraps,SBD
Markus Juhani Sutinen,,M,32,100,100,O,260,290,-310,,290,145,155,-160,,155,280,-310,310,,310,755,5,Wraps,SBD
Kamen Momchilov,,M,31,98.85,100,O,235,250,260,,260,162.5,172.5,177.5,,177.5,270,282.5,295,,295,732.5,6,Wraps,SBD
Nikola Čigoja,,M,27,97.4,100,O,270,-280,285,,285,160,167.5,175,,175,270,-285,-285,,270,730,7,Wraps,SBD
Adam Kitchener,,M,34,100,100,O,210,230,240,,240,135,145,-150,,145,270,302.5,307.5,,307.5,692.5,8,Wraps,SBD
Lukáš Borůvka,,M,29,98.05,100,O,200,230,-245,,230,140,150,165,,165,250,270,-285,,270,665,9,Wraps,SBD
Vagif Dzhabarov,,M,34,97.65,100,O,210,220,230,,230,140,145,150,,150,240,255,-265,,255,635,10,Wraps,SBD
Matej Šemrl,,M,24,95.95,100,O,-275,-275,-290,,,,,,,,,,,,,,DQ,Wraps,SBD
Teemu Mäkynen,,M,24,97.25,100,O,250,265,-280,,265,,,,,,,,,,,,DQ,Wraps,SBD
Lukáš Žigmund,,M,30,99.2,100,O,-280,,,,,,,,,,,,,,,,DQ,Wraps,SBD
Scott Halliday,,M,40,100,100,M1,270,285,295,,295,195,200,205,,205,260,275,280,,280,780,1,Wraps,SBD
Daniel Sánchez,,M,43,97.5,100,M1,300,-315,-325,,300,170,180,-185,,180,242.5,255,262.5,,262.5,742.5,2,Wraps,SBD
Jason Hill,,M,44,99.45,100,M1,250,265,277.5,,277.5,150,165,175,,175,240,260,272.5,,272.5,725,3,Wraps,SBD
Zoltán Karsai,,M,43,93.5,100,M1,-250,-250,250,,250,180,190,-195,,190,250,260,-265,,260,700,4,Wraps,SBD
Martin Horák,,M,40,98.4,100,M1,210,-220,222.5,,222.5,150,-165,,,150,-210,-220,220,,220,592.5,5,Wraps,SBD
Roman Zigo,,M,44,98.65,100,M1,170,-180,180,,180,107.5,115,-120,,115,195,205,215,,215,510,6,Wraps,SBD
Fabrice Benchabane,,M,46,97.35,100,M2,217.5,227.5,232.5,,232.5,135,142.5,-147.5,,142.5,255,267.5,275.5,-277.5,275.5,650,1,Wraps,SBD
Gustavo Miño,,M,46,94.9,100,M2,200,210,217.5,,217.5,140,145,-147.5,,145,200,215,-220,,215,577.5,2,Wraps,SBD
Tomáš Sedláček,,M,51,99.75,100,M3,225,-240,-240,,225,145,155,160,,160,230,240,255,,255,640,1,Wraps,SBD
Don Coates,,M,56,97.65,100,M4,80,,,,80,160,173,177.5,,177.5,80,,,,80,337.5,1,Wraps,SBD
Ladislau Kiss,,M,69,96.05,100,M6,190,-205,205,212.5,205,110,125,130,-135,130,230,240,250,255,250,585,1,Wraps,SBD
Stefan Sochaňski,,M,68,91.25,100,M6,150,167,180,,180,90,95,,,95,190,210,,,210,485,2,Wraps,SBD
Vladimír Svoboda,,M,65,97,100,M6,145,-160,165,,165,105,115,120,,120,150,165,175,,175,460,3,Wraps,SBD
Rob Todd,,M,71,98.45,100,M7,140,150,-160,,150,90.5,100,-102.5,,100,160,180,190,,190,440,1,Wraps,SBD
Dominik Ponocný,,M,17,104.45,110,T2,230,250,260,,260,110,120,132.5,,132.5,230,250,260,,260,652.5,1,Wraps,SBD
Ádám Jakubek,,M,16,101.85,110,T2,175,185,190,,190,110,120,125,,125,185,195,-205,,195,510,2,Wraps,SBD
Vlastimil Šafařík,,M,19,108.75,110,T3,250,265,275,,275,170,180,-185,,180,245,260,272.5,-280,272.5,727.5,1,Wraps,SBD
Anthony Cooper #1,UK,M,22,105.05,110,J,-300,300,307.5,,307.5,212.5,222.5,227.5,,227.5,275,285,290,,290,825,1,Wraps,SBD
Jan Roblek,,M,22,109.7,110,J,280,295,-300,,295,180,-187.5,187.5,,187.5,300,-315,-315,,300,782.5,2,Wraps,SBD
Dušan Jovanović,,M,24,106.65,110,O,300,307.5,310,,310,195,202.5,207.5,,207.5,320,-330,-330,,320,837.5,1,Wraps,SBD
Aleksandar Pelovski,,M,26,109.65,110,O,260,277.5,282.5,,282.5,197.5,202.5,-207.5,,202.5,285,300,307.5,,307.5,792.5,2,Wraps,SBD
Lukáš Matušinec,,M,24,107.9,110,O,285,300,-310,,300,160,170,175,,175,290,302.5,307.5,,307.5,782.5,3,Wraps,SBD
Łukasz Lipka,,M,24,108.3,110,O,-285,285,300,,300,-170,-180,180,,180,280,300,-310,,300,780,4,Wraps,SBD
Andrzej Mitera,,M,29,107.45,110,O,270,-290,290,,290,170,185,190,,190,-275,275,-285,,275,755,5,Wraps,SBD
Lukáš Jiruška,,M,34,107.5,110,O,260,270,280,,280,170,175,180,,180,250,260,270,,270,730,6,Wraps,SBD
Dmytro Hotlashov,,M,32,109.2,110,O,265,-275,275,,275,150,160,-165,,160,245,255,265,,265,700,7,Wraps,SBD
Darren Sokulski,,M,24,108.05,110,O,227.5,242.5,-247.5,,242.5,142.5,152.5,160,,160,247.5,265,272.5,,272.5,675,8,Wraps,SBD
Martin Chour,,M,32,107.8,110,O,190,205,220,,220,145,155,165,,165,240,260,275,,275,660,9,Wraps,SBD
Martin Kolodžej,,M,43,103.8,110,M1,200,210,-217.5,,210,110,117.5,-125,,117.5,200,215,225,,225,552.5,1,Wraps,SBD
Tibor Pukáč,,M,46,105.7,110,M2,250,276,277.5,,277.5,160,171,-175,,171,235,247.5,-252.5,,247.5,696,1,Wraps,SBD
Saša Cvetković,,M,47,109.55,110,M2,230,-245,245,,245,140,147.5,152.5,,152.5,250,270,-278,,270,667.5,2,Wraps,SBD
Steve Hampton,,M,48,106,110,M2,250,-265,-265,,250,150,162.5,167.5,,167.5,235,245,-257.5,,245,662.5,3,Wraps,SBD
István Bohnár,,M,45,104.9,110,M2,210,-225,230,,230,150,160,170,-171.5,170,220,230,-240,,230,630,4,Wraps,SBD
Michal Šafařík,,M,50,109.1,110,M3,225,245,255,,255,140,150,155,,155,225,-250,,,225,635,1,Wraps,SBD
Billy Mollentze,,M,55,105.7,110,M4,195,210,-220,,210,115,125,130,,130,252.5,262.5,-270,,262.5,602.5,1,Wraps,SBD
Jaroslav Šolc,,M,60,107.6,110,M5,190,200,-220,,200,137.5,147.5,152.5,,152.5,190,200,,,200,552.5,1,Wraps,SBD
Vít Kovanič,,M,17,114.25,125,T2,190,210,230,,230,-115,120,135,,135,225,-240,240,,240,605,1,Wraps,SBD
Herbert Czeplinski,,M,18,116.15,125,T3,-285,305,-322.5,,305,-200,210,-220,,210,285,-305,-305,,285,800,1,Wraps,SBD
Nikolas Dunovský,,M,19,121.4,125,T3,240,255,270,,270,175,185,-200,,185,260,280,300,,300,755,2,Wraps,SBD
Marc Barnes,,M,22,111.65,125,J,300,312,-317.5,,312,150,155,-160,,155,260,270,285,,285,752,1,Wraps,SBD
Lukáš Tulis,,M,23,112.35,125,J,225,235,-250,,235,130,140,150,,150,275,290,300,,300,685,2,Wraps,SBD
Josef Sklenář,,M,20,112.3,125,J,220,-230,,,220,150,160,-167.5,,160,220,-230,,,220,600,3,Wraps,SBD
Delroy McQueen,,M,42,114.7,125,O,330,350,360,,360,170,180,-185,,180,360,375.5,,,375.5,915.5,1,Wraps,SBD
Jackson Hinch,,M,24,122.4,125,O,290,310,325,,325,205,220,-227.5,,220,310,342.5,-355,,342.5,887.5,2,Wraps,SBD
Tamás Bocz,,M,34,114.6,125,O,310,330,-340,,330,220,235,-240,,235,320,-335,-335,,320,885,3,Wraps,SBD
Alexander Zaitsev,,M,37,121.6,125,O,330,-350,350,-371,350,210,220,230,,230,300,-320,-320,,300,880,4,Wraps,SBD
Gábor Bencze,,M,39,120.45,125,O,300,322.5,-327.5,,322.5,205,212.5,-217.5,,212.5,315,-327.5,-327.5,,315,850,5,Wraps,SBD
Matt Steele,,M,31,119.65,125,O,280,320,-355,,320,180,-210,210,,210,280,-315,-315,,280,810,6,Wraps,SBD
Alfredo M. Rojas,,M,32,117.7,125,O,290,305,-325,,305,155,165,-172.5,,165,295,310,325,,325,795,7,Wraps,SBD
Jan Jiruše,,M,25,112.2,125,O,270,275,-285,,275,180,-190,190,,190,310,315,-320,,315,780,8,Wraps,SBD
Jan Suda,,M,38,115.05,125,O,272.5,290,300,,300,177.5,185,190,,190,272.5,290,-300,,290,780,9,Wraps,SBD
Damian Sieradzki,,M,27,119.2,125,O,260,-270,-270,,260,-165,170,-175,,170,260,280,-290,,280,710,10,Wraps,SBD
Amir Hendel-Inbal,,M,42,110.7,125,M1,-250,250,275,,275,150,165,170,,170,250,260,265,,265,710,1,Wraps,SBD
Mark Lawford,,M,43,121.1,125,M1,-225,225,-235,,225,-195,195,202.5,,202.5,245,262.5,-275,,262.5,690,2,Wraps,SBD
Jiří Hošek,,M,45,120.8,125,M2,190,-205,210,,210,-137.5,137.5,-145,,137.5,210,225,-242.5,,225,572.5,1,Wraps,SBD
Daglan Holland,,M,52,121.7,125,M3,-250,250,-280,,250,175,182.5,-190,,182.5,220,235,-250,,235,667.5,1,Wraps,SBD
Michael Martin,,M,54,111.95,125,M3,210,240,-272.5,,240,115,142.5,152.5,,152.5,230,272.5,-285,,272.5,665,2,Wraps,SBD
Jiří Svozil,,M,63,110.1,125,M5,155,165,175,,175,50,60,70,,70,175,195,200,205,200,445,1,Wraps,SBD
Stanislav Jurčišin,,M,71,112.35,125,M7,120,-130,130,,130,90,100,-102.5,,100,150,160,-175,,160,390,1,Wraps,SBD
Gergő Benes,,M,19,134.4,140,T3,340,-360.5,365,,365,200,210,-215,,210,340,-350,,,340,915,1,Wraps,SBD
Josef Grmolec,,M,22,131.95,140,J,355,-385,-385,,355,-200,-210,215,,215,360,-385,,,360,930,1,Wraps,SBD
Jonathan Ford,,M,33,129.8,140,O,300,330,340,,340,180,200,-220,,200,270,-300,300,,300,840,1,Wraps,SBD
Rami Anttila,,M,25,138.25,140,O,260,280,-300,,280,150,157.5,162.5,,162.5,260,280,300,,300,742.5,2,Wraps,SBD
Michal Tichý,,M,27,137.35,140,O,-325,,,,,,,,,,,,,,,,DQ,Wraps,SBD
Ákos Lehotkai,,M,42,126.6,140,M1,255,-275,275,,275,160,165,-170,,165,280,-300,-300,,280,720,1,Wraps,SBD
Zane Ison,,M,47,135.85,140,M2,290,310,-330.5,,310,160,-170,,,160,285,-305.5,307,,307,777,1,Wraps,SBD
Leon Newman,,M,46,134.85,140,M2,230,250,-260,,250,180,-193,-193,,180,280,300,-306,,300,730,2,Wraps,SBD
Seyed Mahmoud Dehghanian,,M,52,125.7,140,M3,150,-180,220,,220,130,150,170,,170,170,200,220,,220,610,1,Wraps,SBD
Ladislav Kašpar,,M,22,157.5,140+,J,-280,-280,290,,290,190,200,210,,210,285,300,,,300,800,1,Wraps,SBD
Mojtaba Maleki,,M,34,162.84,140+,O,430,480,500,,500,205,215,220,,220,315,325,340,-360,340,1060,1,Wraps,SBD
Timothy Agnew,,M,30,148.75,140+,O,185,225,-235,,225,125,135,142.5,,142.5,180,200,-202.5,,200,567.5,2,Wraps,SBD
Roxanne Jones,,F,22,42.3,44,J,65,75,-77.5,,75,42.5,45,47.5,,47.5,85,90,95,97.5,95,217.5,1,Wraps,SBD
Irina Pomerantsev,,F,47,42,44,M2,80,90,92.5,,92.5,57.5,62.5,-65,,62.5,95,100,102.5,,102.5,257.5,1,Wraps,SBD
Tereza Rybová,,F,21,47.9,48,J,100,-107.5,107.5,,107.5,45,50,-55,,50,115,125,127.5,130.5,127.5,285,1,Wraps,SBD
Micaela Lopez,,F,24,47.4,48,O,110,-122,-127,,110,57.5,62.5,67.5,-73,67.5,110,125,-130,,125,302.5,1,Wraps,SBD
Aliz Hábereiter,,F,21,48,48,O,85,90,95,,95,42.5,-45,-45,,42.5,85,92.5,102.5,,102.5,240,2,Wraps,SBD
Sabine Guillaume,,F,53,47.2,48,M3,90,100,-105,,100,52.5,60,-62.5,,60,120,-132.5,-132.5,,120,280,1,Wraps,SBD
Chelsea Louw,,F,23,51.4,52,J,105,-115,-115,,105,65,70,-73.5,,70,130,-140,140,-145.5,140,315,1,Wraps,SBD
Jess Wilcock,,F,20,50.3,52,J,-87.5,87.5,95,,95,50,55,-57.5,,55,115,122.5,127.5,,127.5,277.5,2,Wraps,SBD
Julie Krastenicsová,,F,17,51.4,52,T2,75,80,-82.5,,80,47.5,50,52.5,54,52.5,72.5,77.5,82.5,,82.5,215,1,Wraps,SBD
Tereza Grubrová,,F,19,49.9,52,T3,-95,95,-105,-110,95,42.5,47.5,50,-52.5,50,100,-110,-110,,100,245,1,Wraps,SBD
Lil Bianchi Kimble,,F,33,50.5,52,O,115,125,130,-135,130,60,62.5,65,67.5,65,150,160,170,175,170,365,1,Wraps,SBD
Analia Figueroa,,F,32,49,52,O,130,137.5,-142.5,,137.5,55,60,-62.5,,60,132.5,142.5,-157.5,,142.5,340,2,Wraps,SBD
Aimee Smith,,F,31,51.2,52,O,-90,-90,90,,90,50,-55,-55,,50,125,130,140,,140,280,3,Wraps,SBD
Tereza Mlýnková,,F,24,50.6,52,O,80,-90,90,,90,45,50,55,,55,115,-122.5,125,,125,270,4,Wraps,SBD
Toinee Botha,,F,40,50.6,52,M1,115,-125,-125,,115,52.5,-57.5,-57.5,,52.5,130,140,145,-150,145,312.5,1,Wraps,SBD
Nadica Gojković,,F,43,50.5,52,M1,80,-90,-90,,80,45,50,-52.5,,50,100,-110,110,,110,240,2,Wraps,SBD
Jayden Pederson,,F,18,55.2,56,T3,-105,105,115,,115,55,60,-65,,60,140,-152.5,,,140,315,1,Wraps,SBD
Lucija Slovša,,F,21,55.2,56,J,102.5,110,-115,,110,55,60,-62.5,,60,135,142.5,-145,,142.5,312.5,1,Wraps,SBD
Vanessa Torres,,F,30,54.8,56,O,135,150,-160,,150,85,95,-100,,95,140,160,-170,,160,405,1,Wraps,SBD
Rachel Perrin,,F,40,54.9,56,M1,120,127.5,132.5,,132.5,60,67.5,-70,,67.5,117.5,125,-132.5,,125,325,1,Wraps,SBD
Belinda Ryder,,F,46,55.3,56,M2,120,130,-137.5,,130,62.5,67.5,-70,,67.5,140,155.5,160,,160,357.5,1,Wraps,SBD
Val Swaine,,F,62,55.3,56,M5,60,67,72.5,,72.5,37.5,40,-42.5,,40,110,115,117.5,120,117.5,230,1,Wraps,SBD
Denisa Vlašínová,,F,19,58.9,60,T3,100,115,-120,-120,115,50,57.5,60,,60,100,115,120,,120,295,1,Wraps,SBD
Emma Lane,,F,35,59.5,60,O,150,160,170,,170,70,77.5,80,,80,160,167.5,172.5,-180,172.5,422.5,1,Wraps,SBD
Kelly Brown #1,,F,27,58.8,60,O,145,162.5,-170,,162.5,70,75,-77.5,,75,150,160,167.5,,167.5,405,2,Wraps,SBD
Veronika Zemanová,,F,36,59.2,60,O,125,135,140,,140,-85,90,,,90,165,175,-180,,175,405,3,Wraps,SBD
Ellen Freeborn,,F,26,59.1,60,O,130,137.5,142.5,,142.5,60,65,70,,70,130,140,-147.5,,140,352.5,4,Wraps,SBD
Joanna Dróždž,,F,26,58.62,60,O,110,115,120,,120,55,62.5,-65.5,,62.5,125,130,-132.5,,130,312.5,5,Wraps,SBD
Veronika Balíková,,F,20,59.2,60,O,100,-110,-110,,100,45,47.5,-50,,47.5,120,-125,-125,,120,267.5,6,Wraps,SBD
Julie Davis #1,,F,41,59.2,60,M1,120,130,-135,,130,70,75,-77.5,,75,140,150,157.5,161.5,157.5,362.5,1,Wraps,SBD
Slávka Ratvajská,,F,44,57.7,60,M1,100,,,,100,50,55,-60,,55,110,125,-150,,125,280,2,Wraps,SBD
Dani Pearsall,,F,47,59.5,60,M2,-127.5,-127.5,127.5,,127.5,62.5,67.5,-72.5,,67.5,137.5,140,-145,,140,335,1,Wraps,SBD
Blanka Baudyšová,,F,45,58.6,60,M2,90,100,-110,,100,55,-60,-65,,55,95,105,115,,115,270,2,Wraps,SBD
Evelina Johansson,,F,23,67.05,67.5,J,142.5,-153,153,,153,70,75,78,,78,160,-165,-165,,160,391,1,Wraps,SBD
Kristýna Kohoutová,,F,20,65.3,67.5,J,100,112.5,-120,,112.5,-57.5,-62.5,-62.5,,,,,,,,,DQ,Wraps,SBD
Radostina Lulova,,F,24,66.45,67.5,O,162.5,172.5,-180,,172.5,75,80,85,,85,165,177.5,-182.5,,177.5,435,1,Wraps,SBD
Arenea Becker,,F,37,66,67.5,O,140,150,157.5,,157.5,75,77.5,80,,80,160,170,180,,180,417.5,2,Wraps,SBD
Špela Rojec,,F,29,66.1,67.5,O,140,152.5,-160,,152.5,65,70,-72.5,,70,130,140,150,,150,372.5,3,Wraps,SBD
Jennifer Savage,,F,32,67.4,67.5,O,-125,-125,125,,125,62.5,65,67.5,,67.5,152.5,155,-160,,155,347.5,4,Wraps,SBD
Teja Drašler,,F,26,61.4,67.5,O,107.5,115,120,,120,57.5,62.5,-65,,62.5,-130,130,145,,145,327.5,5,Wraps,SBD
Mónika Bazsó,,F,43,67.2,67.5,M1,-142.5,-147.5,147.5,,147.5,82.5,92.5,97.5,,97.5,170,180,185,,185,430,1,Wraps,SBD
Lesley Jayne Thomas,,F,51,64.4,67.5,M3,110,-120,120,-130,120,70,75,-77.5,-152.5,75,140,145,148,152.5,148,342.5,1,Wraps,SBD
Michaela Erősová,,F,17,74.5,75,T2,135,-140,142.5,,142.5,70,-72.5,-72.5,,70,160,170,172.5,,172.5,385,1,Wraps,SBD
Tetiana Brodetska,,F,21,74.55,75,J,-160,160,170,181,170,72.5,80,85,,85,155,162.5,170,,170,425,1,Wraps,SBD
Sabina Goliášová,,F,21,73.5,75,J,150,-165,165,,165,80,90,95,,95,130,145,155,,155,415,2,Wraps,SBD
Veronika Rulíková,,F,20,73.8,75,J,135,140,-150,,140,72.5,75,80,,80,140,150,-155,,150,370,3,Wraps,SBD
Aida Agüero,,F,56,73.1,75,M4,-205,205,-215,,205,125,132.5,-140,,132.5,175,185,195,,195,532.5,1,Wraps,SBD
Vladana Radonjić,,F,16,82.3,82.5,T2,140,150,-160,,150,45,50,-55,,50,120,-130,-130,,120,320,1,Wraps,SBD
Mari Jäntti,,F,20,76.9,82.5,J,100,-110,-110,,100,50,-55,-55,,50,120,-130,-130,,120,270,1,Wraps,SBD
Almira Lizde,,F,35,79.7,82.5,O,-180,180,-190,,180,-85,85,90,,90,225,232.5,240,,240,510,1,Wraps,SBD
Sara Harpin,,F,37,80.1,82.5,O,165,180,-190,,180,102.5,110,115,,115,175,190,205,,205,500,2,Wraps,SBD
Soledad Mariel Gomez,,F,34,80,82.5,O,155,165,172.5,,172.5,72.5,82.5,-87.5,,82.5,165,180,187.5,,187.5,442.5,3,Wraps,SBD
Minna Pajulahti,,F,36,85.1,90,O,160,175,185,,185,110,115,120,,120,180,190,200,,200,505,1,Wraps,SBD
Kristína Huttová,,F,25,83.9,90,O,150,160,175,,175,80,85,90,,90,205,210,217.5,,217.5,482.5,2,Wraps,SBD
Milena Martinović,,F,18,117.5,110+,T3,135,142.5,147.5,152.5,147.5,87.5,92.5,95,-97.5,95,145,155,160,165,160,402.5,1,Wraps,SBD
Mariela Ortellado,,F,32,94.7,110,O,210,225,-237.5,,225,100,110,115,,115,220.5,230,-237.5,,230,570,1,Wraps,SBD
Mirtill Lachmann,,F,25,94.2,110,O,220,235,-242.5,,235,90,97.5,-102.5,,97.5,205,215,-220,,215,547.5,2,Wraps,SBD
Catherine Iredale,,F,26,107.6,110,O,160,165,,,165,80,-85,-85,,80,165,175,-182.5,,175,420,3,Wraps,SBD
Charlotte Wareing,,F,55,101.5,110,M4,132.5,145,155,,155,90,100,-105,,100,180,-190,,,180,435,1,Wraps,SBD
Michaela Gerlichová,,F,28,56,56,O,60,70,77.5,,77.5,30,37.5,40,,40,85,100,105,,105,222.5,1,Multi-ply,SBD
Laura Hague,,F,26,59.6,60,O,170,-190,190,,190,95,105,,,105,150,167.5,175,180,175,470,1,Multi-ply,SBD
Rehiana Manier,,F,42,67,67.5,M1,170,-185,185,-201,185,85,92.5,100,-116,100,152.5,160,,,160,445,1,Multi-ply,SBD
Aida Agvero,,F,56,73.6,75,M4,-200,-200,,,,,,,,,,,,,,,DQ,Multi-ply,SBD
Jana Majorová,,F,24,81.4,82.5,O,190,-200,,,190,95,-105,105,,105,190,210,218,,218,512.5,1,Multi-ply,SBD
Charlotte Wareing,,F,55,101.6,110,M4,155,165,-175,,165,90,100,102.5,,102.5,175,185,190,,190,457.5,1,Multi-ply,SBD
Dominik Filip,,M,17,59.3,60,T2,125,140,-150,,140,65,-75,75,,75,145,158,165,170,165,380,1,Multi-ply,SBD
Daniel Pianka,,M,40,57.8,60,O,160,-175,-180,,160,-120,120,-135,,120,180,195,210,,210,490,1,Multi-ply,SBD
Pavel Malina,,M,57,59.1,60,M4,175,192.5,,,192.5,100,107.5,112.5,,112.5,160,175,-180,,175,480,1,Multi-ply,SBD
Jonathan Bar,,M,21,65.2,67.5,J,-150,-150,150,,150,95,100,102.5,,102.5,180,187.5,-195,,187.5,440,1,Multi-ply,SBD
Gary Bobrovitz,,M,65,65.6,67.5,M6,60,,,,60,135,140,142.5,-145,142.5,-60,60,,,60,262.5,1,Multi-ply,SBD
Ruzbeh Jafarinamin,,M,31,74.55,75,O,180,200,,,200,120,135,145,,145,190,210,,,210,555,1,Multi-ply,SBD
Martin Uher,,M,24,68,75,O,140,155,170,,170,80,-90,90,,90,175,185,,,185,445,2,Multi-ply,SBD
Burkhard Steffen,,M,67,71.25,75,M6,-130,130,,,130,90,95,-100,,95,130,,,,130,355,1,Multi-ply,SBD
Grigori Rubin,,M,81,73.5,75,M9,-135,140,145,,145,105,110,112.5,,112.5,155,-160,162.5,,162.5,420,1,Multi-ply,SBD
Jan Kasper,,M,18,82.2,82.5,T3,-185,185,200,,200,115,125,135,,135,185,200,210,,210,545,1,Multi-ply,SBD
Lee Powell,,M,33,82.1,82.5,O,275,-301,301,,301,165,177.5,,,177.5,255,260,275,,275,753.5,1,Multi-ply,SBD
Edgars Peterlēvics,,M,31,81.6,82.5,O,-250,250,-275,,250,-225,225,230,,230,235,-245,-245,,235,715,2,Multi-ply,SBD
Karol Brečka,,M,56,76.9,82.5,M4,165,180,-190,,180,105,120,125,,125,170,190,200,,200,505,1,Multi-ply,SBD
William Kidd,,M,72,80,82.5,M7,-140,140,160,171,160,80,-91,91,,91,160,181,190,,190,441,1,Multi-ply,SBD
Amarzaya Taivantumur,,M,30,89.5,90,O,-260,260,300,,300,235,250,-272.5,,250,240,-270,,,240,790,1,Multi-ply,SBD
Pavel Drtina,,M,35,89.3,90,O,230,250,-265,,250,190,200,210,,210,220,-235,235,,235,695,2,Multi-ply,SBD
Tomáš Lepieš,,M,37,88.6,90,O,205,215,225,,225,130,-137.5,-137.5,,130,215,240,250,,250,605,3,Multi-ply,SBD
Duncan Minns,,M,42,88.9,90,M1,285,295,310,,310,135,145,150,,150,260,280,290,,290,750,1,Multi-ply,SBD
Michal Červinka,,M,57,89.95,90,M4,-220,220,235,,235,110,117.5,122.5,,122.5,200,-210,,,200,557.5,1,Multi-ply,SBD
Stanislav Hoza,,M,61,86.4,90,M5,240,255,-275,,255,160,165,172.5,,172.5,200,-210,,,200,627.5,1,Multi-ply,SBD
Stefan Sochaňski,,M,68,89.6,90,M6,205,225,,,225,110,120,-125,,120,210,230,-242,,230,575,1,Multi-ply,SBD
Daniel Sánchez,,M,43,95.7,100,O,-350,350,380,,380,150,-265,-270,,150,280,-295,,,280,810,1,Multi-ply,SBD
Ariunbatar Sharavdorj,,M,35,90.4,100,O,280,300,320,,320,200,-215,,,200,260,,,,260,780,2,Multi-ply,SBD
Erik Knöfler,,M,36,96.9,100,O,-340,-340,,,,,,,,,,,,,,,DQ,Multi-ply,SBD
Filip Pilný,,M,19,101.75,110,T3,240,-260,-260,,240,140,-160,-160,,140,180,,,,180,560,1,Multi-ply,SBD
Cesar Emilio Mansilla,,M,33,107.8,110,O,320,-340,-340,,320,145,180,-190,,180,270,285,310,,310,810,1,Multi-ply,SBD
Ken Trommel,,M,48,104.9,110,M2,280,295,300,,300,160,-170,170,,170,260,275,-290,,275,745,1,Multi-ply,SBD
Michael Martin,,M,54,107.9,110,M3,300,-327,-327,,300,142.5,160,-175,,160,280,-300,-300,,280,740,1,Multi-ply,SBD
Janík Velgos,,M,16,119,125,T2,340,350,355,,355,-310,-310,-310,,,,,,,,,DQ,Multi-ply,SBD
Jani Toivo Kristian Ihalainen,,M,42,123.25,125,O,230,250,,,250,230,-245,-245,,230,220,250,272.5,,272.5,752.5,1,Multi-ply,SBD
Eric Bar,,M,48,115.6,125,M2,225,240,-250,,240,-190,190,-195,,190,255,-272.5,-272.5,,255,685,1,Multi-ply,SBD
Andrew Cairney,Scotland,M,38,129.3,140,O,370,380,390,,390,260,270,-280,,270,320,330,,,330,990,1,Multi-ply,SBD
Mehsen Estakhr,,M,47,131.3,140,M2,200,220,,,220,120,-130,,,120,180,,,,180,520,1,Multi-ply,SBD
Gary Boulton,,M,53,128.7,140,M3,320,340,-365,,340,235,250,-260,,250,265,300,-311.5,-311.5,300,890,1,Multi-ply,SBD
Stefan Schmidt,,M,36,143.7,140+,O,250,275,-280,,275,230,-240,240,,240,210,230,242.5,,242.5,757.5,1,Multi-ply,SBD
Micaela Lopez,,F,24,47.3,48,O,110,125,-135,,125,,,,,,,,,,,125,1,Wraps,S
Martina Novotná,,F,26,54.66,56,O,-100,100,110,-113,110,,,,,,,,,,,110,1,Wraps,S
Aleksandra Drtinová,,F,35,59.5,60,O,115,127.5,135,,135,,,,,,,,,,,135,1,Wraps,S
Laura Pešić,,F,41,64.05,67.5,O,-155,155,160,-165,160,,,,,,,,,,,160,1,Wraps,S
Aida Agüero,,F,56,73.6,75,M4,200,215,,,215,,,,,,,,,,,215,1,Wraps,S
Minna Pajulahti,,F,36,86.1,90,O,125.5,126,126.5,,126.5,,,,,,,,,,,126.5,1,Wraps,S
Maria Leticia Bertotto,,F,45,89.1,90,M2,-190,-190,190,,190,,,,,,,,,,,190,1,Wraps,S
Mariela Ortellado,,F,32,95.1,110,O,-220,-220,220,,220,,,,,,,,,,,220,1,Wraps,S
Charlotte Wareing,,F,55,101.6,110,M4,132.5,142.5,152.5,,152.5,,,,,,,,,,,152.5,1,Wraps,S
Łukasz Górecki,,M,33,66.2,67.5,O,160,-175,175,,175,,,,,,,,,,,175,1,Wraps,S
Miroslav Andreáš,,M,29,66.4,67.5,O,140,155,-165,,155,,,,,,,,,,,155,2,Wraps,S
Budgie Mullan,,M,73,66,67.5,M7,80,90,92.5,-97.5,92.5,,,,,,,,,,,92.5,1,Wraps,S
Jiří Píbal,,M,18,74.2,75,T3,190,210,220.5,,220.5,,,,,,,,,,,220.5,1,Wraps,S
Ruzbeh Jafarinamin,,M,31,74.55,75,O,190,205,215,,215,,,,,,,,,,,215,1,Wraps,S
Zbyněk Dušánek,,M,29,74.2,75,O,180,190,200,215.5,200,,,,,,,,,,,200,2,Wraps,S
Roman Mandík,,M,49,73.8,75,M2,145,155,162.5,,162.5,,,,,,,,,,,162.5,1,Wraps,S
Adam Vokál,,M,24,79.4,82.5,O,180,200,,,200,,,,,,,,,,,200,1,Wraps,S
Robert Kolena,,M,22,89.2,90,J,-180,190,200,,200,,,,,,,,,,,200,1,Wraps,S
Amarzaya Taivantumur,,M,30,89.5,90,O,260,-301,-301,,260,,,,,,,,,,,260,1,Wraps,S
Petr Keliar,,M,33,89.1,90,O,215,-225,225,,225,,,,,,,,,,,225,2,Wraps,S
Viktor Horák,,M,40,88.5,90,M1,-250,250,300.5,301,300.5,,,,,,,,,,,300.5,1,Multi-ply,S
Ivan Giňovský,,M,50,88.9,90,M3,225,235,-242.5,,235,,,,,,,,,,,235,1,Wraps,S
Peter Herák,,M,56,87.8,90,M4,222.5,237.5,242.5,,242.5,,,,,,,,,,,242.5,1,Wraps,S
Stefan Sochaňski,,M,68,89.6,90,M6,155,165,-175,,165,,,,,,,,,,,165,1,Wraps,S
Ariunbatas Sharavdorj,,M,35,90.4,100,O,250,265,-290,,265,,,,,,,,,,,265,1,Wraps,S
Martin Hurdálek,,M,39,96.5,100,O,220,240,-250,,240,,,,,,,,,,,240,2,Wraps,S
Phuc Nguyen,,M,25,97.6,100,O,220,240,-252.5,,240,,,,,,,,,,,240,3,Wraps,S
Markus Sutinen,,M,32,97,100,O,-290,-290,-290,,,,,,,,,,,,,,DQ,Wraps,S
Gustavo Miño,,M,46,94.8,100,M2,200,-210,-210,,200,,,,,,,,,,,200,1,Wraps,S
Stephane Bouton,,M,45,96.5,100,M2,170,-185,190,,190,,,,,,,,,,,190,2,Wraps,S
Roman Zigo,,M,44,97.8,100,M1,130,160,175,-220.5,175,,,,,,,,,,,175,1,Wraps,S
Cesar Emilio Mansilla,,M,33,109.2,110,O,-260,260,272.5,,272.5,,,,,,,,,,,272.5,1,Wraps,S
Dmytro Hotlashov,,M,32,109.7,110,O,230,250,272.5,,272.5,,,,,,,,,,,272.5,2,Wraps,S
Martin Homola,,M,23,120.3,125,J,300,-320.5,,,300,,,,,,,,,,,300,1,Wraps,S
Zsolt Antal,,M,42,113.6,125,M1,280,290,-300,300,290,,,,,,,,,,,290,1,Wraps,S
Oleksandr Desiatskyi,,M,40,124.75,125,M1,220,230,240,,240,,,,,,,,,,,240,2,Wraps,S
Mohsen Estakhr,,M,47,131.3,140,M2,220,235,-250,,235,,,,,,,,,,,235,1,Wraps,S
Maniar Rehana,,F,42,67.5,67.5,M1,170,-185,185,-195,185,,,,,,,,,,,185,1,Multi-ply,S
Aida Agüero,,F,56,73.3,75,M4,220,-235,-235,,220,,,,,,,,,,,220,1,Multi-ply,S
Minna Pajulahti,,F,36,85.7,90,O,125,130,135,,135,,,,,,,,,,,135,1,Multi-ply,S
Charlotte Wareing,,F,55,103.65,110,M4,155,165,170,,170,,,,,,,,,,,170,1,Multi-ply,S
Dominik Filip,,M,17,60,60,T2,130,140,145,,145,,,,,,,,,,,145,1,Multi-ply,S
Pavel Malina,,M,57,59.95,60,M4,175,192.5,200,205,200,,,,,,,,,,,200,1,Multi-ply,S
Aleksandar Tošić,,M,22,69.65,75,J,117.5,125,-130,,125,,,,,,,,,,,125,1,Multi-ply,S
Grigori Rubin,,M,81,74.1,75,M9,137.5,-145,150,,150,,,,,,,,,,,150,1,Multi-ply,S
Mieczysłąw Maczka,,M,63,81.4,82.5,M5,100,115,125,,125,,,,,,,,,,,125,1,Multi-ply,S
William Kidd,,M,72,82,82.5,M7,-150,-150,150,172,150,,,,,,,,,,,150,1,Multi-ply,S
Áron Benjámin Mező,,M,20,89,90,J,190,215,-235,235,215,,,,,,,,,,,215,1,Multi-ply,S
Daniel Sánchez,,M,43,97.5,100,O,340,360,-380,,360,,,,,,,,,,,360,1,Multi-ply,S
Lee Powell,,M,33,91.3,100,O,-275,275,-302.5,302.5,275,,,,,,,,,,,275,1,Multi-ply,S
Michal Červinka,,M,57,90.95,100,M4,215,232.5,-240,,232.5,,,,,,,,,,,232.5,1,Multi-ply,S
Stefan Sochaňski,,M,68,90.85,100,M6,200,227,,,227,,,,,,,,,,,227,1,Multi-ply,S
Cesar Emilio Mansilla,,M,33,109.95,110,O,290,320,340,350,340,,,,,,,,,,,340,1,Multi-ply,S
Steve Hampton,,M,48,106.06,110,M2,270,290,-295.5,,290,,,,,,,,,,,290,1,Single-ply,S
Ken Trommel,,M,48,106.85,110,M2,270,285,-295,295,285,,,,,,,,,,,285,1,Multi-ply,S
Lee Marshall,,M,58,116.6,125,M4,330,350,360,,360,,,,,,,,,,,360,1,Multi-ply,S
Jani Toivo Kristian Ihalainen,,M,42,129.15,140,O,235,245,255,,255,,,,,,,,,,,255,1,Multi-ply,S
Irina Pomerantsev,,F,47,42.06,44,M2,,,,,,60,63,63.5,,63.5,,,,,,63.5,1,Raw,B
Anita Grądzka,,F,33,44.86,48,O,,,,,,62.5,67.5,70,73,70,,,,,,70,1,Raw,B
Micaela Lopez,,F,24,48,48,O,,,,,,62.5,67.5,-70,,67.5,,,,,,67.5,2,Raw,B
Leslie Watson,,F,69,47,48,M6,,,,,,55,57.5,60,,60,,,,,,60,1,Raw,B
Yevheniia Sakaly,,F,13,50.76,52,T1,,,,,,57.5,62.5,65,-67.5,65,,,,,,65,1,Raw,B
Ana Knežević,,F,20,52.92,56,J,,,,,,-32.5,-32.5,32.5,,32.5,,,,,,32.5,1,Raw,B
Dóra Schopf,,F,43,50.3,52,M1,,,,,,75,80,82.5,85,82.5,,,,,,82.5,1,Raw,B
Inge Kaule,,F,64,49.8,52,M5,,,,,,52.5,55.5,-56,,55.5,,,,,,55.5,1,Raw,B
Dominika Kulcsár,,F,14,54.62,56,T1,,,,,,47.5,52.5,-55,,52.5,,,,,,52.5,1,Raw,B
Szilvia Bartha,,F,18,53.04,56,T3,,,,,,60,65,70,,70,,,,,,70,1,Raw,B
Vanessa Torres,,F,30,55.78,56,O,,,,,,95,-100,100,-102.5,100,,,,,,100,1,Raw,B
Jolanta Anasiewicz-Popowicz,,F,48,56,56,M2,,,,,,-75,-75,-75,,,,,,,,,DQ,Raw,B
Bettina Razzouki-Korkis,,F,52,56,56,M3,,,,,,65,71,72.5,-73,72.5,,,,,,72.5,1,Raw,B
Amanda Ungai,,F,13,57.24,60,T1,,,,,,35,40.5,42.5,44,42.5,,,,,,42.5,1,Raw,B
Honorata Kaczorowska,,F,32,65.85,67.5,O,,,,,,110,120,-122.5,,120,,,,,,120,1,Raw,B
Mónika Bazsó,,F,43,67.25,67.5,M1,,,,,,82.5,92.5,-97.5,97.5,92.5,,,,,,92.5,1,Raw,B
Thomas Lesley,,F,51,65.9,67.5,M3,,,,,,70,75,-77.5,,75,,,,,,75,1,Raw,B
Lydie Pons,,F,66,61.15,67.5,M6,,,,,,65,70,72.5,,72.5,,,,,,72.5,1,Raw,B
Ingrid Cedel,,F,70,61.3,67.5,M7,,,,,,40,42.5,45,,45,,,,,,45,1,Raw,B
Tatiana Brodetská,,F,21,73.65,75,J,,,,,,75,82.5,87.5,-90,87.5,,,,,,87.5,1,Raw,B
Anna Paluszik,,F,27,70.3,75,O,,,,,,60,65,-67.5,,65,,,,,,65,1,Raw,B
Aida Agüero,,F,56,72,75,M4,,,,,,122.5,130,-136,,130,,,,,,130,1,Raw,B
Carmena Luty,,F,18,77.8,82.5,T3,,,,,,60,65,67.5,,67.5,,,,,,67.5,1,Raw,B
Tatiana Magulová,,F,36,75.7,82.5,O,,,,,,70,75,80,,80,,,,,,80,1,Raw,B
Tereza Burkoňová,,F,39,76.7,82.5,O,,,,,,60,65,-67.5,,65,,,,,,65,2,Raw,B
Sandra Bileiše,,F,53,79.35,82.5,M3,,,,,,90,95,100,,100,,,,,,100,1,Raw,B
Minna Pajulahti,,F,36,86.45,90,O,,,,,,120,-125,-125,,120,,,,,,120,1,Raw,B
Andreja Valant,,F,37,88.55,90,O,,,,,,62.5,-67.5,-67.5,,62.5,,,,,,62.5,2,Raw,B
Irena Dvorská,,F,43,89.2,90,M1,,,,,,95,105,-112.5,,105,,,,,,105,1,Raw,B
Maria Leticia Bertotto,,F,46,89,90,M2,,,,,,115,122.5,127.5,-130,127.5,,,,,,127.5,1,Raw,B
Gisela Witte,,F,59,85.6,90,M4,,,,,,50,60,70,75,70,,,,,,70,1,Raw,B
Krystyna Puzio,,F,52,96.5,110,M3,,,,,,55,60,65,-66,65,,,,,,65,1,Raw,B
Michał Zębrowski,,M,26,55.16,56,O,,,,,,90,97.5,100,,100,,,,,,100,1,Raw,B
Jiří Lacina,,M,26,59.6,60,O,,,,,,110,115,,,115,,,,,,115,1,Raw,B
Ondřej Kaucký,,M,15,67.15,67.5,T1,,,,,,77.5,85,-90,,85,,,,,,85,1,Raw,B
László Kozák,,M,16,60.65,67.5,T2,,,,,,135,146,152.5,,152.5,,,,,,152.5,1,Raw,B
Patryk Strzałek,,M,16,67.4,67.5,T2,,,,,,90,95,-97.5,,95,,,,,,95,2,Raw,B
Etienne Herbin,,M,22,67.5,67.5,J,,,,,,-95,95,100,,100,,,,,,100,1,Raw,B
Sevak Manukyan,,M,33,66.8,67.5,O,,,,,,150,160,-170,,160,,,,,,160,1,Raw,B
Paweł Hubisz,,M,24,66.95,67.5,O,,,,,,140,145,-147.5,147.5,145,,,,,,145,2,Raw,B
Michael Watt,,M,35,67.5,67.5,O,,,,,,130,137.5,-145,,137.5,,,,,,137.5,3,Raw,B
Krzysztof Kuraciński,,M,30,66.8,67.5,O,,,,,,130,135,-142.5,-147.5,135,,,,,,135,4,Raw,B
Lukáš Sobotka,,M,25,67.4,67.5,O,,,,,,105,-110,-112.5,,105,,,,,,105,5,Raw,B
László Simon,,M,40,65.9,67.5,M1,,,,,,120,125,130,,130,,,,,,130,1,Raw,B
Boshko Stamenkovski,,M,46,66.15,67.5,M2,,,,,,112.5,-117.5,117.5,121,117.5,,,,,,117.5,1,Raw,B
Antoni Kaliňski,,M,63,67.05,67.5,M5,,,,,,100,105,110,,110,,,,,,110,1,Raw,B
Gary Bobrovitz,,M,65,66.4,67.5,M6,,,,,,110,112.5,115,-117.5,115,,,,,,115,1,Raw,B
Andreas Vigh,,M,73,65.95,67.5,M7,,,,,,75,80,82.5,,82.5,,,,,,82.5,1,Raw,B
Budgie Mullan,,M,73,66.1,67.5,M7,,,,,,60,65,-70,,65,,,,,,65,2,Raw,B
Gerd Cedel,,M,75,65.7,67.5,M8,,,,,,80,82.5,-85,,82.5,,,,,,82.5,1,Raw,B
Dávid Horák,,M,14,73.1,75,T1,,,,,,50,57.5,65,,65,,,,,,65,1,Raw,B
Roman Fuksa,,M,16,73.25,75,T2,,,,,,90,100,105,,105,,,,,,105,1,Raw,B
Nikola Stanković,,M,17,71.45,75,T2,,,,,,95,-100,-100,,95,,,,,,95,2,Raw,B
Lukáš Vašíček,,M,22,73.45,75,J,,,,,,100,-115,-120,,100,,,,,,100,1,Raw,B
Konrad Adamaszek,,M,30,73,75,O,,,,,,185,190,-192.5,,190,,,,,,190,1,Raw,B
Marcin Dulko,,M,24,74.65,75,O,,,,,,172.5,180,-185,,180,,,,,,180,2,Raw,B
Zdeněk Holeček,,M,29,73.8,75,O,,,,,,145,155,160,,160,,,,,,160,3,Raw,B
Krzysztof Wieczorek,,M,38,75,75,O,,,,,,120,127.5,-132.5,,127.5,,,,,,127.5,4,Raw,B
Lukáš Dorazil,,M,34,74.05,75,O,,,,,,100,110,120,,120,,,,,,120,5,Raw,B
Wiesław Kiwacki,,M,40,73.95,75,M1,,,,,,140,145,-150,,145,,,,,,145,1,Raw,B
Zsolt Karlik,,M,45,73.55,75,M2,,,,,,120,125,130,,130,,,,,,130,1,Raw,B
Roman Mandík,,M,49,74.7,75,M2,,,,,,110,-117.5,-117.5,,110,,,,,,110,2,Raw,B
Alexandr Rabinovich,,M,50,73.47,75,M3,,,,,,152.5,160,-165,,160,,,,,,160,1,Raw,B
Josef St. Peška,,M,51,73.65,75,M3,,,,,,125,-132.5,132.5,,132.5,,,,,,132.5,2,Raw,B
Jacky Dubus,,M,56,73.7,75,M4,,,,,,90,100,-110,,100,,,,,,100,1,Raw,B
Zbigniew Koper,,M,63,74.55,75,M5,,,,,,95,100,-105,,100,,,,,,100,1,Raw,B
Joannis Sulime,,M,66,74.5,75,M6,,,,,,100,105,110,,110,,,,,,110,1,Raw,B
Guylhem Feraud,,M,72,73.75,75,M7,,,,,,105,110,-112.5,,110,,,,,,110,1,Raw,B
Grigori Rubin,,M,81,74.5,75,M9,,,,,,85,90,92.5,95,92.5,,,,,,92.5,1,Raw,B
Eric Benik,,M,17,81.3,82.5,T2,,,,,,125,-130,,,125,,,,,,125,1,Raw,B
Dominik Wasilkiewicz,,M,17,77,82.5,T2,,,,,,80,90,-95,,90,,,,,,90,2,Raw,B
Daniel Gnatowski,,M,19,76.35,82.5,T3,,,,,,130,135,140,,140,,,,,,140,1,Raw,B
Konrad Majocha,,M,19,82.35,82.5,T3,,,,,,-120,120,-130,,120,,,,,,120,2,Raw,B
Jaroslav Vácha,,M,22,79.25,82.5,J,,,,,,145.5,150,-152.5,,150,,,,,,150,1,Raw,B
Martin McNamara,,M,22,80.9,82.5,J,,,,,,125,-130,-130,,125,,,,,,125,2,Raw,B
Tomáš Ryšavý,,M,26,80.6,82.5,O,,,,,,180,187.5,192.5,,192.5,,,,,,192.5,1,Raw,B
Eddie Dunne,,M,39,81.65,82.5,O,,,,,,170,177.5,-190,,177.5,,,,,,177.5,2,Raw,B
Paweł Nowak,,M,24,81.05,82.5,O,,,,,,-170,-170,170,,170,,,,,,170,3,Raw,B
Kamil Babiš,,M,25,81.35,82.5,O,,,,,,150,160,-165,,160,,,,,,160,4,Raw,B
Okkec Korucu,,M,39,77.55,82.5,O,,,,,,145,150,155,,155,,,,,,155,5,Raw,B
Ahmed Jacub,,M,27,82,82.5,O,,,,,,140,152.5,-162.5,,152.5,,,,,,152.5,6,Raw,B
Janoš Ungai,,M,41,75.8,82.5,M1,,,,,,120,130,140,,140,,,,,,140,1,Raw,B
Dmitrij Kukharenko,,M,48,79,82.5,M2,,,,,,-170,170,180,,180,,,,,,180,1,Raw,B
Tám Nguyen #1,,M,47,81.6,82.5,M2,,,,,,140,150,160,,160,,,,,,160,2,Raw,B
Robert Tomáš,,M,45,82.5,82.5,M2,,,,,,140,-150,150,,150,,,,,,150,3,Raw,B
László Jantek,,M,51,82,82.5,M3,,,,,,150,167.5,-170,,167.5,,,,,,167.5,1,Raw,B
Milan Suk,,M,54,77.65,82.5,M3,,,,,,-160,165,-168,-168,165,,,,,,165,2,Raw,B
Dudi Eilat,,M,51,81.95,82.5,M3,,,,,,120,-125,-125,,120,,,,,,120,3,Raw,B
Itsik Zohar,,M,56,81.85,82.5,M4,,,,,,145,155,157.5,160,157.5,,,,,,157.5,1,Raw,B
Mirosław Urbaniak,,M,56,82.05,82.5,M4,,,,,,135,-140,140,,140,,,,,,140,2,Raw,B
Francis Lonardi,,M,55,82.25,82.5,M4,,,,,,110,115,-117.5,,115,,,,,,115,3,Raw,B
Hartmut Niemann,,M,63,79.85,82.5,M5,,,,,,130,-137.5,-137.5,,130,,,,,,130,1,Raw,B
Mieczysłąw Maczka,,M,63,81.75,82.5,M5,,,,,,100,107.5,115,,115,,,,,,115,2,Raw,B
Jean-Rene Chauvin,,M,61,80,82.5,M5,,,,,,95,-100,-100,,95,,,,,,95,3,Raw,B
Bill Healy,,M,67,80.95,82.5,M6,,,,,,130,140,-145,-148,140,,,,,,140,1,Raw,B
Chris Gilbert,,M,67,81.25,82.5,M6,,,,,,90,100,110,,110,,,,,,110,2,Raw,B
Matej Ševčík,,M,15,83.4,90,T1,,,,,,120,-127.5,127.5,-132.5,127.5,,,,,,127.5,1,Raw,B
Max Glok,,M,16,89.6,90,T2,,,,,,100,107.5,110,,110,,,,,,110,1,Raw,B
Tomáš Procházka,,M,18,84.1,90,T3,,,,,,-140,145,-155,,145,,,,,,145,1,Raw,B
Dennis Glok,,M,19,83.3,90,T3,,,,,,110,117.5,-120,,117.5,,,,,,117.5,2,Raw,B
Milan Zeman,,M,23,87.15,90,J,,,,,,165,175,180,,180,,,,,,180,1,Raw,B
Áron Benjámin Mező,,M,20,88.7,90,J,,,,,,130,140,-180,,140,,,,,,140,2,Raw,B
Jarosław Buczkov,,M,25,89.3,90,O,,,,,,205,-215,-215,,205,,,,,,205,1,Raw,B
Jonáš Uher,,M,30,85.95,90,O,,,,,,180,185,190,,190,,,,,,190,2,Raw,B
Kamil Bubeníček,,M,24,88.4,90,O,,,,,,-180,180,190,,190,,,,,,190,3,Raw,B
Ondřej Vytlačil,,M,30,88.1,90,O,,,,,,180,185,-190,,185,,,,,,185,4,Raw,B
Jani Kristian Loippo,,M,25,83.45,90,O,,,,,,160,170,-180,,170,,,,,,170,5,Raw,B
Lajos Cseh,,M,43,87.2,90,M1,,,,,,162.5,170,177.5,,177.5,,,,,,177.5,1,Raw,B
Alexander Benik,,M,42,88.95,90,M1,,,,,,165,170,-177.5,,170,,,,,,170,2,Raw,B
Juliusz Zbierski,,M,43,88,90,M1,,,,,,155,160,165,,165,,,,,,165,3,Raw,B
Andrey Bogatkov,,M,42,89.7,90,M1,,,,,,160,162.5,-167.5,,162.5,,,,,,162.5,4,Raw,B
Roman Oborný,,M,42,87,90,M1,,,,,,130,-140,-140,,130,,,,,,130,5,Raw,B
Rodrigo Sanchez,,M,46,90,90,M2,,,,,,150,162.5,170,,170,,,,,,170,1,Raw,B
Vladan Zapletal,,M,46,85.25,90,M2,,,,,,140,145,150,,150,,,,,,150,2,Raw,B
Zdeněk Brauner,,M,45,89.3,90,M2,,,,,,-140,-140,150,,150,,,,,,150,3,Raw,B
Miroslav Šefl,,M,46,88.55,90,M2,,,,,,132.5,140,-150,,140,,,,,,140,4,Raw,B
László Kupcsik,,M,50,89.15,90,M3,,,,,,200,212.5,217.5,,217.5,,,,,,217.5,1,Raw,B
Alexander Bark,,M,54,85.15,90,M3,,,,,,112.5,117.5,122.5,,122.5,,,,,,122.5,2,Raw,B
Tamás Brauner,,M,56,88.1,90,M4,,,,,,155,160,165,,165,,,,,,165,1,Raw,B
Leonid Averbakh,,M,57,84.15,90,M4,,,,,,112.5,117.5,120,,120,,,,,,120,2,Raw,B
Jean-François Denis,,M,61,88.9,90,M5,,,,,,170,177,180,,180,,,,,,180,1,Raw,B
Jozef Völgyák,,M,65,88.1,90,M6,,,,,,130,135,,,135,,,,,,135,1,Raw,B
Eduard Novotný,,M,69,85.3,90,M6,,,,,,90,100,105,,105,,,,,,105,2,Raw,B
Petr Vogel,,M,19,97.75,100,T3,,,,,,-200,-210,-210,,,,,,,,,DQ,Raw,B
Gergő Vakarcs,,M,21,99.4,100,J,,,,,,200,,-205,,200,,,,,,200,1,Raw,B
David Klír,,M,22,99.15,100,J,,,,,,180,190,-200,,190,,,,,,190,2,Raw,B
Gor Andreasyan,,M,20,95.75,100,J,,,,,,160,165,-170,,165,,,,,,165,3,Raw,B
Robert Kanclerz,,M,39,92.85,100,O,,,,,,190,195,200,,200,,,,,,200,1,Raw,B
Petr Hanák,,M,34,95.5,100,O,,,,,,185,195,-200,,195,,,,,,195,2,Raw,B
Josef Ml. Peška,,M,27,96.45,100,O,,,,,,190,195,-202.5,,195,,,,,,195,3,Raw,B
Gerard Toomey,,M,37,99.7,100,O,,,,,,182.5,190,-195,,190,,,,,,190,4,Raw,B
Darren Bennett,,M,33,98.35,100,O,,,,,,180,-190,-200,,180,,,,,,180,5,Raw,B
Rob Maguire #1,,M,28,99.55,100,O,,,,,,170,180,-185,,180,,,,,,180,6,Raw,B
Nikola Reljić,,M,28,94.8,100,O,,,,,,170,-177.5,-177.5,,170,,,,,,170,7,Raw,B
Petr Maceášik,,M,42,97.05,100,M1,,,,,,200,210,-215,,210,,,,,,210,1,Raw,B
Marek Bouchal,,M,43,98.6,100,M1,,,,,,185,190,-195,,190,,,,,,190,2,Raw,B
Stanislav Tůma,,M,40,98.65,100,M1,,,,,,160,-170,172.5,,172.5,,,,,,172.5,3,Raw,B
Grzegorz Drewniany,,M,40,98.2,100,M1,,,,,,160,167.5,170,,170,,,,,,170,4,Raw,B
Rob Preston,,M,48,98.7,100,M2,,,,,,180,185,190,,190,,,,,,190,1,Raw,B
Bruno Walter,,M,49,95.15,100,M2,,,,,,-175,175,-180,,175,,,,,,175,2,Raw,B
Stephane Bouton,,M,45,96.5,100,M2,,,,,,145,157.5,165,,165,,,,,,165,3,Raw,B
Miroslav Drnek,,M,45,91.05,100,M2,,,,,,145,152.5,155,,155,,,,,,155,4,Raw,B
Gustavo Miño,,M,46,95.05,100,M2,,,,,,140,-145,145,,145,,,,,,145,5,Raw,B
Zsolt Mohácsi,,M,51,99.05,100,M3,,,,,,150,160,,,160,,,,,,160,1,Raw,B
Stanislav Jakubec,,M,50,99.95,100,M3,,,,,,150,-157.5,-157.5,,150,,,,,,150,2,Raw,B
Andris Zalitis,,M,53,97,100,M3,,,,,,140,145,-150,,145,,,,,,145,3,Raw,B
Mirosław Borkowski,,M,54,98.95,100,M3,,,,,,130,135,-150,,135,,,,,,135,4,Raw,B
József Sztanke,,M,63,93.2,100,M5,,,,,,160,-170,170,,170,,,,,,170,1,Raw,B
Wiesław Wrŏbel,,M,60,98.15,100,M5,,,,,,120,130,,,130,,,,,,130,2,Raw,B
Marc Assirelli,,M,69,96.75,100,M6,,,,,,130,140,-142.5,,140,,,,,,140,1,Raw,B
Vladimír Svoboda,,M,65,97.2,100,M6,,,,,,110,115,120,,120,,,,,,120,2,Raw,B
Miroslaw Orłowski,,M,73,97.45,100,M7,,,,,,135,140,142.5,,142.5,,,,,,142.5,1,Raw,B
Martin Mikeš,,M,16,106.95,110,T2,,,,,,110,120,127.5,,127.5,,,,,,127.5,1,Raw,B
Lukáš Tomášov,,M,19,100.8,110,T3,,,,,,145,155,-165,,155,,,,,,155,1,Raw,B
Patrik Vojtěch,,M,18,106.5,110,T3,,,,,,-140,-140,,,,,,,,,,DQ,Raw,B
Petr Svoboda,,M,23,108.25,110,J,,,,,,207.5,215,220,,220,,,,,,220,1,Raw,B
Stanislav Močkor,,M,21,105.35,110,J,,,,,,190,200,-205,,200,,,,,,200,2,Raw,B
Patrik Till,,M,20,103,110,J,,,,,,-195,195,-202.5,,195,,,,,,195,3,Raw,B
Matej Grígel,,M,22,105.3,110,J,,,,,,-185,192.5,-200,,192.5,,,,,,192.5,4,Raw,B
Lukáš Forejtek,,M,23,106.5,110,J,,,,,,192.5,-197.5,-197.5,,192.5,,,,,,192.5,5,Raw,B
Roman Petrás,,M,22,108.95,110,J,,,,,,170,180,185,,185,,,,,,185,6,Raw,B
Vlastimil Kužel,,M,29,109.75,110,O,,,,,,250,255,260,,260,,,,,,260,1,Raw,B
Ákos Oláh,,M,28,105.5,110,O,,,,,,205,217.5,227.5,,227.5,,,,,,227.5,2,Raw,B
Daniel Boss,,M,34,108.65,110,O,,,,,,205,217.5,-227.5,,217.5,,,,,,217.5,3,Raw,B
Damian Rataj,,M,24,105.15,110,O,,,,,,212.5,-217.5,-217.5,,212.5,,,,,,212.5,4,Raw,B
Daniel Žarnowski,,M,36,108.75,110,O,,,,,,155,162.5,-170,,162.5,,,,,,162.5,5,Raw,B
Juraj Grígeľ,,M,24,105.9,110,O,,,,,,-205,-215,-215,,,,,,,,,DQ,Raw,B
Andrzej Kocyła,,M,40,107.1,110,M1,,,,,,230,240,-251,,240,,,,,,240,1,Raw,B
František Tesařík,,M,44,105.1,110,M1,,,,,,200,210,-220,,210,,,,,,210,2,Raw,B
Mariusz Tatuśko,,M,41,103,110,M1,,,,,,195,202.5,-205,,202.5,,,,,,202.5,3,Raw,B
László Kulcsár,,M,42,105,110,M1,,,,,,195,202.5,-205,,202.5,,,,,,202.5,4,Raw,B
Jason Hill,,M,44,101.45,110,M1,,,,,,150,165,-172.5,,165,,,,,,165,5,Raw,B
Milan Kohout,,M,44,109.65,110,M1,,,,,,,,,,,,,,,,,DQ,Raw,B
Marcin Gorzędowski,,M,46,107.75,110,M2,,,,,,215,224,230,235,230,,,,,,230,1,Raw,B
Dominique Nussbaum,,M,46,109.35,110,M2,,,,,,205,-215,-215,,205,,,,,,205,2,Raw,B
Vojtech Lázók,,M,49,106.65,110,M2,,,,,,160,175,-192.5,,175,,,,,,175,3,Raw,B
Steve Hampton,,M,48,105.15,110,M2,,,,,,145,160,-170,,160,,,,,,160,4,Raw,B
Jerzy Jankowski,,M,52,104.3,110,M3,,,,,,180,190,200,,200,,,,,,200,1,Raw,B
Jaromír Mizera,,M,51,105.85,110,M3,,,,,,-170,170,-180,,170,,,,,,170,2,Raw,B
Attila Heizer,,M,51,106,110,M3,,,,,,160,165,-170,,165,,,,,,165,3,Raw,B
Pavel Reichel,,M,53,106.9,110,M3,,,,,,145,-152.5,-152.5,,145,,,,,,145,4,Raw,B
Béla Nagy,,M,56,108.85,110,M4,,,,,,150,-157.5,-157.5,,150,,,,,,150,1,Raw,B
Janusz Witkowski,,M,57,108.5,110,M4,,,,,,-140,140,-145,,140,,,,,,140,2,Raw,B
Jozef Matej,,M,63,104.8,110,M5,,,,,,115,125,130,,130,,,,,,130,3,Raw,B
Péter Károly Kis,,M,61,107.9,110,M5,,,,,,125,130,132.5,,132.5,,,,,,132.5,2,Raw,B
Imrich Činčura,,M,60,100.2,110,M5,,,,,,160,170,176,,176,,,,,,176,1,Raw,B
Ulrich Vetter,,M,65,105.85,110,M6,,,,,,145,152.5,156,,156,,,,,,156,1,Raw,B
Henryk Odelski,,M,68,101.9,110,M6,,,,,,-130,-130,-130,,,,,,,,,DQ,Raw,B
Dr. Heiner Schildbach,,M,74,102.5,110,M7,,,,,,105,110,112.5,,112.5,,,,,,112.5,1,Raw,B
Otakar Machytka,,M,73,109,110,M7,,,,,,90,100,,,100,,,,,,100,2,Raw,B
Martin Viktor,,M,19,119.3,125,T3,,,,,,190,195,205,,205,,,,,,205,1,Raw,B
Rafał Biedrzycki,,M,19,110.1,125,T3,,,,,,-150,-150,155,,155,,,,,,155,2,Raw,B
Konrad Lesnniewski,,M,18,110.95,125,T3,,,,,,140,150,155,,155,,,,,,155,3,Raw,B
Ričards Bužinskis,,M,20,115.4,125,J,,,,,,130,140,-150,,140,,,,,,140,1,Raw,B
Łukasz Zdobiak,,M,32,124.95,125,O,,,,,,240,250,252.5,-256,252.5,,,,,,252.5,1,Raw,B
Jaroslav Vdovychenko,,M,33,116.75,125,O,,,,,,250,-256,-256,-256,250,,,,,,250,2,Raw,B
Pavel Hahn,,M,24,116.75,125,O,,,,,,235,245,-252.5,,245,,,,,,245,4,Raw,B
Burak Kacar,,M,27,111.9,125,O,,,,,,225,245,-250,,245,,,,,,245,3,Raw,B
Arkadiusz Herodowicz,,M,34,121.1,125,O,,,,,,225,235,-240,,235,,,,,,235,5,Raw,B
Krzysztof Bałys,,M,37,120.2,125,O,,,,,,230,-240,-240,,230,,,,,,230,6,Raw,B
Patrik Loza,,M,31,113.25,125,O,,,,,,215,-225,-225,,215,,,,,,215,7,Raw,B
Oleksandr Desiackyi,,M,40,123.3,125,M1,,,,,,-220,220,-227.5,-233.5,220,,,,,,220,1,Raw,B
Mark Lawford,,M,43,121.55,125,M1,,,,,,185,200,-207.5,,200,,,,,,200,2,Raw,B
Tamás Bartalos,,M,44,117.75,125,M1,,,,,,185,195,-200,,195,,,,,,195,3,Raw,B
Václav Mareš,,M,49,120.95,125,M2,,,,,,180,195,205,,205,,,,,,205,1,Raw,B
Tamás Szabó,,M,46,122.15,125,M2,,,,,,175,185,192.5,,192.5,,,,,,192.5,2,Raw,B
Robert Hlavatý,,M,49,114.6,125,M2,,,,,,175,-182.5,-190,,175,,,,,,175,3,Raw,B
Daglan Holland,,M,52,120.95,125,M3,,,,,,175,182.5,190,,190,,,,,,190,1,Raw,B
Jiří Hájek,,M,54,122.3,125,M3,,,,,,175,182.5,-190,,182.5,,,,,,182.5,2,Raw,B
Péter Szabó,,M,53,121.85,125,M3,,,,,,155,162.5,-167.5,,162.5,,,,,,162.5,3,Raw,B
Josef Hakl,,M,67,118.2,125,M6,,,,,,150,160,-167.5,,160,,,,,,160,1,Raw,B
Serafim Rocha,,M,69,111.9,125,M6,,,,,,100,112.5,115,,115,,,,,,115,2,Raw,B
Marcin Sokołowski,,M,19,128.1,140,T3,,,,,,-190,190,195,200,195,,,,,,195,1,Raw,B
Jaroslav Říčař,,M,19,129.35,140,T3,,,,,,125,-130,-130,,125,,,,,,125,2,Raw,B
Javad Mafi,,M,38,140,140,O,,,,,,240,252.5,-260,,252.5,,,,,,252.5,1,Raw,B
Peter Hulin,,M,36,130.1,140,O,,,,,,245,250,-252.5,,250,,,,,,250,2,Raw,B
Sean Green #2,,M,29,135.55,140,O,,,,,,210,225,-235,,225,,,,,,225,3,Raw,B
Marek Makarewicz,,M,38,130.9,140,O,,,,,,210,220,-230,,220,,,,,,220,4,Raw,B
Tomáš Jirka,,M,31,125.85,140,O,,,,,,-215,-215,215,,215,,,,,,215,5,Raw,B
Bartosz Chałaj,,M,29,130.15,140,O,,,,,,-210,,,,,,,,,,,DQ,Raw,B
Jan Rousek,,M,32,130.9,140,O,,,,,,,,,,,,,,,,,DQ,Raw,B
Vladimír Kendiura,,M,42,125.1,140,M1,,,,,,200,210,-220,,210,,,,,,210,1,Raw,B
Zbigniew Drewniak,,M,44,128.5,140,M1,,,,,,175,180,185,,185,,,,,,185,2,Raw,B
Krzysztof Halczyk,,M,42,130.54,140,M1,,,,,,170,177.5,-182.5,,177.5,,,,,,177.5,3,Raw,B
Erik Susztay,,M,45,133.95,140,M2,,,,,,210,220,225,,225,,,,,,225,1,Raw,B
Csaba Molnár,,M,53,127,140,M3,,,,,,172.5,180,-185,,180,,,,,,180,1,Raw,B
Ján Orosz,,M,53,129.75,140,M3,,,,,,-180,180,,,180,,,,,,180,2,Raw,B
Dirk Lauber,,M,53,133.45,140,M3,,,,,,150,160,172.5,,172.5,,,,,,172.5,3,Raw,B
Vladimír Kliment,,M,57,132.95,140,M4,,,,,,150,160,170,,170,,,,,,170,1,Raw,B
Pál Kovács,,M,55,127.1,140,M4,,,,,,130,140,-145,,140,,,,,,140,2,Raw,B
Piotr Redzik,,M,60,128.55,140,M5,,,,,,135,145,150,,150,,,,,,150,1,Raw,B
Dylan Hireche,,M,22,166.6,140+,J,,,,,,225,-230,-230,,225,,,,,,225,1,Raw,B
Aleksandar Ilić,,M,25,142.75,140+,O,,,,,,257.5,262.5,265,,265,,,,,,265,1,Raw,B
Saeid Akbarizadeh,,M,34,146.5,140+,O,,,,,,240,-260,-265,,240,,,,,,240,2,Raw,B
Adam Švehla,,M,36,140.85,140+,O,,,,,,210,220,-225,,220,,,,,,220,3,Raw,B
Tomasz Węgliński,,M,39,142.95,140+,O,,,,,,200,,,,200,,,,,,200,4,Raw,B
Timothy Agnew,,M,30,149.25,140+,O,,,,,,130,145,152.5,,152.5,,,,,,152.5,5,Raw,B
Mareks Leitis,,M,41,140.45,140+,M1,,,,,,220,231,235,-240,235,,,,,,235,1,Raw,B
Aleš Josiek,,M,40,142.2,140+,M1,,,,,,210,225,-237.5,,225,,,,,,225,2,Raw,B
Grzegorz Kantor,,M,45,142.2,140+,M2,,,,,,170,180,-182.5,,180,,,,,,180,1,Raw,B
Michal Ungrád,,M,55,145.2,140+,M4,,,,,,185,190,195,-200,195,,,,,,195,1,Raw,B
Illona Rinas,,F,65,57.7,60,M6,,,,,,-65,-65,65,,65,,,,,,65,1,Multi-ply,B
Mónika Bazsó,,F,43,66.95,67.5,M1,,,,,,105,-112.5,112.5,,112.5,,,,,,112.5,1,Multi-ply,B
Aida Agüero,,F,56,72.8,75,M4,,,,,,130,140.5,147.5,-152.5,147.5,,,,,,147.5,1,Multi-ply,B
Gisela Witte,,F,59,86.05,90,M4,,,,,,50,60,70,75,70,,,,,,70,1,Multi-ply,B
Aleksandar Tošić,,M,22,67.25,67.5,J,,,,,,85,90,95,,95,,,,,,95,1,Multi-ply,B
Michael Watt,,M,35,67.5,67.5,O,,,,,,127.5,-150,150,,150,,,,,,150,1,Multi-ply,B
Filip Kaňák,,M,24,64.25,67.5,O,,,,,,80,92.5,-102.5,,92.5,,,,,,92.5,2,Multi-ply,B
Lukáš Sobotka,,M,25,66.8,67.5,O,,,,,,-115,-115,-115,,,,,,,,,DQ,Multi-ply,B
Gary Bobrovitz,,M,65,66.3,67.5,M6,,,,,,140,-142.5,-142.5,,140,,,,,,140,1,Multi-ply,B
Dawid Urbanowicz,,M,17,73.1,75,T2,,,,,,-125,-125,-125,,,,,,,,,DQ,Multi-ply,B
Róbert Zsila,,M,23,72.45,75,J,,,,,,140,155,160,,160,,,,,,160,1,Multi-ply,B
Ladislav Žítek,,M,27,74.15,75,O,,,,,,170,-185,185,,185,,,,,,185,1,Multi-ply,B
Krzysztof Wolszczak,,M,32,72.3,75,O,,,,,,130,145,-162.5,,145,,,,,,145,2,Multi-ply,B
Janoš Ungai,,M,41,73.3,75,M1,,,,,,150,165,-175.5,,165,,,,,,165,1,Multi-ply,B
Joannis Sulime,,M,66,74.3,75,M6,,,,,,120,125,130,,130,,,,,,130,1,Multi-ply,B
Grigori Rubin,,M,81,73.35,75,M9,,,,,,107.5,-112.5,-112.5,,107.5,,,,,,107.5,1,Multi-ply,B
Steffen Blumental,,M,33,81,82.5,O,,,,,,240,-250,250,,250,,,,,,250,1,Multi-ply,B
Ilkka Naskali,,M,34,82.1,82.5,O,,,,,,210,220,225,,225,,,,,,225,2,Multi-ply,B
Chris Gilbert,,M,67,81.2,82.5,M6,,,,,,120,130,140,,140,,,,,,140,1,Multi-ply,B
Michal Jančár,,M,16,88.05,90,T2,,,,,,130,140,-147.5,,140,,,,,,140,1,Multi-ply,B
Alireza Lashkari,,M,22,89.45,90,J,,,,,,200,225,-240,,225,,,,,,225,1,Multi-ply,B
Áron Benjámin Mező,,M,20,89,90,J,,,,,,140,160,-175,,160,,,,,,160,2,Multi-ply,B
Dawid Deputch,,M,30,89.95,90,O,,,,,,220,230,-240,,230,,,,,,230,1,Multi-ply,B
Rafał Żarnowski,,M,25,87.9,90,O,,,,,,190,195,-202.5,,195,,,,,,195,2,Multi-ply,B
Miroslav Drnek,,M,45,89.1,90,M2,,,,,,195,205,210,,210,,,,,,210,1,Multi-ply,B
Milija Antić,,M,47,86.5,90,M2,,,,,,120,170,,,170,,,,,,170,2,Multi-ply,B
Jozef Völgyák,,M,65,88.4,90,M6,,,,,,140,-150,150,,150,,,,,,150,1,Multi-ply,B
Lukáš Tomášov,,M,19,98.75,100,T3,,,,,,160,172.5,-180,,172.5,,,,,,172.5,1,Multi-ply,B
Krzysztof Zakrzewski,,M,39,98.95,100,O,,,,,,250,-265,265,,265,,,,,,265,1,Multi-ply,B
Bartłomiej Rogoziński,,M,35,96.65,100,O,,,,,,177.5,182.5,187.5,,187.5,,,,,,187.5,2,Multi-ply,B
Grzegorz Drewniany,,M,40,97.7,100,M1,,,,,,180,-190,190,,190,,,,,,190,1,Multi-ply,B
Binyamin Abramov,,M,52,93.6,100,M3,,,,,,225,-232.5,-235,,225,,,,,,225,1,Multi-ply,B
Franciszek Szabluk,,M,61,97.5,100,M5,,,,,,210,220,-235.5,-237.5,220,,,,,,220,1,Multi-ply,B
Ján Matej,,M,69,94.1,100,M6,,,,,,152.5,-160,162.5,,162.5,,,,,,162.5,1,Multi-ply,B
Todor Todorov,,M,23,110,110,J,,,,,,200,210,220,,220,,,,,,220,1,Multi-ply,B
Tomáš Kríž,,M,24,102.85,110,O,,,,,,300,-310,-310,,300,,,,,,300,1,Multi-ply,B
Miloš Ćećanović,,M,39,109.35,110,O,,,,,,255,-265,265,,265,,,,,,265,2,Multi-ply,B
Gerry Twomey,,M,37,102.9,110,O,,,,,,150,,,,150,,,,,,150,3,Multi-ply,B
Milan Kohout,,M,44,109.35,110,M1,,,,,,190,210,,,210,,,,,,210,1,Multi-ply,B
Steve Hampton,,M,48,105.4,110,M2,,,,,,170,-185,185,,185,,,,,,185,1,Single-ply,B
Andrew Saunders,,M,50,102.9,110,M3,,,,,,220,230,240,,240,,,,,,240,1,Multi-ply,B
Brian Johnston,,M,52,107.5,110,M3,,,,,,200,-215,225,,225,,,,,,225,2,Multi-ply,B
Kevin Maher,,M,56,107.2,110,M4,,,,,,205,217.5,-225,,217.5,,,,,,217.5,1,Multi-ply,B
Ulfert Rinas,,M,58,105.85,110,M4,,,,,,205,-212.5,,,205,,,,,,205,2,Multi-ply,B
Ulrich Vetter,,M,65,106.9,110,M6,,,,,,-185,-185,185,-203,185,,,,,,185,1,Multi-ply,B
Serafim Rocha,,M,69,110,110,M6,,,,,,120,130,-135,,130,,,,,,130,2,Multi-ply,B
Janík Velgos,,M,16,123.55,125,T2,,,,,,300,320,-330,-340,320,,,,,,320,1,Multi-ply,B
Sergey Starodubskiy,,M,39,120.3,125,O,,,,,,-300,-315,-315,,,,,,,,,DQ,Multi-ply,B
Kai-Uwe Göllnitz,,M,43,121.95,125,M1,,,,,,280,-290,,,280,,,,,,280,1,Multi-ply,B
Eric Bar,,M,48,116.9,125,M2,,,,,,205,-212.5,215,,215,,,,,,215,1,Multi-ply,B
László Haraszti,,M,46,110.65,125,M2,,,,,,200,-212.5,-212.5,,200,,,,,,200,2,Multi-ply,B
Josef Hakl,,M,67,119.5,125,M6,,,,,,190,-200,200,-210,200,,,,,,200,1,Multi-ply,B
Oskars Zvarts,,M,39,129.3,140,O,,,,,,260,-270,270,,270,,,,,,270,1,Multi-ply,B
David Zdražil,,M,38,139.2,140,O,,,,,,-240,240,-290,,240,,,,,,240,2,Multi-ply,B
Jani Toivo Kristian Ihalainen,,M,42,127.3,140,M1,,,,,,220,,,,220,,,,,,220,1,Multi-ply,B
Mohsen Estakhr,,M,47,131.65,140,M2,,,,,,120,130,140,,140,,,,,,140,1,Multi-ply,B
Seyed Mahmoud Dehghanian,,M,52,125.32,140,M3,,,,,,130,155,-175,,155,,,,,,155,1,Multi-ply,B
Pál Kovács,,M,55,125.85,140,M4,,,,,,160,170,175,,175,,,,,,175,1,Multi-ply,B
Javad Mafi,,M,38,142.95,140+,O,,,,,,200,,,,200,,,,,,200,1,Multi-ply,B
Mojtaba Maleki,,M,34,163.8,140+,O,,,,,,200,,,,200,,,,,,200,2,Multi-ply,B
Olga Matysiak,,F,14,47.98,48,T1,,,,,,,,,,,75,-80,80,,80,80,1,Raw,D
Micaela Lopez,,F,24,46.8,48,O,,,,,,,,,,,110,120,-127.5,,120,120,1,Raw,D
Aimee Smith,,F,31,50.8,52,O,,,,,,,,,,,135,145,-150,-150,145,145,1,Raw,D
Nadica Gojković,,F,43,50,52,M1,,,,,,,,,,,105,115,-120,,115,115,1,Raw,D
Nevenka Crnogorčević,,F,48,51.34,52,M2,,,,,,,,,,,100,107.5,112.5,,112.5,112.5,1,Raw,D
Yevheniia Sakaly,,F,13,52.02,56,T1,,,,,,,,,,,90,-100,100,,100,100,1,Raw,D
Ana Knežević,,F,20,52.8,56,J,,,,,,,,,,,105,115,-120,,115,115,1,Raw,D
Jayden Pederson,,F,18,59.4,60,T3,,,,,,,,,,,140,152.5,-160,,152.5,152.5,1,Raw,D
Joanna Gawron,,F,24,58.85,60,O,,,,,,,,,,,-120,-120,,,,,DQ,Raw,D
Gabriela Gacek,,F,19,60.2,67.5,T3,,,,,,,,,,,105,115,-122.5,,115,115,1,Raw,D
Bernadett Fekete,,F,23,67.5,67.5,J,,,,,,,,,,,140,150,155,161,155,155,1,Raw,D
Hana Slúková,,F,23,64.9,67.5,J,,,,,,,,,,,135,145,150,-161,150,150,2,Raw,D
Renata Zapała,,F,23,66.3,67.5,J,,,,,,,,,,,120,130,142.5,,142.5,142.5,3,Raw,D
Veronika Zemanová,,F,36,62.35,67.5,O,,,,,,,,,,,165,177.5,180,,180,180,1,Raw,D
Bernadetta Stryczula,,F,35,62.85,67.5,O,,,,,,,,,,,120,130,-140,,130,130,2,Raw,D
Mónika Bazsó,,F,43,66.35,67.5,M1,,,,,,,,,,,170,180,187.5,190,187.5,187.5,1,Raw,D
Rita Nagy,,F,43,66.5,67.5,M1,,,,,,,,,,,-150,165,182.5,188,182.5,182.5,2,Raw,D
Thomas Lesley,,F,51,65.35,67.5,M3,,,,,,,,,,,140,147.5,152.5,160,152.5,152.5,1,Raw,D
Ingrid Cedel,,F,70,62.35,67.5,M7,,,,,,,,,,,90,95,97.5,,97.5,97.5,1,Raw,D
Ada Styrczula,,F,13,73.4,75,T1,,,,,,,,,,,55,60,70,,70,70,1,Raw,D
Tatiana Brodetská,,F,21,74.2,75,J,,,,,,,,,,,160,170,-180,-180,170,170,1,Raw,D
Patrycja Sekuła,,F,27,67.65,75,O,,,,,,,,,,,100,110,-115,,110,110,1,Raw,D
Anna Paluszik,,F,27,70.8,75,O,,,,,,,,,,,80,90,-100,,90,90,2,Raw,D
Beata Kowalska,,F,44,72.3,75,M1,,,,,,,,,,,115,125,135,,135,135,1,Raw,D
Kateřina Jirásková,,F,19,80.35,82.5,T3,,,,,,,,,,,130,-145,145,,145,145,1,Raw,D
Andreja Valant,,F,37,89,90,O,,,,,,,,,,,152.5,157.5,162.5,,162.5,162.5,1,Raw,D
Maria Leticia Bertotto,,F,46,89.2,90,M2,,,,,,,,,,,205,215.5,220,225,220,220,1,Raw,D
Kristina Zeko,,F,20,93.15,110,J,,,,,,,,,,,180,190,-195,,190,190,1,Raw,D
Mariela Ortellado,,F,32,95.4,110,O,,,,,,,,,,,225,235.5,240,,240,240,1,Raw,D
Krystyna Puzio,,F,52,95.25,110,M3,,,,,,,,,,,135,145,150,,150,150,1,Raw,D
Pavol Balážik,,M,38,55.96,56,O,,,,,,,,,,,125,135,145,,145,145,1,Raw,D
Aleksandr Romanichev,,M,53,55.76,56,M3,,,,,,,,,,,180,190,-200,,190,190,1,Raw,D
Mirko Calisai,,M,37,59.46,60,O,,,,,,,,,,,185,196,207.5,-215,207.5,207.5,1,Raw,D
Dominik Minárik,,M,19,67.3,67.5,T3,,,,,,,,,,,160,180,200,,200,200,1,Raw,D
Tomáš Tesař,,M,19,66.75,67.5,T3,,,,,,,,,,,200,-205,-205,,200,200,2,Raw,D
Michael Watt,,M,35,67.45,67.5,O,,,,,,,,,,,225,240,,,240,240,1,Raw,D
Antoni Kaliňski,,M,63,67.35,67.5,M5,,,,,,,,,,,-130,130,-146,,130,130,1,Raw,D
Budgie Mullan,,M,73,66.35,67.5,M7,,,,,,,,,,,-140,-140,140,155,140,140,1,Raw,D
Gerd Cedel,,M,75,66.85,67.5,M8,,,,,,,,,,,125,130,135,,135,135,1,Raw,D
Roman Fuksa,,M,16,72.05,75,T2,,,,,,,,,,,207.5,220,-225,,220,220,1,Raw,D
Nikola Stanković,,M,17,71.35,75,T2,,,,,,,,,,,160,-180,180,,180,180,2,Raw,D
Stanislav Chloupek,,M,18,70.24,75,T3,,,,,,,,,,,210,230,245,,245,245,1,Raw,D
Tomáš Osička,,M,20,73.6,75,J,,,,,,,,,,,200,215,225,,225,225,1,Raw,D
Jiří Balabán,,M,22,71.65,75,J,,,,,,,,,,,205,215,-217.5,,215,215,2,Raw,D
Lukáš Vašíček,,M,22,74.9,75,J,,,,,,,,,,,200,210,-217.5,,210,210,3,Raw,D
Lukáš Dorazil,,M,34,74.5,75,O,,,,,,,,,,,200,210,220,,220,220,1,Raw,D
Andrii Avdieiev,,M,34,74.2,75,O,,,,,,,,,,,75,,,,75,75,2,Raw,D
Karel Sazma,,M,42,73.25,75,M1,,,,,,,,,,,205,225,226,,226,226,1,Raw,D
István Varga,,M,49,72.45,75,M2,,,,,,,,,,,202.5,212.5,225,,225,225,2,Raw,D
Roman Mandík,,M,49,74.35,75,M2,,,,,,,,,,,170,182.5,,,182.5,182.5,3,Raw,D
Marcelo Lobo,,M,49,74.75,75,M2,,,,,,,,,,,205,220,227.5,245,227.5,227.5,1,Raw,D
Sejfo Šehović,,M,58,71.7,75,M4,,,,,,,,,,,210,225,-235,-235,225,225,1,Raw,D
Zbigniew Koper,,M,63,74.8,75,M5,,,,,,,,,,,140,145,150,,150,150,1,Raw,D
Ryszard Śliwiński,,M,67,74.45,75,M6,,,,,,,,,,,140,150,157,160,157,157,1,Raw,D
Guylhem Feraud,,M,72,73.3,75,M7,,,,,,,,,,,170,180,-182.5,,180,180,1,Raw,D
Daniel Lažek,,M,17,82.5,82.5,T2,,,,,,,,,,,180,200,205,,205,205,1,Raw,D
Patrik Pikeš,,M,17,81.95,82.5,T2,,,,,,,,,,,-200,200,-230,,200,200,2,Raw,D
Csongor Szvetlik,,M,19,81.2,82.5,T3,,,,,,,,,,,210,221,225,,225,225,1,Raw,D
Jakub Sem,,M,18,82.45,82.5,T3,,,,,,,,,,,190,207.5,-215,,207.5,207.5,2,Raw,D
Konrad Majocha,,M,19,82.5,82.5,T3,,,,,,,,,,,205,-220,-220,,205,205,3,Raw,D
Daniel Gnatowski,,M,19,77.9,82.5,T3,,,,,,,,,,,180,190,-200,,190,190,4,Raw,D
Dennis Glok,,M,19,81.1,82.5,T3,,,,,,,,,,,-160,,,,,,DQ,Raw,D
Blagoje Tesić,,M,23,79.3,82.5,J,,,,,,,,,,,240,-245,,,240,240,1,Raw,D
Federico Sanchez,,M,21,79.45,82.5,J,,,,,,,,,,,190,205,-240,,205,205,2,Raw,D
Namara Martin Mc,,M,22,80.6,82.5,J,,,,,,,,,,,190,205,-215,,205,205,3,Raw,D
Porto Francesco Lo,,M,36,78.1,82.5,O,,,,,,,,,,,250,266,272.5,,272.5,272.5,1,Raw,D
Emil Kráčmar,,M,24,81.8,82.5,O,,,,,,,,,,,-270,270,-275,,270,270,2,Raw,D
Róbert Szász,,M,31,82.2,82.5,O,,,,,,,,,,,230,252.5,-267.5,,252.5,252.5,3,Raw,D
Neal Lotfi Tassabehji,,M,37,80.3,82.5,O,,,,,,,,,,,230,-240,,,230,230,4,Raw,D
Marek Tyl,,M,26,75.65,82.5,O,,,,,,,,,,,212.5,220,-225,,220,220,5,Raw,D
Mateusz Buławski,,M,28,79.25,82.5,O,,,,,,,,,,,210,-215,-215,,210,210,6,Raw,D
Csaba Simon,,M,49,81.7,82.5,M2,,,,,,,,,,,240,255,-271,,255,255,1,Raw,D
Dudi Eilat,,M,51,82.35,82.5,M3,,,,,,,,,,,200,210,215,,215,215,1,Raw,D
André Leal Madeira,,M,51,81.9,82.5,M3,,,,,,,,,,,160,180,-190,,180,180,2,Raw,D
Jean-Rene Chauvin,,M,61,80.75,82.5,M5,,,,,,,,,,,155,162.5,170,,170,170,1,Raw,D
Jean Palicot,,M,64,75.75,82.5,M5,,,,,,,,,,,157.5,162.5,165,,165,165,2,Raw,D
Mieczysłąw Maczka,,M,63,81.95,82.5,M5,,,,,,,,,,,120,165,-172.5,,165,165,3,Raw,D
Bill Healy,,M,67,80.9,82.5,M6,,,,,,,,,,,225,235,240,-245,240,240,1,Raw,D
Max Glok,,M,16,89.2,90,T2,,,,,,,,,,,-145,,,,,,DQ,Raw,D
Jakub Vágner,,M,19,89.15,90,T3,,,,,,,,,,,260,270,280,-285,280,280,1,Raw,D
Martin Kostelecký,,M,18,84.95,90,T3,,,,,,,,,,,230,250,260,,260,260,2,Raw,D
Stefan Kašiković,,M,19,86.9,90,T3,,,,,,,,,,,230,-240,-240,,230,230,3,Raw,D
Samuel Roskoš,,M,20,89.6,90,J,,,,,,,,,,,235,250,255,,255,255,1,Raw,D
Áron Benjámin Mező,,M,20,88.8,90,J,,,,,,,,,,,230,-240,-255,,230,230,2,Raw,D
Miroslav Vítek,,M,34,89.35,90,O,,,,,,,,,,,-270,270,290,,290,290,1,Raw,D
Ahmed Mohamed Jacub,,M,26,86.8,90,O,,,,,,,,,,,180,205,225,,225,225,2,Raw,D
Jaromír Osička,,M,27,88.05,90,O,,,,,,,,,,,200,,,,200,200,3,Raw,D
Chris Morgan #1,,M,44,88.8,90,M1,,,,,,,,,,,190,200,210,,210,210,1,Raw,D
Rodrigo Sanchez,,M,46,89.95,90,M2,,,,,,,,,,,237.5,247.5,252.5,-270.5,252.5,252.5,1,Raw,D
Zdenek Brauenr,,M,45,89.45,90,M2,,,,,,,,,,,235,245,250,,250,250,2,Raw,D
František Vincourek,,M,51,88.15,90,M3,,,,,,,,,,,270,285,290,,290,290,1,Raw,D
Zoltán Jurko,,M,77,84.25,90,M8,,,,,,,,,,,105,120,132.5,,132.5,132.5,1,Raw,D
Dominik Hořava,,M,18,98.65,100,T3,,,,,,,,,,,235,245,255,,255,255,1,Raw,D
Lukáš Bláha,,M,21,98.95,100,J,,,,,,,,,,,280,300,-305,,300,300,1,Raw,D
Lukáš Petrůj,,M,23,97.15,100,J,,,,,,,,,,,280,290,-300,,290,290,2,Raw,D
David Klír,,M,22,99.6,100,J,,,,,,,,,,,285,-295,-295,,285,285,3,Raw,D
Jakub Hlavinka,,M,23,96.95,100,J,,,,,,,,,,,240,250,-260,,250,250,4,Raw,D
Jaroslav Šoukal,,M,26,93.3,100,O,,,,,,,,,,,300,310,,,310,310,1,Raw,D
Twomey Ger,,M,37,99.7,100,O,,,,,,,,,,,282.5,292.5,-312.5,,292.5,292.5,2,Raw,D
Alexandr Slavutskiy,,M,26,99.4,100,O,,,,,,,,,,,290,-302.5,-302.5,,290,290,3,Raw,D
Nikola Reljić,,M,28,95.5,100,O,,,,,,,,,,,-260,,,,,,DQ,Raw,D
Darren Bennett,,M,33,98.85,100,O,,,,,,,,,,,-290,-290,-302.5,,,,DQ,Raw,D
Marcos Martinez,,M,42,97,100,M1,,,,,,,,,,,275,290,300,-305,300,300,1,Raw,D
Gustavo Miño,,M,46,94.4,100,M2,,,,,,,,,,,200,210,217.5,,217.5,217.5,2,Raw,D
Stephane Bouton,,M,45,96.4,100,M2,,,,,,,,,,,185,205,215,,215,215,3,Raw,D
Bruno Walter,,M,49,94.15,100,M2,,,,,,,,,,,230,240,250,,250,250,1,Raw,D
Wiesław Wrŏbel,,M,60,97.65,100,M5,,,,,,,,,,,200,230,-260,,230,230,1,Raw,D
František Jung,,M,62,90.9,100,M5,,,,,,,,,,,130,150,165,,165,165,2,Raw,D
Ladislau Kiss,,M,69,94.65,100,M6,,,,,,,,,,,225,240,-250,,240,240,1,Raw,D
Stefan Sochaňski,,M,68,90.75,100,M6,,,,,,,,,,,185,205,,,205,205,2,Raw,D
Vladimír Svoboda,,M,65,97.45,100,M6,,,,,,,,,,,160,170,175,,175,175,3,Raw,D
Dominik Ponocný,,M,17,105.05,110,T2,,,,,,,,,,,230,245,260,265,260,260,1,Raw,D
Jan Trefný,,M,19,104.8,110,T3,,,,,,,,,,,275,290,-301,-301,290,290,1,Raw,D
Jakub Binar,,M,19,104,110,T3,,,,,,,,,,,260,275,280,,280,280,2,Raw,D
Roman Petrás,,M,22,104.15,110,J,,,,,,,,,,,290,300,-310,,300,300,1,Raw,D
Klaus Steinbock,,M,36,105.2,110,O,,,,,,,,,,,275.5,295,317.5,-320.5,317.5,317.5,1,Raw,D
Lukáš Kloupar,,M,31,102.2,110,O,,,,,,,,,,,285,300,315,-325,315,315,2,Raw,D
Martin Chour,,M,32,107.35,110,O,,,,,,,,,,,250,270,-290,,270,270,3,Raw,D
Liam Wheeler,,M,25,106.45,110,O,,,,,,,,,,,-260,-260,-260,,,,DQ,Raw,D
Jason Hill,,M,44,101.25,110,M1,,,,,,,,,,,250,262.5,,,262.5,262.5,1,Raw,D
Grzegorz Drewniany,,M,40,100.1,110,M1,,,,,,,,,,,220,240,-245,,240,240,2,Raw,D
Martin Horák,,M,40,103.15,110,M1,,,,,,,,,,,220,230,-242.5,,230,230,3,Raw,D
Ken Trommel,,M,48,107.1,110,M2,,,,,,,,,,,262.5,,,,262.5,262.5,1,Raw,D
Saša Cvetković,,M,47,109.4,110,M2,,,,,,,,,,,250,-272.5,,,250,250,2,Raw,D
Steve Hampton,,M,48,105.2,110,M2,,,,,,,,,,,225,-250,,,225,225,3,Raw,D
Janusz Witkowski,,M,57,108.55,110,M4,,,,,,,,,,,190,-205,205,,205,205,1,Raw,D
Vít Kovanič,,M,17,116.2,125,T2,,,,,,,,,,,225,240,-250,,240,240,1,Raw,D
Rafał Biedrzycki,,M,19,110.1,125,T3,,,,,,,,,,,235,250,260,-270,260,260,1,Raw,D
Ádám Kiss,,M,20,113.05,125,J,,,,,,,,,,,330,350,-361,,350,350,1,Raw,D
Adam Kostura,,M,22,115.7,125,J,,,,,,,,,,,245,262.5,275,,275,275,2,Raw,D
Ričards Bužinskis,,M,20,115.9,125,J,,,,,,,,,,,220,,,,220,220,3,Raw,D
Hristo Muskov,,M,31,120.35,125,O,,,,,,,,,,,315,327.5,330,,330,330,1,Raw,D
Alfredo M. Rojas,,M,32,117.65,125,O,,,,,,,,,,,315,-325,-327.5,,315,315,2,Raw,D
Burak Kacar,,M,27,111.9,125,O,,,,,,,,,,,285,307.5,-310,,307.5,307.5,3,Raw,D
Mark Lawford,,M,43,121.55,125,M1,,,,,,,,,,,240,255,260,,260,260,1,Raw,D
Ľubomír Trstenský,,M,42,110.1,125,M1,,,,,,,,,,,225,240,-260,,240,240,2,Raw,D
Václav Mareš,,M,49,120.95,125,M2,,,,,,,,,,,280,295,-300,,295,295,1,Raw,D
Robert Hlavatý,,M,49,114.6,125,M2,,,,,,,,,,,280,290,-295,,290,290,2,Raw,D
Robert Nemś,,M,48,113.65,125,M2,,,,,,,,,,,245,260,-270,,260,260,3,Raw,D
Péter Szabó,,M,53,121.85,125,M3,,,,,,,,,,,235,260,,,260,260,1,Raw,D
Marcin Sokołowski,,M,19,128.1,140,T3,,,,,,,,,,,200,-215,225,,225,225,1,Raw,D
Aleksandar Stanković,,M,35,139.4,140,O,,,,,,,,,,,320,340,,,340,340,1,Raw,D
Gary Buolton,,M,53,134.3,140,O,,,,,,,,,,,267.5,305,,,305,305,2,Raw,D
Piotr Redzik,,M,60,128.55,140,M5,,,,,,,,,,,200,215,227.5,,227.5,227.5,1,Raw,D
Adam Honzík,,M,16,145.8,140+,T2,,,,,,,,,,,215,225,232.5,-240,232.5,232.5,1,Raw,D
Dylan Hireche,,M,22,166.6,140+,J,,,,,,,,,,,230,-240,240,,240,240,1,Raw,D
Čestmír Šíma,,M,39,173.3,140+,O,,,,,,,,,,,390.5,405,-415,,405,405,1,Raw,D
Adam Švehla,,M,36,140.85,140+,O,,,,,,,,,,,320,-327.5,-327.5,,320,320,2,Raw,D
Timothy Agnew,,M,30,149.25,140+,O,,,,,,,,,,,-185,200,-202.5,,200,200,3,Raw,D
Mareks Leitis,,M,41,140.45,140+,M1,,,,,,,,,,,260,280,300,,300,300,1,Raw,D
Zane Ison,,M,49,140.1,140+,M2,,,,,,,,,,,285,305,-325,,305,305,1,Raw,D
Jayden Pederson,,F,18,60,60,T3,,,,,,,,,,,140,150,-160,,150,150,1,Multi-ply,D
Maniar Rehana,,F,42,67.45,67.5,M1,,,,,,,,,,,150,162.5,-170,,162.5,162.5,1,Multi-ply,D
Radostina Lulova,,F,24,68.25,75,O,,,,,,,,,,,172.5,182.5,-192.5,,182.5,182.5,1,Multi-ply,D
Minna Pajulahti,,F,36,86.05,90,O,,,,,,,,,,,195,205,-215,,205,205,1,Multi-ply,D
Aleksandr Romanichev,,M,53,55.6,56,M3,,,,,,,,,,,200,210,220,,220,220,1,Multi-ply,D
Dominik Filip,,M,17,59.85,60,T2,,,,,,,,,,,145,160,170,-175,170,170,1,Multi-ply,D
Daniel Pianka,,M,40,57.62,60,O,,,,,,,,,,,185,200,205,-210,205,205,1,Multi-ply,D
Pavel Malina,,M,57,59.9,60,M4,,,,,,,,,,,150,170,175,,175,175,1,Multi-ply,D
Jonathan Bar,,M,21,65,67.5,J,,,,,,,,,,,175,185,-190,,185,185,1,Multi-ply,D
Aleksandar Tošić,,M,22,67.25,67.5,J,,,,,,,,,,,120,135,150,,150,150,2,Multi-ply,D
Filip Kaňák,,M,24,64.25,67.5,O,,,,,,,,,,,160,180,-192.5,,180,180,1,Multi-ply,D
Marko Rudy,,M,21,74.1,75,J,,,,,,,,,,,220,230,-242.5,,230,230,1,Multi-ply,D
Jan Kasper,,M,18,82,82.5,T3,,,,,,,,,,,195,206,-212.5,,206,206,1,Multi-ply,D
Tsvetomir Pelovski,,M,21,80.35,82.5,J,,,,,,,,,,,202.5,225,230,240.5,230,230,1,Multi-ply,D
Federico Sanchez,,M,21,81.95,82.5,J,,,,,,,,,,,180,205,227.5,,227.5,227.5,2,Multi-ply,D
Ilkka Naskali,,M,34,82.1,82.5,O,,,,,,,,,,,220,230,-240,,230,230,1,Multi-ply,D
Simon Csaba,,M,49,81.9,82.5,M2,,,,,,,,,,,-240,240,260,,260,260,1,Multi-ply,D
Mieczysłąw Maczka,,M,63,81.5,82.5,M5,,,,,,,,,,,115,125,-135,,125,125,1,Multi-ply,D
Jaroslav Tomanec,,M,74,82.45,82.5,M7,,,,,,,,,,,150,155,160,,160,160,1,Multi-ply,D
Áron Benjámin Mező,,M,20,89,90,J,,,,,,,,,,,225,237.5,-250,-260,237.5,237.5,1,Multi-ply,D
Aleksandar Stamenov,,M,20,85.3,90,J,,,,,,,,,,,220,235,-247.5,,235,235,2,Multi-ply,D
Alireza Lashkari,,M,22,89.45,90,J,,,,,,,,,,,-170,-170,-170,,,,DQ,Multi-ply,D
Miguel Chain Junior,,M,38,89.95,90,O,,,,,,,,,,,220,260,-262.5,,260,260,1,Multi-ply,D
László Eck,,M,39,90,90,O,,,,,,,,,,,240,255,-262.5,,255,255,2,Multi-ply,D
Markus Rücker,,M,43,85,90,M1,,,,,,,,,,,255,265,275,,275,275,1,Multi-ply,D
Milija Antić,,M,47,86.5,90,M2,,,,,,,,,,,170,,,,170,170,1,Multi-ply,D
André Leal Madeira,,M,51,83,90,M3,,,,,,,,,,,170,180,190,,190,190,1,Multi-ply,D
Patrik Puš,,M,19,99.4,100,T3,,,,,,,,,,,-270,-270,-270,,,,DQ,Multi-ply,D
Ernő Eck,,M,23,97.35,100,J,,,,,,,,,,,200,215,,,215,215,1,Multi-ply,D
Luboš Šos,,M,39,98.7,100,O,,,,,,,,,,,270,290,300,,300,300,2,Multi-ply,D
Marcos Martinez,,M,42,96.95,100,O,,,,,,,,,,,310,325,-340.5,,325,325,1,Multi-ply,D
Fabrice Benchabane,,M,46,95.95,100,M2,,,,,,,,,,,260,-270,272.5,,272.5,272.5,1,Multi-ply,D
Libor Hurdálek,,M,63,98.9,100,M5,,,,,,,,,,,200,210,-220,,210,210,1,Multi-ply,D
Stefan Sochaňski,,M,68,90.6,100,M6,,,,,,,,,,,215,240,,,240,240,1,Multi-ply,D
Lukáš Jiruška,,M,34,106.55,110,O,,,,,,,,,,,270,280,290,,290,290,1,Multi-ply,D
Aleksandar Pelovski,,M,26,109.65,110,O,,,,,,,,,,,290,-305,-305,,290,290,2,Multi-ply,D
Jason Hill,,M,44,100.5,110,M1,,,,,,,,,,,250,267.5,-280,,267.5,267.5,1,Multi-ply,D
Kenneth Bradley Trommel,,M,48,106,110,M2,,,,,,,,,,,265,277.5,-280,,277.5,277.5,1,Multi-ply,D
Steve Hampton,,M,48,105.4,110,M2,,,,,,,,,,,225,240,,,240,240,2,Single-ply,D
David Thomas #4,,M,66,105.6,110,M6,,,,,,,,,,,165,175,-181,,175,175,1,Multi-ply,D
Serafim Rocha,,M,69,110,110,M6,,,,,,,,,,,120,140,-160,,140,140,2,Multi-ply,D
Sergey Starodubskiy,,M,39,120.3,125,O,,,,,,,,,,,250,300,,,300,300,1,Multi-ply,D
Eric Bar,,M,48,116.95,125,M2,,,,,,,,,,,255,262.5,-267.5,,262.5,262.5,1,Multi-ply,D
Jani Toivo Kristian Ihalainen,,M,42,127.3,140,O,,,,,,,,,,,260,280,300,,300,300,1,Multi-ply,D
Dirk Lauber,,M,53,135.4,140,M3,,,,,,,,,,,250,280,-303,303,280,280,1,Multi-ply,D
