Division,WeightClassKg,Place,Name,Team,BodyweightKg,Best3SquatKg,Best3BenchKg,Best3DeadliftKg,TotalKg,Equipment,Event,Sex,BirthDate
Girls,44.23,1,Gloria Herrera,Corpus Christi Tuloso-Midway,43.09,70.31,38.56,92.99,201.85,Single-ply,SBD,F,
Girls,44.23,2,Natalie Lopez,Agua Dulce,42.82,79.38,38.56,81.65,199.58,Single-ply,SBD,F,
Girls,47.85,1,Joanna Flores,Agua Dulce,47.81,97.52,47.63,111.13,256.28,Single-ply,SBD,F,
Girls,47.85,2,Sara Vela,Banquete,46.36,79.38,43.09,92.99,215.46,Single-ply,SBD,F,
Girls,51.94,1,Juliana Vasquez,Corpus Christi Tuloso-Midway,50.62,124.74,77.11,127.01,328.85,Single-ply,SBD,F,
Girls,51.94,2,Linda Urquieta,Corpus Christi Tuloso-Midway,51.94,127.01,63.5,124.74,315.25,Single-ply,SBD,F,
Girls,51.94,3,Alinna Cruz,Bishop,50.85,117.93,52.16,122.47,292.57,Single-ply,SBD,F,
Girls,51.94,4,Ally Kae Luna,Agua Dulce,48.35,72.57,38.56,81.65,192.78,Single-ply,SBD,F,
Girls,51.94,DQ,Aliyah Garcia,Taft,50.8,88.45,52.16,81.65,,Single-ply,SBD,F,
Girls,51.94,DQ,Jaclyn DeLuna,Corpus Christi London,51.89,52.16,,,,Single-ply,SBD,F,
Girls,56.02,1,Samantha Diaz,Bishop,54.25,149.69,72.57,138.35,360.61,Single-ply,SBD,F,
Girls,56.02,2,Myndi Rodriguez,Corpus Christi Tuloso-Midway,55.16,151.95,79.38,124.74,356.07,Single-ply,SBD,F,
Girls,56.02,3,Catrina Cansino,Banquete,53.25,83.91,38.56,90.72,213.19,Single-ply,SBD,F,
Girls,60.1,1,Morgan Candela,Corpus Christi Tuloso-Midway,60.06,149.69,90.72,151.95,392.36,Single-ply,SBD,F,
Girls,60.1,2,Mia Garza,Bishop,57.83,138.35,68.04,117.93,324.32,Single-ply,SBD,F,
Girls,60.1,3,Bianca Guzman,Corpus Christi Tuloso-Midway,56.61,124.74,68.04,108.86,301.64,Single-ply,SBD,F,
Girls,67.36,1,Summer Green,Corpus Christi London,65.41,149.69,70.31,151.95,371.95,Single-ply,SBD,F,
Girls,67.36,2,Magali Medrano,Bishop,66.32,145.15,74.84,142.88,362.87,Single-ply,SBD,F,
Girls,67.36,3,Sophia Sanchez,Corpus Christi London,64.59,120.2,61.23,122.47,303.91,Single-ply,SBD,F,
Girls,67.36,4,Alexxis Moreno,Bishop,66.68,104.33,54.43,122.47,281.23,Single-ply,SBD,F,
Girls,67.36,5,Evelyn Valadez,Bishop,64.91,113.4,56.7,102.06,272.16,Single-ply,SBD,F,
Girls,67.36,6,Val Maddalone,Corpus Christi London,66.32,106.59,45.36,111.13,263.08,Single-ply,SBD,F,
Girls,67.36,7,Natalia Canelo,Corpus Christi Tuloso-Midway,63.5,92.99,38.56,83.91,215.46,Single-ply,SBD,F,
Girls,67.36,DQ,Trinity Martinez,Banquete,66.95,102.06,,,,Single-ply,SBD,F,
Girls,75.07,1,Courtney Lamotagne,Corpus Christi Tuloso-Midway,69.58,170.1,86.18,158.76,415.04,Single-ply,SBD,F,
Girls,75.07,2,Alexus Valdez,Corpus Christi Tuloso-Midway,72.48,151.95,79.38,158.76,390.09,Single-ply,SBD,F,
Girls,75.07,3,Kirstyn Garza,Agua Dulce,73.57,131.54,61.23,136.08,328.85,Single-ply,SBD,F,
Girls,75.07,DQ,Sophia Borger,Corpus Christi London,71.4,117.93,45.36,,,Single-ply,SBD,F,
Girls,75.07,DQ,Realynn Flores,Corpus Christi Tuloso-Midway,70.31,117.93,,,,Single-ply,SBD,F,
Girls,90.04,1,Alina Carrera,Taft,89.99,161.03,102.06,145.15,408.23,Single-ply,SBD,F,
Girls,100.02,1,Analydia Montes,Corpus Christi Tuloso-Midway,93.89,179.17,99.79,176.9,455.86,Single-ply,SBD,F,
Girls,100.02,2,Jersey Salinas,Corpus Christi Tuloso-Midway,95.62,97.52,63.5,95.25,256.28,Single-ply,SBD,F,
Girls,117.71,DQ,Mica Mayorga,Banquete,105.87,154.22,68.04,,,Single-ply,SBD,F,
Girls,117.71+,DQ,Heaven Flores,Taft,129,133.81,,,,Single-ply,SBD,F,
