Division,WeightClassKg,Place,Name,Team,BodyweightKg,Best3SquatKg,Best3BenchKg,Best3DeadliftKg,TotalKg,Equipment,Event,Sex
Girls,44.23,1,Lauren Aldape,Mercedes,42.14,127.01,54.43,136.08,317.51,Single-ply,SBD,F
Girls,44.23,2,Hope Spivey,College Station,43.64,117.93,70.31,108.86,297.1,Single-ply,SBD,F
Girls,44.23,3,Rhema Orta,Port Lavaca Calhoun,40.96,113.4,52.16,120.2,285.76,Single-ply,SBD,F
Girls,44.23,4,Haylee Olguin,Victoria West,44,111.13,56.7,113.4,281.23,Single-ply,SBD,F
Girls,44.23,5,Alexis Herrera,Alice,42.46,115.67,56.7,106.59,278.96,Single-ply,SBD,F
Girls,44.23,6,Arielle Ruiz,Edcouch-Elsa,43.05,113.4,54.43,111.13,278.96,Single-ply,SBD,F
Girls,44.23,7,Camryn Riggins,College Station,43.54,106.59,54.43,113.4,274.42,Single-ply,SBD,F
Girls,44.23,8,Hannah Alexander #1,Lumberton,44.23,102.06,65.77,104.33,272.16,Single-ply,SBD,F
Girls,44.23,9,Natalie Pruneda,Pharr Valley View,,108.86,43.09,117.93,269.89,Single-ply,SBD,F
Girls,44.23,10,Melissa Ocasio,Little Elm,43.36,86.18,61.23,108.86,256.28,Single-ply,SBD,F
Girls,44.23,11,Alex Villegas,Wylie East,42.68,97.52,43.09,113.4,254.01,Single-ply,SBD,F
Girls,44.23,12,Amber Flores,Uvalde,44.04,104.33,36.29,113.4,254.01,Single-ply,SBD,F
Girls,44.23,13,Tianne Trujillo,Alice,40.46,104.33,47.63,99.79,251.74,Single-ply,SBD,F
Girls,44.23,14,Lexie Reyes,Plainview,43.73,83.91,40.82,92.99,217.72,Single-ply,SBD,F
Girls,44.23,15,Angel Ramos #1,Plainview,43.05,92.99,43.09,77.11,213.19,Single-ply,SBD,F
Girls,44.23,NS,Maria Pro,PSJA Southwest,,,,,,Single-ply,SBD,F
Girls,44.23,NS,Itzel Garcia #2,PSJA Southwest,,,,,,Single-ply,SBD,F
Girls,44.23,NS,Abby Silva,Edcouch-Elsa,,,,,,Single-ply,SBD,F
Girls,44.23,DQ,Ashley Fink,Little Elm,42.68,,,,,Single-ply,SBD,F
Girls,44.23,DQ,Hope Brekel,Nederland,44.13,,,,,Single-ply,SBD,F
Girls,44.23,DQ,Chloie Devillier,Jacksonville,43.82,79.38,31.75,,,Single-ply,SBD,F
Girls,47.85,1,Present May,Port Lavaca Calhoun,47.17,138.35,61.23,136.08,335.66,Single-ply,SBD,F
Girls,47.85,2,Alexis Rivas,Brownsville Lopez,47.08,138.35,61.23,124.74,324.32,Single-ply,SBD,F
Girls,47.85,3,LeUyen Do,Georgetown East View,47.67,122.47,68.04,124.74,315.25,Single-ply,SBD,F
Girls,47.85,4,Madison Maldonado,Port Lavaca Calhoun,47.17,129.27,56.7,124.74,310.71,Single-ply,SBD,F
Girls,47.85,5,Norma Vega,Brownsville Lopez,47.4,133.81,54.43,120.2,308.44,Single-ply,SBD,F
Girls,47.85,6,Perla Hernandez,Brownsville Pace,47.22,131.54,54.43,117.93,303.91,Single-ply,SBD,F
Girls,47.85,7,Hailey Alexander,Lumberton,47.49,108.86,61.23,115.67,285.76,Single-ply,SBD,F
Girls,47.85,8,Molly Chhor,Little Elm,46.4,108.86,40.82,113.4,263.08,Single-ply,SBD,F
Girls,47.85,9,Norma Ortega,Longview Pine Tree,47.22,102.06,52.16,102.06,256.28,Single-ply,SBD,F
Girls,47.85,10,Hallie Cappel,Nederland,46.13,97.52,43.09,104.33,244.94,Single-ply,SBD,F
Girls,47.85,11,Sage Landeros,Plainview,46.81,97.52,29.48,104.33,231.33,Single-ply,SBD,F
Girls,47.85,12,Racheal Puckett,Lindale,46.99,90.72,31.75,77.11,199.58,Single-ply,SBD,F
Girls,47.85,NS,Shelbie Rhodes,Little Elm,,,,,,Single-ply,SBD,F
Girls,47.85,DQ,Yliana Beltran,Donna,44.72,117.93,63.5,,,Single-ply,SBD,F
Girls,47.85,DQ,Mariana Gallegos,Dumas,46.13,,,,,Single-ply,SBD,F
Girls,47.85,DQ,Salma Ramirez,Elgin,47.54,131.54,47.63,,,Single-ply,SBD,F
Girls,47.85,DQ,Camila Velez,Mission Sharyland,47.76,,,,,Single-ply,SBD,F
Girls,51.94,1,McKayla Cortez,Port Lavaca Calhoun,48.81,151.95,86.18,145.15,383.29,Single-ply,SBD,F
Girls,51.94,2,Brissa Ramirez,Mission Sharyland,50.39,138.35,61.23,145.15,344.73,Single-ply,SBD,F
Girls,51.94,3,Mia Reyes,Corpus Christi Tuloso-Midway,50.8,145.15,61.23,138.35,344.73,Single-ply,SBD,F
Girls,51.94,4,Amanda Rodriguez #3,Mission Sharyland,50.58,131.54,63.5,142.88,337.93,Single-ply,SBD,F
Girls,51.94,5,Hope Davila,Corpus Christi Tuloso-Midway,50.94,154.22,52.16,129.27,335.66,Single-ply,SBD,F
Girls,51.94,6,Jade Ross,Seguin,50.35,115.67,61.23,149.69,326.59,Single-ply,SBD,F
Girls,51.94,7,Catarina Tran,Nederland,50.48,138.35,47.63,136.08,322.05,Single-ply,SBD,F
Girls,51.94,8,Leena Salinas,Donna,50.67,129.27,56.7,136.08,322.05,Single-ply,SBD,F
Girls,51.94,9,Leah Sanchez,College Station,51.17,120.2,58.97,142.88,322.05,Single-ply,SBD,F
Girls,51.94,10,Kailey Castillo,Corpus Christi Tuloso-Midway,51.94,124.74,61.23,127.01,312.98,Single-ply,SBD,F
Girls,51.94,11,Miranda Housman,New Caney Porter,50.89,111.13,65.77,122.47,299.37,Single-ply,SBD,F
Girls,51.94,12,Payton Davison,Frisco Heritage,51.12,120.2,45.36,113.4,278.96,Single-ply,SBD,F
Girls,51.94,13,Alex Slaughter,Frisco Independence,50.89,113.4,45.36,111.13,269.89,Single-ply,SBD,F
Girls,51.94,14,Cristal Trejo,Lockhart,49.71,86.18,56.7,120.2,263.08,Single-ply,SBD,F
Girls,51.94,15,Rilee Schroeder,Huntsville,51.94,88.45,56.7,97.52,242.67,Single-ply,SBD,F
Girls,51.94,16,Catherine Delgado,Plainview,50.8,88.45,54.43,90.72,233.6,Single-ply,SBD,F
Girls,51.94,17,Vanessa Castillo,Dumas,51.57,99.79,40.82,88.45,229.06,Single-ply,SBD,F
Girls,51.94,NS,Stephanie Ray,Brownsville Veterans Memorial,,,,,,Single-ply,SBD,F
Girls,51.94,NS,Haley Haddock,Hallsville,,,,,,Single-ply,SBD,F
Girls,51.94,NS,Kalista Solis,PSJA Southwest,,,,,,Single-ply,SBD,F
Girls,51.94,NS,Lacey Littles,Victoria West,,,,,,Single-ply,SBD,F
Girls,56.02,1,Adriana Parez,Georgetown,55.88,158.76,72.57,156.49,387.82,Single-ply,SBD,F
Girls,56.02,2,Corina Yanez,Donna,53.25,158.76,77.11,147.42,383.29,Single-ply,SBD,F
Girls,56.02,3,Danielle Bacon,Port Lavaca Calhoun,53.34,147.42,74.84,156.49,378.75,Single-ply,SBD,F
Girls,56.02,4,Jenacy Avitia,Donna North,55.75,138.35,77.11,149.69,365.14,Single-ply,SBD,F
Girls,56.02,5,Kalen Wootan,College Station,55.34,145.15,79.38,136.08,360.61,Single-ply,SBD,F
Girls,56.02,6,Alexis Villalobos,Elgin,53.52,147.42,56.7,147.42,351.53,Single-ply,SBD,F
Girls,56.02,7,Katelan House,San Angelo Lake View,55.2,140.61,68.04,136.08,344.73,Single-ply,SBD,F
Girls,56.02,8,Alysa Henderson,Mansfield Lake Ridge,52.07,138.35,56.7,140.61,335.66,Single-ply,SBD,F
Girls,56.02,9,Shelby Webster,Corpus Christi Tuloso-Midway,54.43,136.08,58.97,136.08,331.12,Single-ply,SBD,F
Girls,56.02,10,Izzi Fielder,Little Elm,55.61,127.01,63.5,131.54,322.05,Single-ply,SBD,F
Girls,56.02,11,Nayely Ortiz,Waller,55.61,124.74,58.97,136.08,319.78,Single-ply,SBD,F
Girls,56.02,12,Victoria Olivarez,Mission Veterans Memorial,55.38,124.74,61.23,127.01,312.98,Single-ply,SBD,F
Girls,56.02,13,Jordan Alford,Splendora,54.34,113.4,72.57,117.93,303.91,Single-ply,SBD,F
Girls,56.02,14,MaRae Kendrick,Huntsville,55.07,106.59,56.7,120.2,283.5,Single-ply,SBD,F
Girls,56.02,15,Macy Smith,Whitehouse,55.43,106.59,63.5,113.4,283.5,Single-ply,SBD,F
Girls,56.02,16,Makaylah Casanova,Dumas,55.57,102.06,54.43,124.74,281.23,Single-ply,SBD,F
Girls,56.02,NS,Jocelyn Martinez,Pharr Valley View,,,,,,Single-ply,SBD,F
Girls,60.1,1,Skyleigh Sears,Port Lavaca Calhoun,57.92,147.42,77.11,167.83,392.36,Single-ply,SBD,F
Girls,60.1,2,Karen Martinez,Donna,60.06,149.69,68.04,156.49,374.21,Single-ply,SBD,F
Girls,60.1,3,Genesis Villarreal,Port Lavaca Calhoun,58.47,151.95,72.57,147.42,371.95,Single-ply,SBD,F
Girls,60.1,4,Amanda Olivarez,Donna North,59.74,140.61,79.38,151.95,371.95,Single-ply,SBD,F
Girls,60.1,5,Julianna Perez,Corpus Christi Tuloso-Midway,57.02,154.22,70.31,145.15,369.68,Single-ply,SBD,F
Girls,60.1,6,Jaycee Graham,Splendora,59.15,156.49,74.84,138.35,369.68,Single-ply,SBD,F
Girls,60.1,7,Jenna Hoffman #2,Vidor,57.74,149.69,68.04,149.69,367.41,Single-ply,SBD,F
Girls,60.1,8,Shawnee Chavez,College Station,58.33,142.88,81.65,136.08,360.61,Single-ply,SBD,F
Girls,60.1,9,Kassidy Sanchez,Mercedes,59.24,145.15,56.7,147.42,349.27,Single-ply,SBD,F
Girls,60.1,10,Angela Banda,Plainview,59.01,145.15,61.23,124.74,331.12,Single-ply,SBD,F
Girls,60.1,11,Madisyn Betancur,Little Elm,59.06,120.2,63.5,145.15,328.85,Single-ply,SBD,F
Girls,60.1,12,Laurel Eeds,Lockhart,59.56,113.4,58.97,136.08,308.44,Single-ply,SBD,F
Girls,60.1,13,Autumn Garrett,Midlothian,57.47,113.4,52.16,129.27,294.84,Single-ply,SBD,F
Girls,60.1,14,Katy Williams,Forney,59.01,115.67,63.5,115.67,294.84,Single-ply,SBD,F
Girls,60.1,15,Olivia Helm,Frisco Centennial,59.51,122.47,63.5,108.86,294.84,Single-ply,SBD,F
Girls,60.1,16,Cinthia Ramirez,Plainview,59.1,99.79,61.23,127.01,288.03,Single-ply,SBD,F
Girls,60.1,NS,Jasmine Hernandez,Alice,,,,,,Single-ply,SBD,F
Girls,67.36,1,Marisol Pulido,Brownsville Lopez,64.41,179.17,77.11,170.1,426.38,Single-ply,SBD,F
Girls,67.36,2,Lizeth De La Fuente,Brownsville Lopez,65.59,183.7,65.77,174.63,424.11,Single-ply,SBD,F
Girls,67.36,3,Bre Haesche,Conroe Caney Creek,65.32,165.56,79.38,170.1,415.04,Single-ply,SBD,F
Girls,67.36,4,Gabriella Canales,Alice,66.72,167.83,83.91,154.22,405.97,Single-ply,SBD,F
Girls,67.36,5,Jennifer Cisneros,Brownsville Lopez,64.77,165.56,68.04,165.56,399.16,Single-ply,SBD,F
Girls,67.36,6,Paige Manzella,Splendora,65.73,151.95,83.91,156.49,392.36,Single-ply,SBD,F
Girls,67.36,7,Erica Garcia,Port Lavaca Calhoun,66.86,163.29,70.31,154.22,387.82,Single-ply,SBD,F
Girls,67.36,8,Rheagan Schmidt,Seguin,66.18,151.95,74.84,147.42,374.21,Single-ply,SBD,F
Girls,67.36,9,Bailey Armstrong,Georgetown,65.36,147.42,79.38,145.15,371.95,Single-ply,SBD,F
Girls,67.36,10,Hannah Skinner,Little Elm,66.04,147.42,86.18,138.35,371.95,Single-ply,SBD,F
Girls,67.36,11,Christina Ybarra,Sharyland Pioneer,65,154.22,72.57,142.88,369.68,Single-ply,SBD,F
Girls,67.36,12,Dalila Sanchez,Donna North,67.04,147.42,72.57,149.69,369.68,Single-ply,SBD,F
Girls,67.36,13,Rebecca Castillo,Seguin,63.73,147.42,58.97,147.42,353.8,Single-ply,SBD,F
Girls,67.36,14,Morgan Lowry,Forney,63.5,142.88,65.77,142.88,351.53,Single-ply,SBD,F
Girls,67.36,15,Lauren Yanez,Lockhart,65.14,136.08,70.31,140.61,347,Single-ply,SBD,F
Girls,67.36,16,Bailey Crocker,Forney,66.59,142.88,58.97,140.61,342.46,Single-ply,SBD,F
Girls,67.36,17,Tatiana Flowers,Abilene Cooper,62.78,115.67,68.04,147.42,331.12,Single-ply,SBD,F
Girls,67.36,18,Leezset Paez,San Angelo Lake View,63.55,136.08,58.97,131.54,326.59,Single-ply,SBD,F
Girls,67.36,NS,MyKiyah Whitfield,Little Elm,,,,,,Single-ply,SBD,F
Girls,75.07,1,Jaydan Hunt,Denison,73.07,170.1,102.06,172.37,444.52,Single-ply,SBD,F
Girls,75.07,2,Julia McGinnis,College Station,74.57,185.97,90.72,167.83,444.52,Single-ply,SBD,F
Girls,75.07,3,Alexis Estringel,Alice,74.71,181.44,95.25,147.42,424.11,Single-ply,SBD,F
Girls,75.07,4,Kayla Wade,Georgetown,72.71,165.56,72.57,181.44,419.57,Single-ply,SBD,F
Girls,75.07,5,Jaci Cavazos,Corpus Christi Tuloso-Midway,71.4,176.9,77.11,158.76,412.77,Single-ply,SBD,F
Girls,75.07,6,Jessica Stein,Castroville Medina Valley,72.71,167.83,83.91,151.95,403.7,Single-ply,SBD,F
Girls,75.07,7,Nancy Yousif,Frisco Heritage,72.85,183.7,72.57,147.42,403.7,Single-ply,SBD,F
Girls,75.07,8,Morgan Boody,Santa Fe,73.39,167.83,83.91,147.42,399.16,Single-ply,SBD,F
Girls,75.07,9,Jaylin Kindles,Seguin,71.21,158.76,68.04,167.83,394.63,Single-ply,SBD,F
Girls,75.07,10,Edy Garza,Alice,74.57,163.29,77.11,154.22,394.63,Single-ply,SBD,F
Girls,75.07,11,Taylor Shelton,Victoria West,72.12,145.15,102.06,140.61,387.82,Single-ply,SBD,F
Girls,75.07,12,Jozlyn Lara,Edcouch-Elsa,72.8,158.76,68.04,158.76,385.55,Single-ply,SBD,F
Girls,75.07,13,Jasmine Rodriguez,Plainview,70.35,174.63,65.77,138.35,378.75,Single-ply,SBD,F
Girls,75.07,14,Jaden Fair,Greenville,72.62,154.22,77.11,147.42,378.75,Single-ply,SBD,F
Girls,75.07,15,Sydni Allen,Mansfield Timberview,73.94,136.08,74.84,163.29,374.21,Single-ply,SBD,F
Girls,75.07,16,Hannah Spencer,Port Lavaca Calhoun,70.58,154.22,74.84,142.88,371.95,Single-ply,SBD,F
Girls,75.07,17,Cassidy Schubert,Forney,72.76,147.42,68.04,154.22,369.68,Single-ply,SBD,F
Girls,75.07,18,Kyla Clark,Dumas,73.26,129.27,68.04,151.95,349.27,Single-ply,SBD,F
Girls,75.07,DQ,Hailey Pollard,Alvin Shadow Creek,74.03,,,,,Single-ply,SBD,F
Girls,75.07,DQ,Adriana Valerio,Brownsville Pace,74.93,,,,,Single-ply,SBD,F
Girls,82.33,1,Kailey Jones,Denison,80.69,204.12,111.13,201.85,517.1,Single-ply,SBD,F
Girls,82.33,2,Katie Lollar,College Station,81.1,217.72,113.4,185.97,517.1,Single-ply,SBD,F
Girls,82.33,3,Destiny Andrade,Castroville Medina Valley,80.56,195.04,108.86,154.22,458.13,Single-ply,SBD,F
Girls,82.33,4,Makenna Henderson,Midlothian,81.92,183.7,83.91,165.56,433.18,Single-ply,SBD,F
Girls,82.33,5,Mariah Castillo,Lockhart,80.51,170.1,83.91,156.49,410.5,Single-ply,SBD,F
Girls,82.33,6,Victoria Trevino,San Antonio Southside,81.37,176.9,77.11,147.42,401.43,Single-ply,SBD,F
Girls,82.33,7,Kemble Cohern,Georgetown,77.34,181.44,79.38,138.35,399.16,Single-ply,SBD,F
Girls,82.33,8,Ashley Gonzalez,Lumberton,77.7,158.76,83.91,151.95,394.63,Single-ply,SBD,F
Girls,82.33,9,Madelyne McKinney,Brownsville Veterans Memorial,79.2,158.76,70.31,165.56,394.63,Single-ply,SBD,F
Girls,82.33,10,Alexandra De La Cruz,Waxahachie,82.28,149.69,68.04,145.15,362.87,Single-ply,SBD,F
Girls,82.33,11,Yesenia Martinez,Dumas,81.56,147.42,61.23,140.61,349.27,Single-ply,SBD,F
Girls,82.33,12,Alexis Ponder,Plainview,78.52,115.67,58.97,129.27,303.91,Single-ply,SBD,F
Girls,82.33,NS,Julie Stanford,Corpus Christi Tuloso-Midway,,,,,,Single-ply,SBD,F
Girls,82.33,DQ,Winter Rice,Splendora,75.39,,,,,Single-ply,SBD,F
Girls,82.33,DQ,Jackie Guerra,Alice,80.42,190.51,,,,Single-ply,SBD,F
Girls,82.33,DQ,Faith Goins,Little Elm,78.61,,,,,Single-ply,SBD,F
Girls,90.04,1,Abigail Lutz,Wylie East,86.95,215.46,117.93,170.1,503.49,Single-ply,SBD,F
Girls,90.04,2,Chloe Zapata,Alice,88.99,215.46,104.33,165.56,485.34,Single-ply,SBD,F
Girls,90.04,3,Avery Heimer,Floresville,87.41,190.51,92.99,156.49,439.98,Single-ply,SBD,F
Girls,90.04,4,Fatima Herrera,San Antonio Southside,89.18,197.31,97.52,145.15,439.98,Single-ply,SBD,F
Girls,90.04,5,Aubree Beard,Frisco Centennial,89.95,181.44,88.45,149.69,419.57,Single-ply,SBD,F
Girls,90.04,6,Stephanie Urquieta,Corpus Christi Tuloso-Midway,88.04,197.31,72.57,145.15,415.04,Single-ply,SBD,F
Girls,90.04,7,Destinee Perez,Mercedes,88.18,183.7,70.31,156.49,410.5,Single-ply,SBD,F
Girls,90.04,8,Karrie Murphy,Mansfield Lake Ridge,89.04,156.49,74.84,172.37,403.7,Single-ply,SBD,F
Girls,90.04,9,Yesenia Salinas,Splendora,83.32,176.9,81.65,142.88,401.43,Single-ply,SBD,F
Girls,90.04,10,Marianna Mejia,Laredo Cigarroa,86.14,167.83,90.72,136.08,394.63,Single-ply,SBD,F
Girls,90.04,11,Annalyssa Salinas,Lockhart,82.78,149.69,88.45,136.08,374.21,Single-ply,SBD,F
Girls,90.04,12,Sarah Grosek,Midlothian,84.1,156.49,52.16,154.22,362.87,Single-ply,SBD,F
Girls,90.04,13,Emily Collins,Plainview,87,145.15,63.5,154.22,362.87,Single-ply,SBD,F
Girls,90.04,14,Alyssa Daniels,Splendora,88.36,145.15,79.38,136.08,360.61,Single-ply,SBD,F
Girls,90.04,15,Lisette Hernandez,San Angelo Lake View,86.73,138.35,63.5,127.01,328.85,Single-ply,SBD,F
Girls,90.04,NS,Camryn Byrtle,College Station A&M Cons,,,,,,Single-ply,SBD,F
Girls,90.04,DQ,Tamia Smith,Mansfield Summit,82.37,170.1,63.5,,,Single-ply,SBD,F
Girls,90.04,DQ,Callie Lightfoot,Longview Pine Tree,88.22,,,,,Single-ply,SBD,F
Girls,90.04,DQ,Elexa Silva,Brownsville Pace,86.95,,,,,Single-ply,SBD,F
Girls,100.02,1,Julieann Delgado,Brownsville Lopez,97.07,199.58,92.99,190.51,483.08,Single-ply,SBD,F
Girls,100.02,2,Keyshawna Newman,Wichita Falls Rider,93.67,197.31,92.99,174.63,464.93,Single-ply,SBD,F
Girls,100.02,3,Julie Sepulveda,Alice,97.66,188.24,83.91,170.1,442.25,Single-ply,SBD,F
Girls,100.02,4,Justine Guerrero,Edcouch-Elsa,98.84,195.04,86.18,161.03,442.25,Single-ply,SBD,F
Girls,100.02,5,Ebony Thibodeaux,Mansfield Timberview,94.35,170.1,102.06,161.03,433.18,Single-ply,SBD,F
Girls,100.02,6,Kelsy Medlin,Wylie East,98.97,195.04,95.25,142.88,433.18,Single-ply,SBD,F
Girls,100.02,7,Vanessa Guido,Corsicana,96.3,170.1,90.72,163.29,424.11,Single-ply,SBD,F
Girls,100.02,8,Brenda Lopez,Pharr Valley View,96.93,172.37,88.45,163.29,424.11,Single-ply,SBD,F
Girls,100.02,9,Marlene Zumaya,Splendora,95.89,179.17,88.45,154.22,421.84,Single-ply,SBD,F
Girls,100.02,10,Amina Petty,Lindale,90.13,163.29,81.65,174.63,419.57,Single-ply,SBD,F
Girls,100.02,11,Yasmin Dominguez,Plainview,97.75,195.04,68.04,149.69,412.77,Single-ply,SBD,F
Girls,100.02,12,Raven Ortega,Lockhart,93.03,181.44,83.91,138.35,403.7,Single-ply,SBD,F
Girls,100.02,13,America Osorio,Elgin,91.08,190.51,68.04,136.08,394.63,Single-ply,SBD,F
Girls,100.02,14,Jasmine O'Bryant,New Caney,95.48,136.08,65.77,136.08,337.93,Single-ply,SBD,F
Girls,100.02,15,Anastacia Sosa,Plainview,96.8,129.27,81.65,120.2,331.12,Single-ply,SBD,F
Girls,100.02,DQ,Lucy Zamora,Gregory-Portland,97.7,,,,,Single-ply,SBD,F
Girls,117.71,1,Ellie Hair,College Station,115.62,222.26,108.86,195.04,526.17,Single-ply,SBD,F
Girls,117.71,2,Faith Ette,Mansfield Lake Ridge,109.23,176.9,88.45,181.44,446.79,Single-ply,SBD,F
Girls,117.71,3,Krystal Gonzalez,Manvel,111.36,195.04,81.65,149.69,426.38,Single-ply,SBD,F
Girls,117.71,4,Miranda Lopez,Edcouch-Elsa,107.5,195.04,81.65,142.88,419.57,Single-ply,SBD,F
Girls,117.71,5,Andrea Torres,Sherman,112.81,161.03,92.99,161.03,415.04,Single-ply,SBD,F
Girls,117.71,6,Madison Taylor #3,Midlothian,108,158.76,86.18,165.56,410.5,Single-ply,SBD,F
Girls,117.71,7,Crystal Reyes,Lockhart,112.58,176.9,83.91,149.69,410.5,Single-ply,SBD,F
Girls,117.71,8,Blanca Gonzalez,Brownsville Pace,100.29,170.1,79.38,156.49,405.97,Single-ply,SBD,F
Girls,117.71,9,Priscilla Zamarron,Dumas,106.59,131.54,65.77,149.69,347,Single-ply,SBD,F
Girls,117.71,10,Molli Dorsey,Mount Pleasant,106.68,145.15,63.5,117.93,326.59,Single-ply,SBD,F
Girls,117.71,11,Marissa Cervantes,San Angelo Lake View,113.44,131.54,52.16,122.47,306.17,Single-ply,SBD,F
Girls,117.71,DQ,Raelene Chavez,Corpus Christi Tuloso-Midway,113.94,,,,,Single-ply,SBD,F
Girls,117.71,DQ,Dariah Jennings,Alvin Shadow Creek,106.14,154.22,61.23,,,Single-ply,SBD,F
Girls,117.71+,1,Lexi Harris,Cleburne,169.24,272.16,197.31,219.99,689.46,Single-ply,SBD,F
Girls,117.71+,2,Hannah Jett,Georgetown,124.74,222.26,108.86,165.56,496.68,Single-ply,SBD,F
Girls,117.71+,3,London Leslie,Fort Worth Arlington Heights,134.35,204.12,106.59,167.83,478.54,Single-ply,SBD,F
Girls,117.71+,4,Sydney Overton,Bryan,161.66,222.26,90.72,149.69,462.66,Single-ply,SBD,F
Girls,117.71+,5,Karla Anguiano,Seguin,133.31,170.1,83.91,161.03,415.04,Single-ply,SBD,F
Girls,117.71+,6,Yonyetta Sutton,Saginaw,145.88,176.9,83.91,133.81,394.63,Single-ply,SBD,F
Girls,117.71+,7,Victoria Casares,Donna,123.51,188.24,63.5,136.08,387.82,Single-ply,SBD,F
Girls,117.71+,DQ,Leslie Mendoza,Dumas,122.29,,,,,Single-ply,SBD,F
Girls,117.71+,DQ,Jogeania Wilford,Elgin,157.08,,,,,Single-ply,SBD,F
Girls,117.71+,DQ,Melanie McVay,Willis,126.92,,,,,Single-ply,SBD,F
