Place,Name,CyrillicName,Division,BirthDate,BodyweightKg,WeightClassKg,Sex,Squat1Kg,Squat2Kg,Squat3Kg,Squat4Kg,Best3SquatKg,Bench1Kg,Bench2Kg,Bench3Kg,Bench4Kg,Best3BenchKg,Deadlift1Kg,Deadlift2Kg,Deadlift3Kg,Deadlift4Kg,Best3DeadliftKg,TotalKg,Event,Equipment,Tested
1,Elena Zabelina,Елена Забелина,Pro Open,1983-09-07,51.8,52,F,,,,,,72.5,77.5,-82.5,,77.5,,,,,,77.5,B,Raw,No
1,Yuliya Medvedeva #1,Юлия Медведева,Pro Open,1979-07-08,75,75,F,,,,,,137.5,142.5,-150,,142.5,,,,,,142.5,B,Raw,No
1,Leonid Kozhin,Леонид Кожин,Pro Open,1983-12-27,65.7,67.5,M,,,,,,150,160,-167.5,,160,,,,,,160,B,Raw,No
1,Aleksey Burkov,Алексей Бурков,Pro Juniors 20-23,1993-05-04,97.6,100,M,,,,,,-145,145,147.5,,147.5,,,,,,147.5,B,Raw,No
1,Vadim Mikhaylov,Вадим Михайлов,Pro Open,1975-06-16,98.6,100,M,,,,,,210,215,-222.5,,215,,,,,,215,B,Raw,No
2,Oleg Zamchalov,Олег Замчалов,Pro Open,1977-07-12,95.7,100,M,,,,,,200,210,-220,,210,,,,,,210,B,Raw,No
3,Lev Golov,Лев Голов,Pro Open,1989-08-19,100,100,M,,,,,,170,-175,-175,,170,,,,,,170,B,Raw,No
1,Sergey Kartavov,Сергей Картавов,Pro Masters 45-49,1966-04-10,97,100,M,,,,,,160,-170,-172.5,,160,,,,,,160,B,Raw,No
1,Sergey Gusev,Сергей Гусев,Pro Open,1987-03-18,104.3,110,M,,,,,,190,200,205,,205,,,,,,205,B,Raw,No
2,Vitaliy Mikhalevskiy,Виталий Михалевский,Pro Open,1987-09-14,106.8,110,M,,,,,,190,197.5,-202.5,,197.5,,,,,,197.5,B,Raw,No
3,Oleg Khokhlov,Олег Хохлов,Pro Open,1981-04-18,107.6,110,M,,,,,,160,172.5,-180,,172.5,,,,,,172.5,B,Raw,No
1,Valeriy Simagin,Валерий Симагин,Pro Masters 40-44,1971-06-17,102,110,M,,,,,,180,190,200,,200,,,,,,200,B,Raw,No
1,Ilya Kalininskiy,Илья Калининский,Pro Open,1989-04-11,117.6,125,M,,,,,,220,230,240,,240,,,,,,240,B,Raw,No
2,Sergey Abrosimov,Сергей Абросимов,Pro Open,1971-09-24,117.7,125,M,,,,,,230,-240,-242.5,,230,,,,,,230,B,Raw,No
3,Andrey Petrov,Андрей Петров,Pro Open,1981-09-30,121.7,125,M,,,,,,215,225,-232.5,,225,,,,,,225,B,Raw,No
4,Vladimir Plakhotnyy,Владимир Плахотный,Pro Open,1972-04-22,122.1,125,M,,,,,,210,-220,,,210,,,,,,210,B,Raw,No
1,Vladimir Plakhotnyy,Владимир Плахотный,Pro Masters 40-44,1972-04-22,122.1,125,M,,,,,,210,-220,,,210,,,,,,210,B,Raw,No
1,Kirill Kayava,Кирилл Каява,Pro Open,1976-06-24,144,140+,M,,,,,,225,230,235,,235,,,,,,235,B,Raw,No
DQ,Yuliya Medvedeva #1,Юлия Медведева,Pro Open,1979-07-08,75,75,F,,,,,,-185,-185,-200.5,,,,,,,,,B,Single-ply,No
1,Ilya Kokorev,Илья Кокорев,Pro Open,1973-01-19,74.7,75,M,,,,,,195,-202.5,-205,,195,,,,,,195,B,Single-ply,No
1,Ivan Andreev,Иван Андреев,Pro Juniors 20-23,1990-02-21,86.6,90,M,,,,,,190,205,-215,,205,,,,,,205,B,Single-ply,No
1,Sergey Denzhakov,Сергей Деньжаков,Pro Open,1989-05-05,88.6,90,M,,,,,,185,200,207.5,,207.5,,,,,,207.5,B,Single-ply,No
1,Andrey Chebykin,Андрей Чебыкин,Pro Open,1976-03-26,109.3,110,M,,,,,,250,-260,260,,260,,,,,,260,B,Single-ply,No
2,Sergey Gusev,Сергей Гусев,Pro Open,1987-03-18,104.3,110,M,,,,,,-240,240,245,,245,,,,,,245,B,Single-ply,No
1,Vyacheslav Shadrin,Вячеслав Шадрин,Pro Masters 45-49,1968-02-21,123.1,125,M,,,,,,-185,185,200,,200,,,,,,200,B,Single-ply,No
1,Anton Blagoveshchenskiy,Антон Благовещенский,Pro Open,1987-12-07,145.8,140+,M,,,,,,205,215,-225,,215,,,,,,215,B,Single-ply,No
1,Yuriy Eremin,Юрий Еремин,Pro Open,1983-11-23,78.3,82.5,M,,,,,,190,200,-210,,200,,,,,,200,B,Multi-ply,No
1,Sergey Stepichev,Сергей Степичев,Pro Open,1977-07-06,84.6,90,M,,,,,,-200,200,-210,,200,,,,,,200,B,Multi-ply,No
1,Viktor Fursov,Виктор Фурсов,Pro Open,1974-05-09,120.2,125,M,,,,,,-285,290,-302.5,,290,,,,,,290,B,Multi-ply,No
1,Anna Saveleva,Анна Савельева,Pro Open,1984-08-15,44,44,F,,,,,,55,57.5,-60,,57.5,,,,,,57.5,B,Raw,No
1,Aleksandr Konev,Александр Конев,Pro Open,1987-02-11,54.2,56,M,,,,,,85,95,-105,,95,,,,,,95,B,Raw,No
2,Aleksey Konovalov,Алексей Коновалов,Pro Open,1979-04-18,56,56,M,,,,,,70,77.5,-82.5,,77.5,,,,,,77.5,B,Raw,No
1,Aleksey Shorokhov,Алексей Шорохов,Pro Teen 18-19,1994-05-12,72.2,75,M,,,,,,80,90,-105,,90,,,,,,90,B,Raw,No
1,Dmitriy Emelyanov,Дмитрий Емельянов,Pro Open,1980-05-21,75,75,M,,,,,,140,-150,-160,,140,,,,,,140,B,Raw,No
1,Aleksandr Gurkin,Александр Гуркин,Pro Masters 40-44,1973-08-14,81.8,82.5,M,,,,,,-140,140,-152.5,,140,,,,,,140,B,Raw,No
1,Mikhail Sukhanov,Михаил Суханов,Pro Open,1979-08-20,169.8,125+,M,,,,,,-160,180,-192.5,,180,,,,,,180,B,Raw,No
1,Alla Kalinichenko,Алла Калиниченко,Pro Open,1971-04-08,66.2,67.5,F,,,,,,,,,,,157.5,170,,,170,170,D,Raw,No
1,Evgeniy Roshchupkin,Евгений Рощупкин,Pro Open,1982-02-24,74.7,75,M,,,,,,,,,,,222.5,232.5,-242.5,,232.5,232.5,D,Raw,No
1,Sergey Golubkov,Сергей Голубков,Pro Juniors 20-23,1990-12-14,80.3,82.5,M,,,,,,,,,,,200,205,-212.5,,205,205,D,Raw,No
1,Aleksey Nikulin #1,Алексей Никулин,Pro Open,1982-11-01,81.9,82.5,M,,,,,,,,,,,300,-312.5,-312.5,,300,300,D,Raw,No
DQ,Andrey Kruglov,Андрей Круглов,Pro Open,1978-10-06,80.9,82.5,M,,,,,,,,,,,-292.5,-292.5,-292.5,,,,D,Raw,No
1,Nikolay Kotlyarov,Николай Котляров,Pro Juniors 20-23,1990-02-28,88,90,M,,,,,,,,,,,230,-250,-250,,230,230,D,Raw,No
1,Nikolay Durapov,Николай Дурапов,Pro Open,1980-07-17,83.4,90,M,,,,,,,,,,,280,295,305,,305,305,D,Raw,No
2,Mikhail Lebedev,Михаил Лебедев,Pro Open,1989-11-02,88,90,M,,,,,,,,,,,285,-300,-300,,285,285,D,Raw,No
1,Semen Silov,Семен Силов,Pro Open,1985-05-18,92.4,100,M,,,,,,,,,,,240,250,262.5,,262.5,262.5,D,Raw,No
2,Sergey Moiseev,Сергей Моисеев,Pro Open,1977-08-24,98.9,100,M,,,,,,,,,,,230,250,260,,260,260,D,Raw,No
3,Viktor Lukash,Виктор Лукаш,Pro Open,1988-08-10,93.8,100,M,,,,,,,,,,,215,240,-260,,240,240,D,Raw,No
1,Aleksey Kostylev,Алексей Костылев,Pro Masters 40-44,1973-09-04,110.7,125,M,,,,,,,,,,,270,300,-307.5,,300,300,D,Raw,No
1,Vyacheslav Shadrin,Вячеслав Шадрин,Pro Masters 45-49,1968-02-21,123.1,125,M,,,,,,,,,,,275,,,,275,275,D,Raw,No
1,Alexander Klyushev,Александр Клюшев,Pro Open,1983-12-23,139.9,140,M,,,,,,,,,,,370,390,,,390,390,D,Raw,No
1,Vladimir Kalinichenko,Владимир Калиниченко,Pro Masters 40-44,1972-11-06,153,140+,M,,,,,,,,,,,345,370,377.5,,377.5,377.5,D,Raw,No
1,Yuliya Medvedeva #1,Юлия Медведева,Pro Open,1979-07-08,75,75,F,,,,,,,,,,,215,-230,-230,,215,215,D,Single-ply,No
1,Dmitriy Gorelikov,Дмитрий Гореликов,Pro Open,1968-06-23,89.6,90,M,,,,,,,,,,,270,-280,-285,,270,270,D,Single-ply,No
1,Dmitriy Gorelikov,Дмитрий Гореликов,Pro Masters 45-49,1968-06-23,89.6,90,M,,,,,,,,,,,270,-280,-285,,270,270,D,Single-ply,No
1,Denis Milov,Денис Милов,Pro Open,1989-04-13,119.9,125,M,,,,,,,,,,,300,,,,300,300,D,Single-ply,No
1,Kseniya Gunina,Ксения Гунина,Pro Open,1986-06-09,65.2,67.5,F,60,65,-70,,65,40,45,47.5,,47.5,75,-82.5,-82.5,,75,187.5,SBD,Raw,No
1,Dmitriy Kheruvimov,Дмитрий Херувимов,Pro Juniors 20-23,1991-12-01,75,75,M,135,145,155,,155,95,105,-115,,105,200,210,-220,,210,470,SBD,Raw,No
1,Nikolay Sokolov,Николай Соколов,Pro Open,1979-07-14,73,75,M,170,200,230,,230,140,155,162.5,,162.5,225,255,275,290,275,667.5,SBD,Raw,No
2,Mikhail Vitovskiy,Михаил Витовский,Pro Open,1986-12-03,74.9,75,M,185,195,-200,,195,140,-150,-152.5,,140,230,245,-265,,245,580,SBD,Raw,No
1,Aleksey Molkov,Алексей Мольков,Pro Open,1989-02-08,82.1,82.5,M,160,-170,-170,,160,132.5,140,142.5,,142.5,205,215,225,,225,527.5,SBD,Raw,No
1,Mikhail Lebedev,Михаил Лебедев,Pro Open,1989-11-02,88,90,M,230,-242.5,-245,,230,160,165,-170,,165,-260,275,285,,285,680,SBD,Raw,No
2,Mikhail Glotov,Михаил Глотов,Pro Open,1980-12-04,87.7,90,M,210,220,225,,225,145,150,155,,155,270,280,285,,285,665,SBD,Raw,No
3,Aleksey Lenkin,Алексей Ленкин,Pro Open,1989-01-25,89.7,90,M,215,222.5,-227.5,,222.5,150,155,157.5,,157.5,-240,240,250,,250,630,SBD,Raw,No
4,Egor Semenov,Егор Семенов,Pro Open,1986-01-22,86.5,90,M,-200,200,-210,,200,145,152.5,157.5,,157.5,250,260,270,,270,627.5,SBD,Raw,No
5,Vadim Yurkov,Вадим Юрков,Pro Open,1979-02-06,89.9,90,M,165,175,-185,,175,-145,150,160,,160,185,195,205,,205,540,SBD,Raw,No
DQ,Aleksey Sizov,Алексей Сизов,Pro Open,1979-12-11,88.4,90,M,-220,-220,,,,-170,,,,,-265,,,,,,SBD,Raw,No
1,Sai Agnikhotram,,Pro Teen 18-19,1994-03-02,97.3,100,M,180,-220,-225,,180,120,-140,-140,,120,200,220,230,,230,530,SBD,Raw,No
1,Arnold Sorokin,Арнольд Сорокин,Pro Juniors 20-23,1990-09-11,98.9,100,M,-220,-225,225,,225,165,172.5,-175,,172.5,270,285,290,,290,687.5,SBD,Raw,No
1,Vitaliy Bobrov,Виталий Бобров,Pro Open,1981-07-30,100,100,M,280,300,-322.5,,300,200,212.5,220,,220,300,-320,,,300,820,SBD,Raw,No
2,Vladimir Bardin,Владимир Бардин,Pro Open,1985-01-13,99.4,100,M,230,245,252.5,,252.5,165,177.5,187.5,,187.5,255,265,-275,,265,705,SBD,Raw,No
3,Sergey Moiseev,Сергей Моисеев,Pro Open,1977-08-24,98.9,100,M,210,220,-225,,220,140,147.5,-150,,147.5,230,240,250,,250,617.5,SBD,Raw,No
1,Dmitriy Semenin,Дмитрий Семенин,Pro Open,1983-12-09,108.1,110,M,-265,265,280,,280,195,210,-212.5,,210,290,310,-327.5,,310,800,SBD,Raw,No
2,Ilya Semenov,Илья Семенов,Pro Open,1982-11-10,107.6,110,M,230,242.5,250,,250,180,192.5,197.5,,197.5,260,270,-280,,270,717.5,SBD,Raw,No
3,Pavel Kuritsyn,Павел Курицын,Pro Open,1981-09-19,100.3,110,M,200,-215,215,,215,150,160,167.5,,167.5,240,250,-260,,250,632.5,SBD,Raw,No
4,Aleksandr Kovalev,Александр Ковалев,Pro Open,1988-09-11,105.6,110,M,-220,220,-240,,220,130,140,-150,,140,-240,240,-260,,240,600,SBD,Raw,No
5,Oleg Kuritsyn,Олег Курицын,Pro Open,1985-11-03,102.1,110,M,-195,-200,200,,200,135,-145,-145,,135,240,-250,-250,,240,575,SBD,Raw,No
DQ,Oleg Kuznetsov,Олег Кузнецов,Pro Open,1983-01-21,102.1,110,M,-195,-200,-200,,,-135,-145,-145,,,-240,-250,-250,,,,SBD,Raw,No
1,Vladimir Urazov,Владимир Уразов,Pro Masters 45-49,1967-10-21,81,82.5,M,230,240,-250,,240,150,160,167.5,,167.5,230,240,255,,255,662.5,SBD,Single-ply,No
DQ,Artem Tyutikov,Артем Тютиков,Pro Open,1982-11-12,89.2,90,M,-300,-300,-300,,-300,-200,,,,,-255,,,,,,SBD,Single-ply,No
1,Aleksandr Osiev,Александр Осиев,Pro Open,1976-08-05,98.2,100,M,-300,310,-320,,310,210,220,230,,230,290,305,310,,310,850,SBD,Single-ply,No
2,Maksim Aleksandrov,Максим Александров,Pro Open,1988-06-10,97.3,100,M,260,275,-285,,275,-192.5,-192.5,192.5,,192.5,240,267.5,-275,,267.5,735,SBD,Single-ply,No
1,Denis Milov,Денис Милов,Pro Open,1989-04-13,119.9,125,M,-280,280,-305,,280,170,185,-195,,185,300,315,330,,330,795,SBD,Single-ply,No
1,Anna Shcheglova,Анна Щеглова,Amateur Juniors 20-23,1990-11-15,53.1,56,F,72.5,80,-82.5,,80,42.5,-47.5,47.5,,47.5,85,95,105,,105,232.5,SBD,Raw,Yes
1,Nadezhda Marochkina,Надежда Марочкина,Amateur Masters 55-59,1957-02-07,65.9,67.5,F,80,85,90,,90,55,-60,-60,,55,95,100,-110,,100,245,SBD,Raw,Yes
1,Ivan Prakhov,Иван Прахов,Amateur Teen 13-15,2000-01-11,51.3,52,M,57.5,-60,60,,60,35,37.5,-40,,37.5,100,105,107.5,,107.5,205,SBD,Raw,Yes
1,Aleksandr Osokin,Александр Осокин,Amateur Juniors 20-23,1990-02-02,58.8,60,M,105,107.5,110,,110,105,107.5,-110,,107.5,160,170,177.5,,177.5,395,SBD,Raw,Yes
1,Oleg Dvoynikov,Олег Двойников,Amateur Open,1960-10-08,60,60,M,-120,-120,120,,120,90,95,,,95,160,170,-180,,170,385,SBD,Raw,Yes
DQ,Nikita Shishenin,Никита Шишенин,Amateur Teen 18-19,1994-01-03,65.5,67.5,M,-100,-100,-100,,,-100,,,,,-100,,,,,,SBD,Raw,Yes
1,Dmitriy Kovalenko,Дмитрий Коваленко,Amateur Masters 40-44,1972-12-17,67.5,67.5,M,75,80,85,,85,72.5,77.5,-80,,77.5,112.5,117.5,120,,120,282.5,SBD,Raw,Yes
1,Nikita Belov,Никита Белов,Amateur Teen 18-19,1994-04-05,73.7,75,M,127.5,132.5,-137.5,,132.5,92.5,-97.5,-97.5,,92.5,160,165,170,,170,395,SBD,Raw,Yes
1,Ilya Maratkanov,Илья Маратканов,Amateur Juniors 20-23,1993-07-04,73.8,75,M,150,160,-165,,160,110,117.5,-120,,117.5,170,-175,175,,175,452.5,SBD,Raw,Yes
1,Ivan Kupriyanik,Иван Куприяник,Amateur Open,1983-10-17,72.9,75,M,170,175,180,,180,140,145,-150,,145,-205,207.5,-212.5,,207.5,532.5,SBD,Raw,Yes
2,Oleg Repin,Олег Репин,Amateur Open,1981-02-22,74.9,75,M,160,170,-175,,170,110,115,117.5,,117.5,170,175,-180,,175,462.5,SBD,Raw,Yes
1,Saveliy Gayduk,Савелий Гайдук,Amateur Masters 55-59,1956-01-19,67.7,75,M,-80,90,-100,,90,60,-65,-65,,60,-100,-100,105,,105,255,SBD,Raw,Yes
1,Anton Maslov,Антон Маслов,Amateur Teen 18-19,1994-06-07,79.8,82.5,M,160,170,-175,,170,112.5,117.5,-122.5,,117.5,190,195,200,,200,487.5,SBD,Raw,Yes
1,Maksim Kartashov,Максим Карташов,Amateur Juniors 20-23,1990-12-12,82.35,82.5,M,170,180,190,,190,155,162.5,-170,,162.5,215,225,235,,235,587.5,SBD,Raw,Yes
1,Dmitriy Timofeev,Дмитрий Тимофеев,Amateur Open,1987-02-21,77.4,82.5,M,210,217.5,-225,,217.5,-145,145,-150,,145,255,-265,-265,,255,617.5,SBD,Raw,Yes
2,Aleksandr Pavlov,Александр Павлов,Amateur Open,1989-06-25,80.8,82.5,M,200,210,215,,215,132.5,137.5,140,,140,-205,212.5,-222.5,,212.5,567.5,SBD,Raw,Yes
3,Dmitriy Karpeev,Дмитрий Карпеев,Amateur Open,1984-04-24,79.6,82.5,M,185,-192.5,192.5,,192.5,130,-137.5,-137.5,,130,-175,185,200,,200,522.5,SBD,Raw,Yes
4,Vitaliy Fedorenko,Виталий Федоренко,Amateur Open,1987-01-05,81.5,82.5,M,-150,160,170,,170,125,135,140,,140,180,190,200,,200,510,SBD,Raw,Yes
1,Sergey Sherokhov,Сергей Шерохов,Amateur Open,1985-03-10,88.7,90,M,185,192.5,200,,200,-150,-155,155,,155,200,215,225,,225,580,SBD,Raw,Yes
2,Aleksandr Bogomolov,Александр Богомолов,Amateur Open,1976-09-08,85.6,90,M,-190,190,195,,195,140,145,-152.5,,145,190,200,-210,,200,540,SBD,Raw,Yes
1,Vasiliy Vitovskiy,Василий Витовский,Amateur Masters 50-54,1960-01-06,86.8,90,M,185,195,-205,,195,135,140,-152.5,,140,-210,-220,225,,225,560,SBD,Raw,Yes
1,Nikolay Shasherin,Николай Шашерин,Amateur Open,1987-01-20,97.1,100,M,240,250,-255,,250,-160,160,-165,,160,240,250,260,,260,670,SBD,Raw,Yes
1,Valeriy Tumanov,Валерий Туманов,Amateur Masters 40-44,1971-12-22,99,100,M,210,215,220,,220,160,162.5,-167.5,,162.5,-230,230,-245,,230,612.5,SBD,Raw,Yes
1,Aleksandr Ilin,Александр Ильин,Amateur Masters 45-49,1964-11-20,98,100,M,195,205,215,,215,145,152.5,-155,,152.5,250,262.5,270,,270,637.5,SBD,Raw,Yes
1,Aleksandr Seliverstov,Александр Селиверстов,Amateur Masters 55-59,1954-02-21,100,100,M,-175,175,-185,,175,-105,105,115,,115,225,240,-242.5,,240,530,SBD,Raw,Yes
1,Aleksandr Zhirnyy,Александр Жирный,Amateur Teen 18-19,1994-08-26,109.5,110,M,170,185,200,,200,130,-140,140,,140,200,-220,-230,,200,540,SBD,Raw,Yes
1,Aleksey Kiselev,Алексей Киселев,Amateur Open,1975-03-18,102.3,110,M,190,205,220,,220,160,170,-180,,170,200,220,-227.5,,220,610,SBD,Raw,Yes
2,Andrey Shishkin,Андрей Шишкин,Amateur Open,1962-09-02,109.9,110,M,175,205,220,,220,115,130,135,,135,185,230,250,,250,605,SBD,Raw,Yes
3,Oleg Selyakov,Олег Селяков,Amateur Open,1983-08-24,101.4,110,M,185,195,200,,200,-145,145,150,,150,225,-230,230,,230,580,SBD,Raw,Yes
1,Andrey Shishkin,Андрей Шишкин,Amateur Masters 50-54,1962-09-02,109.9,110,M,175,205,220,,220,115,130,135,,135,185,230,250,,250,605,SBD,Raw,Yes
1,Vladimir Gustovarov,Владимир Густоваров,Amateur Juniors 20-23,1992-08-22,89,90,M,190,202.5,-210,,202.5,150,157.5,-162.5,,157.5,200,210,217.5,,217.5,577.5,SBD,Single-ply,Yes
DQ,Igor Pogodin,Игорь Погодин,Amateur Open,1986-11-06,90,90,M,-260,267.5,275,,275,-165,-170,-170,,,,,,,,,SBD,Single-ply,Yes
DQ,Aleksandr Chayka,Александр Чайка,Amateur Open,1986-12-12,105.7,110,M,-180,-180,-180,,,-110,110,-115,,110,150,-165,170,,170,,SBD,Single-ply,Yes
DQ,Anton Shmurin,Антон Шмурин,Amateur Open,1983-08-13,93.9,100,M,-240,,,,,,,,,,,,,,,,SBD,Single-ply,Yes
DD,Vladimir Kuvanov,Владимир Куванов,Amateur Open,1989-06-12,90,90,M,250,265,-280,,265,-210,-210,210,,210,270,-285,297.5,,297.5,,SBD,Multi-ply,Yes
1,Anastasiya Lazareva,Анастасия Лазарева,Amateur Open,1987-09-06,43.7,44,F,,,,,,,,,,,50,60,70,,70,70,D,Raw,Yes
1,Svetlana Burnashova,Светлана Бурнашова,Amateur Open,1977-10-26,52,52,F,,,,,,,,,,,132.5,135,140,142.5,140,140,D,Raw,Yes
1,Svetlana Okhapkina,Светлана Охапкина,Amateur Open,1977-02-25,56,56,F,,,,,,,,,,,140,-145,-145,,140,140,D,Raw,Yes
1,Alena Demina,Алена Демина,Amateur Juniors 20-23,1992-08-09,58.1,60,F,,,,,,,,,,,60,77.5,80,,80,80,D,Raw,Yes
1,Dmitriy Rozhkov,Дмитрий Рожков,Amateur Teen 16-17,1996-06-05,51.1,52,M,,,,,,,,,,,142.5,152.5,,,152.5,152.5,D,Raw,Yes
1,Aleksandr Melekhov,Александр Мелехов,Amateur Teen 16-17,1996-09-12,63.1,67.5,M,,,,,,,,,,,132.5,145,-147.5,,145,145,D,Raw,Yes
1,Sergey Elesin,Сергей Елесин,Amateur Juniors 20-23,1990-04-05,62.2,67.5,M,,,,,,,,,,,112.5,132.5,-145,,132.5,132.5,D,Raw,Yes
1,Artem Boytsov,Артем Бойцов,Amateur Teen 13-15,1998-06-18,73.9,75,M,,,,,,,,,,,142.5,152.5,157.5,165,157.5,157.5,D,Raw,Yes
2,Ilya Zheleznov,Илья Железнов,Amateur Teen 13-15,1998-05-19,73.1,75,M,,,,,,,,,,,145,155,-160,,155,155,D,Raw,Yes
DQ,Konstantin Kysin,Константин Кысин,Amateur Teen 18-19,1994-05-24,71.7,75,M,,,,,,,,,,,-180,-180,-190,,,,D,Raw,Yes
1,Ivan Aleksandrov,Иван Александров,Amateur Juniors 20-23,1990-06-12,71.6,75,M,,,,,,,,,,,-195,195,202.5,,202.5,202.5,D,Raw,Yes
2,Aleksey Efimov,Алексей Ефимов,Amateur Juniors 20-23,1992-05-31,73.4,75,M,,,,,,,,,,,180,185,190,,190,190,D,Raw,Yes
1,Evgeniy Litchenkov,Евгений Литченков,Amateur Open,1982-03-29,73.7,75,M,,,,,,,,,,,217.5,225,-232.5,,225,225,D,Raw,Yes
2,Leonid Khovalkin,Леонид Ховалкин,Amateur Open,1984-11-16,74.3,75,M,,,,,,,,,,,185,202.5,-205,,202.5,202.5,D,Raw,Yes
3,Aleksey Korotin,Алексей Коротин,Amateur Open,1976-02-23,70.2,75,M,,,,,,,,,,,177.5,185,190,,190,190,D,Raw,Yes
1,Aleksandr Brusilovskiy,Александр Брусиловский,Amateur Teen 18-19,1994-08-14,78.5,82.5,M,,,,,,,,,,,145,150,152.5,,152.5,152.5,D,Raw,Yes
1,Aleksandr Brusilovskiy,Александр Брусиловский,Amateur Open,1994-08-14,78.5,82.5,M,,,,,,,,,,,145,150,152.5,,152.5,152.5,D,Raw,Yes
1,Vladislav Akulov,Владислав Акулов,Amateur Teen 18-19,1994-09-26,89.6,90,M,,,,,,,,,,,210,220,-230,,220,220,D,Raw,Yes
2,Igor Chayka,Игорь Чайка,Amateur Teen 18-19,1994-06-09,87.3,90,M,,,,,,,,,,,-170,170,195,,195,195,D,Raw,Yes
1,Artur Mamedyarov,Артур Мамедяров,Amateur Juniors 20-23,1991-08-20,89,90,M,,,,,,,,,,,275,-307.5,307.5,,307.5,307.5,D,Raw,Yes
2,Aleksey Yakushevich,Алексей Якушевич,Amateur Juniors 20-23,1991-07-02,88.7,90,M,,,,,,,,,,,255,262.5,275,,275,275,D,Raw,Yes
1,Artur Mamedyarov,Артур Мамедяров,Amateur Open,1991-08-20,89,90,M,,,,,,,,,,,275,-307.5,307.5,,307.5,307.5,D,Raw,Yes
2,Aleksey Yakushevich,Алексей Якушевич,Amateur Open,1991-07-02,88.7,90,M,,,,,,,,,,,255,262.5,275,,275,275,D,Raw,Yes
3,Vladislav Akulov,Владислав Акулов,Amateur Open,1994-09-26,89.6,90,M,,,,,,,,,,,210,220,-230,,220,220,D,Raw,Yes
DD,Vasiliy Burnashov,Василий Бурнашов,Amateur Open,1977-11-28,90,90,M,,,,,,,,,,,270,290,-300,,290,,D,Raw,Yes
1,Roman Legchilin,Роман Легчилин,Amateur Juniors 20-23,1991-04-01,98,100,M,,,,,,,,,,,260,-267.5,267.5,,267.5,267.5,D,Raw,Yes
1,Evgeniy Esaulkov,Евгений Есаулков,Amateur Open,1989-08-06,98.4,100,M,,,,,,,,,,,255,267.5,272.5,,272.5,272.5,D,Raw,Yes
2,Roman Legchilin,Роман Легчилин,Amateur Open,1991-04-01,100,100,M,,,,,,,,,,,260,-267.5,267.5,,267.5,267.5,D,Raw,Yes
1,Sergey Yushko,Сергей Юшко,Amateur Open,1975-08-22,105,110,M,,,,,,,,,,,260,275,280,,280,280,D,Raw,Yes
2,Andrey Shishkin,Андрей Шишкин,Amateur Open,1962-09-02,109.9,110,M,,,,,,,,,,,185,225,247.5,,247.5,247.5,D,Raw,Yes
3,Tariel Rurua,Тариел Руруа,Amateur Open,1979-04-14,100.1,110,M,,,,,,,,,,,200,-215,-225,,200,200,D,Raw,Yes
1,Andrey Shishkin,Андрей Шишкин,Amateur Masters 50-54,1962-09-02,109.9,110,M,,,,,,,,,,,185,225,247.5,,247.5,247.5,D,Raw,Yes
1,Aleksey Sotov,Алексей Сотов,Amateur Open,1989-10-04,123.3,125,M,,,,,,,,,,,265,285,300,,300,300,D,Raw,Yes
2,Aleksandr Kipyatkov,Александр Кипятков,Amateur Open,1985-07-06,120.8,125,M,,,,,,,,,,,230,247.5,-250,,247.5,247.5,D,Raw,Yes
1,Sergey Koryakin,Сергей Корякин,Amateur Open,1976-07-01,78,82.5,M,,,,,,,,,,,220,235,-250,,235,235,D,Single-ply,Yes
2,Sergey Kovalev,Сергей Ковалев,Amateur Open,1980-08-21,81.6,82.5,M,,,,,,,,,,,200,,,,200,200,D,Single-ply,Yes
1,Anton Shmurin,Антон Шмурин,Amateur Open,1983-08-13,93.9,100,M,,,,,,,,,,,240,250,255,,255,255,D,Single-ply,Yes
1,Anastasiya Dzyuba,Анастасия Дзюба,Amateur Youth,2003-10-13,42.4,44,F,,,,,,42.5,-50,50,,50,,,,,,50,B,Raw,Yes
1,Svetlana Burnashova,Светлана Бурнашова,Amateur Open,1977-10-26,52,52,F,,,,,,55,57.5,60,,60,,,,,,60,B,Raw,Yes
1,Tatyana Kirova,Татьяна Кирова,Amateur Teen 13-15,1999-05-23,55.2,56,F,,,,,,40,45,-55,,45,,,,,,45,B,Raw,Yes
1,Kseniya Moiseeva,Ксения Моисеева,Amateur Teen 16-17,1997-06-12,54.1,56,F,,,,,,35,40,-42.5,,40,,,,,,40,B,Raw,Yes
1,Natalya Lovtsova,Наталья Ловцова,Amateur Open,1986-05-29,61.3,67.5,F,,,,,,80,90,-95,,90,,,,,,90,B,Raw,Yes
1,Olga Sidorova,Ольга Сидорова,Amateur Masters 45-49,1966-04-29,63,67.5,F,,,,,,-57.5,57.5,-60,,57.5,,,,,,57.5,B,Raw,Yes
1,Daniil Kashirin,Даниил Каширин,Amateur Teen 13-15,1999-11-24,51.9,52,M,,,,,,45,52.5,-60,,52.5,,,,,,52.5,B,Raw,Yes
1,Aleksey Istomin,Алексей Истомин,Amateur Teen 16-17,1996-07-04,53.4,56,M,,,,,,90,95,-102.5,,95,,,,,,95,B,Raw,Yes
1,Andrey Malyshev,Андрей Малышев,Amateur Teen 18-19,1994-11-28,56,56,M,,,,,,115,122.5,-125,,122.5,,,,,,122.5,B,Raw,Yes
1,Viktor Ershov,Виктор Ершов,Amateur Masters 50-54,1960-10-04,53.8,56,M,,,,,,-90,102.5,-120,,102.5,,,,,,102.5,B,Raw,Yes
1,Ilya Rachkov,Илья Рачков,Amateur Youth,2000-11-24,58.2,60,M,,,,,,40,45,50,,50,,,,,,50,B,Raw,Yes
1,Oleg Dvoynikov,Олег Двойников,Amateur Masters 50-54,1960-10-08,60,60,M,,,,,,90,95,,,95,,,,,,95,B,Raw,Yes
1,Sergey Borisov,Сергей Борисов,Amateur Teen 13-15,2000-04-28,66.3,67.5,M,,,,,,75,80,-90,,80,,,,,,80,B,Raw,Yes
2,Daniil Moiseev,Даниил Моисеев,Amateur Teen 13-15,1999-03-14,67.5,67.5,M,,,,,,-60,-62.5,62.5,,62.5,,,,,,62.5,B,Raw,Yes
1,Nikita Shishenin,Никита Шишенин,Amateur Teen 18-19,1994-01-03,65.5,67.5,M,,,,,,97.5,-107.5,-107.5,,97.5,,,,,,97.5,B,Raw,Yes
1,Sergey Vlasov,Сергей Власов,Amateur Juniors 20-23,1992-06-09,66.4,67.5,M,,,,,,135,142.5,147.5,,147.5,,,,,,147.5,B,Raw,Yes
2,Sergey Sitnikov,Сергей Ситников,Amateur Juniors 20-23,1991-12-02,67.4,67.5,M,,,,,,117.5,-130,130,,130,,,,,,130,B,Raw,Yes
1,Evgeniy Alferov,Евгений Алферов,Amateur Open,1988-12-20,65.8,67.5,M,,,,,,132.5,142.5,-145,,142.5,,,,,,142.5,B,Raw,Yes
2,Oleg Nazarov,Олег Назаров,Amateur Open,1987-11-06,66.4,67.5,M,,,,,,-125,125,-130,,125,,,,,,125,B,Raw,Yes
1,Anatoliy Vilchitskiy,Анатолий Вильчицкий,Amateur Masters 55-59,1955-08-24,66,67.5,M,,,,,,80,85,87.5,,87.5,,,,,,87.5,B,Raw,Yes
1,Ivan Chebykin,Иван Чебыкин,Amateur Teen 13-15,1999-09-18,72.7,75,M,,,,,,80,90,-92.5,,90,,,,,,90,B,Raw,Yes
1,Roman Bogachev,Роман Богачев,Amateur Teen 16-17,1996-02-07,71.7,75,M,,,,,,90,-95,95,,95,,,,,,95,B,Raw,Yes
1,Ilya Maratkanov,Илья Маратканов,Amateur Juniors 20-23,1993-07-04,73.8,75,M,,,,,,110,117.5,120,,120,,,,,,120,B,Raw,Yes
2,Aleksey Efimov,Алексей Ефимов,Amateur Juniors 20-23,1992-05-31,73.4,75,M,,,,,,110,-117.5,-117.5,,110,,,,,,110,B,Raw,Yes
DQ,Vsevolod Smirnov,Всеволод Смирнов,Amateur Juniors 20-23,1993-08-02,71.2,75,M,,,,,,-105,-105,-105,,,,,,,,,B,Raw,Yes
1,Vladimir Popov,Владимир Попов,Amateur Open,1974-10-06,73.3,75,M,,,,,,-140,-140,145,,145,,,,,,145,B,Raw,Yes
2,Dmitriy Ipatov,Дмитрий Ипатов,Amateur Open,1981-12-08,74.9,75,M,,,,,,130,-135,-135,,130,,,,,,130,B,Raw,Yes
3,Andrey Bakhmetev,Андрей Бахметьев,Amateur Open,1987-06-20,74.5,75,M,,,,,,120,127.5,-135,,127.5,,,,,,127.5,B,Raw,Yes
4,Vitaliy Dolgiy,Виталий Долгий,Amateur Open,1986-08-16,72.4,75,M,,,,,,-125,125,-127.5,,125,,,,,,125,B,Raw,Yes
5,Vladimir Kyakhyari,Владимир Кяхяри,Amateur Open,1985-09-21,73.5,75,M,,,,,,105,-117.5,-117.5,,105,,,,,,105,B,Raw,Yes
6,Anton Bykov,Антон Быков,Amateur Open,1989-07-20,71.3,75,M,,,,,,100,-105,-105,,100,,,,,,100,B,Raw,Yes
1,Roman Vasilev,Роман Васильев,Amateur Masters 40-44,1973-02-10,71,75,M,,,,,,130,135,137.5,,137.5,,,,,,137.5,B,Raw,Yes
1,Pavel Dodul,Павел Додул,Amateur Juniors 20-23,1989-11-22,79,82.5,M,,,,,,127.5,-132.5,135,,135,,,,,,135,B,Raw,Yes
2,Evgeniy Potekhin,Евгений Потехин,Amateur Juniors 20-23,1993-07-21,81.1,82.5,M,,,,,,117.5,-127.5,-127.5,,117.5,,,,,,117.5,B,Raw,Yes
1,Viktor Kononov,Виктор Кононов,Amateur Open,1987-04-07,81.6,82.5,M,,,,,,160,167.5,172.5,,172.5,,,,,,172.5,B,Raw,Yes
2,Aleksey Krupennikov,Алексей Крупенников,Amateur Open,1978-06-05,82.2,82.5,M,,,,,,150,155,160,,160,,,,,,160,B,Raw,Yes
3,Andrey Kashirin,Андрей Каширин,Amateur Open,1984-07-03,82.4,82.5,M,,,,,,135,145,147.5,,147.5,,,,,,147.5,B,Raw,Yes
4,Aleksandr Kravchunov,Александр Кравчунов,Amateur Open,1973-10-21,79.5,82.5,M,,,,,,135,142.5,145,,145,,,,,,145,B,Raw,Yes
5,Pavel Dodul,Павел Додул,Amateur Open,1989-11-22,79,82.5,M,,,,,,127.5,-132.5,135,,135,,,,,,135,B,Raw,Yes
6,Denis Chernyaev,Денис Черняев,Amateur Open,1989-04-08,81.2,82.5,M,,,,,,-130,130,-135,,130,,,,,,130,B,Raw,Yes
DQ,Andrey Shevelev,Андрей Шевелев,Amateur Open,1978-04-05,80.2,82.5,M,,,,,,-127.5,-127.5,-127.5,,,,,,,,,B,Raw,Yes
1,Aleksandr Kravchunov,Александр Кравчунов,Amateur Masters 40-44,1973-10-21,79.5,82.5,M,,,,,,135,142.5,145,,145,,,,,,145,B,Raw,Yes
2,Andrey Popelov,Андрей Попелов,Amateur Masters 40-44,1969-12-23,82,82.5,M,,,,,,127.5,130,132.5,,132.5,,,,,,132.5,B,Raw,Yes
1,Anatoliy Shpikin,Анатолий Шпикин,Amateur Masters 50-54,1959-12-08,80,82.5,M,,,,,,95,100,102.5,,102.5,,,,,,102.5,B,Raw,Yes
1,Aleksandr Kirillov,Александр Кириллов,Amateur Juniors 20-23,1992-12-16,87.7,90,M,,,,,,147.5,152.5,160,,160,,,,,,160,B,Raw,Yes
1,Vasiliy Maksimenkov,Василий Максименков,Amateur Open,1982-12-14,89.2,90,M,,,,,,170,175,-180,,175,,,,,,175,B,Raw,Yes
2,Aleksey Pavlov,Алексей Павлов,Amateur Open,1978-01-18,84.1,90,M,,,,,,147.5,160,167.5,,167.5,,,,,,167.5,B,Raw,Yes
3,Yuriy Smirnov #5,Юрий Смирнов,Amateur Open,1983-07-14,88.6,90,M,,,,,,155,160,167.5,,167.5,,,,,,167.5,B,Raw,Yes
4,Denis Tonkikh,Денис Тонких,Amateur Open,1976-05-24,87.4,90,M,,,,,,160,-165,-167.5,,160,,,,,,160,B,Raw,Yes
5,Pavel Petukhov,Павел Петухов,Amateur Open,1982-10-08,88.3,90,M,,,,,,152.5,157.5,-160,,157.5,,,,,,157.5,B,Raw,Yes
6,Pavel Belykh,Павел Белых,Amateur Open,1980-08-06,88.7,90,M,,,,,,152.5,155,-157.5,,155,,,,,,155,B,Raw,Yes
7,Aleksey Kolotilov,Алексей Колотилов,Amateur Open,1983-01-25,86.9,90,M,,,,,,145,152.5,-155,,152.5,,,,,,152.5,B,Raw,Yes
8,Sergey Latyshev,Сергей Латышев,Amateur Open,1983-11-27,89,90,M,,,,,,140,147.5,152.5,,152.5,,,,,,152.5,B,Raw,Yes
9,Oleg Korelskiy,Олег Корельский,Amateur Open,1975-09-03,86.9,90,M,,,,,,140,145,-152.5,,145,,,,,,145,B,Raw,Yes
10,Ruslan Krapivin,Руслан Крапивин,Amateur Open,1982-07-01,87.5,90,M,,,,,,132.5,137.5,145,,145,,,,,,145,B,Raw,Yes
11,Ernest Volykhin,Эрнест Волыхин,Amateur Open,1987-10-11,88.7,90,M,,,,,,140,145,-152.5,,145,,,,,,145,B,Raw,Yes
12,Sergey Nelaev,Сергей Нелаев,Amateur Open,1982-03-01,89.4,90,M,,,,,,135,140,-145,,140,,,,,,140,B,Raw,Yes
13,Aleksandr Molodtsov,Александр Молодцов,Amateur Open,1978-10-21,89.3,90,M,,,,,,125,-132.5,-132.5,,125,,,,,,125,B,Raw,Yes
14,Aleksandr Shutkov,Александр Шутков,Amateur Open,1988-03-11,89.3,90,M,,,,,,120,-132.5,-132.5,,120,,,,,,120,B,Raw,Yes
DQ,Andrey Gorbunov,Андрей Горбунов,Amateur Open,1982-07-21,88.3,90,M,,,,,,-175,-175,-180,,,,,,,,,B,Raw,Yes
DQ,Aleksandr Lyashenko,Александр Ляшенко,Amateur Open,1977-01-22,88.5,90,M,,,,,,-137.5,-137.5,-137.5,,,,,,,,,B,Raw,Yes
1,Artur Novov,Артур Новов,Amateur Masters 40-44,1969-12-19,89.8,90,M,,,,,,152.5,157.5,-160,,157.5,,,,,,157.5,B,Raw,Yes
DD,Igor Zakharov,Игорь Захаров,Amateur Masters 40-44,1969-07-31,89.6,90,M,,,,,,140,150,-157.5,,150,,,,,,,B,Raw,Yes
1,Roman Legchilin,Роман Легчилин,Amateur Juniors 20-23,1991-04-01,98,100,M,,,,,,150,157.5,-162.5,,157.5,,,,,,157.5,B,Raw,Yes
1,Aleksey Matskevich,Алексей Мацкевич,Amateur Open,1974-10-18,98.7,100,M,,,,,,195,-200,200,,200,,,,,,200,B,Raw,Yes
2,Mikhail Kanin,Михаил Канин,Amateur Open,1978-07-06,95.8,100,M,,,,,,165,172.5,-177.5,,172.5,,,,,,172.5,B,Raw,Yes
3,Yuriy Mekhedenko,Юрий Мехеденко,Amateur Open,1973-03-26,97.5,100,M,,,,,,147.5,155,-162.5,,155,,,,,,155,B,Raw,Yes
4,Sergey Kuzminskiy,Сергей Кузьминский,Amateur Open,1984-09-11,95.9,100,M,,,,,,140,-147.5,150,,150,,,,,,150,B,Raw,Yes
5,Andrey Pavlov #5,Андрей Павлов,Amateur Open,1979-08-25,97.4,100,M,,,,,,140,150,-162.5,,150,,,,,,150,B,Raw,Yes
6,Maksim Shekhurin,Максим Шехурин,Amateur Open,1989-05-26,93.7,100,M,,,,,,140,-145,145,,145,,,,,,145,B,Raw,Yes
7,Roman Lebedev,Роман Лебедев,Amateur Open,1980-11-12,98.1,100,M,,,,,,130,140,-145,,140,,,,,,140,B,Raw,Yes
DD,Vasiliy Burnashov,Василий Бурнашов,Amateur Open,1977-11-28,91.8,100,M,,,,,,167.5,177.5,-180,,177.5,,,,,,,B,Raw,Yes
DQ,Roman Snyatkov,Роман Снятков,Amateur Open,1989-05-02,96.1,100,M,,,,,,-150,-160,-160,,,,,,,,,B,Raw,Yes
DQ,Nugzari Tikurishvili,Нугзари Тикуришвили,Amateur Open,1987-05-05,97.5,100,M,,,,,,-152.5,-152.5,-152.5,,,,,,,,,B,Raw,Yes
1,Yuriy Mekhedenko,Юрий Мехеденко,Amateur Masters 40-44,1973-03-26,100,100,M,,,,,,147.5,155,-162.5,,155,,,,,,155,B,Raw,Yes
1,Aleksey Stepyshev,Алексей Степышев,Amateur Masters 50-54,1963-05-10,96.6,100,M,,,,,,115,120,125,,125,,,,,,125,B,Raw,Yes
1,Vasiliy Lyakhov,Василий Ляхов,Amateur Masters 65-69,1948-05-30,97.8,100,M,,,,,,-115,115,120,,120,,,,,,120,B,Raw,Yes
1,Vasiliy Orlov,Василий Орлов,Amateur Juniors 20-23,1992-08-30,106.7,110,M,,,,,,167.5,180,-195,,180,,,,,,180,B,Raw,Yes
1,Dmitriy Kuzmin,Дмитрий Кузьмин,Amateur Open,1984-10-05,104,110,M,,,,,,165,172.5,-180,,172.5,,,,,,172.5,B,Raw,Yes
2,Dmitriy Litvinov,Дмитрий Литвинов,Amateur Open,1989-01-17,108.8,110,M,,,,,,170,-180,-182.5,,170,,,,,,170,B,Raw,Yes
DD,Aleksey Chubar,Алексей Чубарь,Amateur Open,1971-03-07,103.3,110,M,,,,,,170,180,185,,185,,,,,,,B,Raw,Yes
1,Andrey Zhilko,Андрей Жилко,Amateur Masters 40-44,1972-10-06,110,110,M,,,,,,-155,155,162.5,,162.5,,,,,,162.5,B,Raw,Yes
2,Dmitriy Savichev,Дмитрий Савичев,Amateur Masters 40-44,1973-06-21,103.5,110,M,,,,,,140,147.5,-152.5,,147.5,,,,,,147.5,B,Raw,Yes
DD,Aleksey Chubar,Алексей Чубарь,Amateur Open,1971-03-07,103.3,110,M,,,,,,170,180,185,,185,,,,,,,B,Raw,Yes
1,Dmitriy Malygin,Дмитрий Малыгин,Amateur Masters 45-49,1967-04-12,106.3,110,M,,,,,,100,120,-135,,120,,,,,,120,B,Raw,Yes
1,Sergey Bobchikhin,Сергей Бобчихин,Amateur Open,1975-06-25,121,125,M,,,,,,200,210,-220,,210,,,,,,210,B,Raw,Yes
2,Dmitriy Smirnov,Дмитрий Смирнов,Amateur Open,1980-02-14,122.6,125,M,,,,,,155,160,162.5,,162.5,,,,,,162.5,B,Raw,Yes
DQ,Aleksandr Smirnov,Александр Смирнов,Amateur Open,1980-02-14,122.6,125,M,,,,,,-155,,,,,,,,,,,B,Raw,Yes
1,Andrey Shishkin,Андрей Шишкин,Amateur Masters 50-54,1962-09-02,110.2,125,M,,,,,,115,-130,132.5,,132.5,,,,,,132.5,B,Raw,Yes
1,Anatoliy Lagunov,Анатолий Лагунов,Amateur Masters 60-64,1953-01-08,118,125,M,,,,,,150,157.5,-162.5,,157.5,,,,,,157.5,B,Raw,Yes
DQ,Aleksandr Tsvetaev,Александр Цветаев,Amateur Open,1987-11-08,138,140,M,,,,,,-200,-205,-205,,,,,,,,,B,Raw,Yes
1,Yaroslav Medvedev,Ярослав Медведев,Amateur Juniors 20-23,1993-01-01,74.7,75,M,,,,,,185,190,197.5,,197.5,,,,,,197.5,B,Single-ply,Yes
2,Vladimir Borshevnikov,Владимир Боршевников,Amateur Juniors 20-23,1993-01-14,73.6,75,M,,,,,,150,155,-160,,155,,,,,,155,B,Single-ply,Yes
1,Andrey Khomutov,Андрей Хомутов,Amateur Open,1983-03-02,74,75,M,,,,,,120,130,-137.5,,130,,,,,,130,B,Single-ply,Yes
1,Sergey Kovalev,Сергей Ковалев,Amateur Open,1980-08-21,81.6,82.5,M,,,,,,100,,,,100,,,,,,100,B,Single-ply,Yes
1,Dmitriy Sobolev,Дмитрий Соболев,Amateur Juniors 20-23,1992-07-03,85.2,90,M,,,,,,170,175,180,,180,,,,,,180,B,Single-ply,Yes
DQ,Aleksey Yakushevich,Алексей Якушевич,Amateur Juniors 20-23,1991-07-02,88.7,90,M,,,,,,-220,-230,-230,,,,,,,,,B,Single-ply,Yes
1,Vyacheslav Dolgov,Вячеслав Долгов,Amateur Open,1985-11-14,87.9,90,M,,,,,,150,152.5,-157.5,,152.5,,,,,,152.5,B,Single-ply,Yes
DQ,Aleksey Yakushevich,Алексей Якушевич,Amateur Open,1991-07-02,90,90,M,,,,,,-220,-230,-230,,,,,,,,,B,Single-ply,Yes
1,Evgeniy Egorov,Евгений Егоров,Amateur Juniors 20-23,1991-09-01,96.7,100,M,,,,,,-200,200,-215,,200,,,,,,200,B,Single-ply,Yes
DQ,Aleksey Kashirin,Алексей Каширин,Amateur Open,1973-10-09,99.7,100,M,,,,,,-265,-265,-265,,,,,,,,,B,Single-ply,Yes
DQ,Aleksey Kashirin,Алексей Каширин,Amateur Masters 40-44,1973-10-09,100,100,M,,,,,,-265,-265,-265,,,,,,,,,B,Single-ply,Yes
1,Konstantin Kryzhanovskiy,Константин Крыжановский,Amateur Open,1975-03-14,107.5,110,M,,,,,,220,230,235,,235,,,,,,235,B,Single-ply,Yes
2,Aleksey Pasyukov,Алексей Пасюков,Amateur Open,1976-12-09,107,110,M,,,,,,210,217.5,227.5,,227.5,,,,,,227.5,B,Single-ply,Yes
1,Roman Krasnoshchekov,Роман Краснощеков,Amateur Teen 16-17,1996-07-07,59.9,60,M,,,,,,115,120,125,,125,,,,,,125,B,Multi-ply,Yes
DQ,Sergey Kovalev,Сергей Ковалев,Amateur Open,1980-08-21,81.6,82.5,M,,,,,,-100,,,,,,,,,,,B,Multi-ply,Yes
1,Sergey Talashchenko,Сергей Талащенко,Amateur Open,1980-10-28,91.2,100,M,,,,,,180,-215,-215,,180,,,,,,180,B,Multi-ply,Yes
1,Pavel Guzev,Павел Гузев,Amateur Masters 45-49,1966-05-29,116.6,125,M,,,,,,-275,-275,275,,275,,,,,,275,B,Multi-ply,Yes
