Division,WeightClassKg,Place,Name,Team,BodyweightKg,Best3SquatKg,Best3BenchKg,Best3DeadliftKg,TotalKg,Equipment,Event,Sex,BirthDate
Boys,51.71,1,Trenton Cottrell,Paradise,50.71,111.13,61.23,115.67,288.03,Single-ply,SBD,M,
Boys,51.71,2,Brayden Annis,Ponder,47.54,68.04,43.09,92.99,204.12,Single-ply,SBD,M,
Boys,55.79,1,Dorian Ellis,Nocona,55.16,117.93,61.23,156.49,335.66,Single-ply,SBD,M,
Boys,55.79,2,Wyatt Abbott,Alvord,55.43,92.99,56.7,95.25,244.94,Single-ply,SBD,M,
Boys,59.87,1,Roman Rivas,Bowie,59.78,163.29,104.33,170.1,437.72,Single-ply,SBD,M,
Boys,59.87,2,Jared Morris,Paradise,58.6,161.03,88.45,151.95,401.43,Single-ply,SBD,M,
Boys,59.87,3,Dalton Medlock,Boyd,56.97,145.15,63.5,115.67,324.32,Single-ply,SBD,M,
Boys,59.87,4,Mason Hodges,Ponder,59.87,115.67,74.84,133.81,324.32,Single-ply,SBD,M,
Boys,59.87,5,Tucker Abbott,Alvord,56.52,104.33,70.31,113.4,288.03,Single-ply,SBD,M,
Boys,67.13,1,Ethan Meyers,Bowie,63.78,195.04,131.54,204.12,530.7,Single-ply,SBD,M,
Boys,67.13,2,Joshua Martinez,Bowie,65.23,158.76,92.99,183.7,435.45,Single-ply,SBD,M,
Boys,67.13,3,Devin Melton,Bowie,65.86,142.88,77.11,170.1,390.09,Single-ply,SBD,M,
Boys,67.13,4,Chase Compton,Alvord,63.23,142.88,81.65,136.08,360.61,Single-ply,SBD,M,
Boys,67.13,5,Arturo Parra,Chico,66.5,129.27,88.45,136.08,353.8,Single-ply,SBD,M,
Boys,67.13,6,Kaleb Flake,Alvord,63.78,120.2,74.84,145.15,340.19,Single-ply,SBD,M,
Boys,67.13,7,Zane Cassidy,Ponder,64.41,111.13,72.57,136.08,319.78,Single-ply,SBD,M,
Boys,67.13,DQ,Lucas Renner,Chico,63.5,,,,,Single-ply,SBD,M,
Boys,74.84,1,Wyatt Reeves,Paradise,72.57,206.38,145.15,210.92,562.45,Single-ply,SBD,M,
Boys,74.84,2,Julian Perez,Paradise,69.76,167.83,90.72,181.44,439.98,Single-ply,SBD,M,
Boys,74.84,3,Willie Salsman,Nocona,70.03,167.83,102.06,154.22,424.11,Single-ply,SBD,M,
Boys,74.84,4,Esteban Ortiz,Bowie,72.3,147.42,92.99,183.7,424.11,Single-ply,SBD,M,
Boys,74.84,5,Chase Taylor,Ponder,68.31,145.15,88.45,136.08,369.68,Single-ply,SBD,M,
Boys,74.84,6,Braxton Hall,Bowie,71.49,131.54,77.11,142.88,351.53,Single-ply,SBD,M,
Boys,74.84,7,Rayce Pennartz,Alvord,68.13,122.47,81.65,142.88,347,Single-ply,SBD,M,
Boys,74.84,8,Drew Epperson,Alvord,70.22,83.91,74.84,127.01,285.76,Single-ply,SBD,M,
Boys,74.84,9,Tyler Hicks,Alvord,69.58,102.06,61.23,113.4,276.69,Single-ply,SBD,M,
Boys,74.84,DQ,Kenyon Hedrick,Chico,68.04,,,,,Single-ply,SBD,M,
Boys,74.84,DQ,Joey Henson,Chico,72.67,,,,,Single-ply,SBD,M,
Boys,82.1,1,Dillon Inman,Boyd,81.56,238.14,140.61,208.65,587.4,Single-ply,SBD,M,
Boys,82.1,2,Jesus Castillo,Bowie,80.65,190.51,111.13,170.1,471.74,Single-ply,SBD,M,
Boys,82.1,3,Joe Gonzales,Paradise,81.1,151.95,115.67,181.44,449.06,Single-ply,SBD,M,
Boys,82.1,4,Tommy White,Paradise,80.74,174.63,90.72,172.37,437.72,Single-ply,SBD,M,
Boys,82.1,5,Isaac Ryan,Nocona,78.2,154.22,97.52,183.7,435.45,Single-ply,SBD,M,
Boys,82.1,6,Nate Antczak,Ponder,79.02,158.76,102.06,174.63,435.45,Single-ply,SBD,M,
Boys,82.1,7,Michael Nelson,Boyd,78.93,154.22,83.91,154.22,392.36,Single-ply,SBD,M,
Boys,82.1,8,Brian Butler,Alvord,78.02,106.59,79.38,131.54,317.51,Single-ply,SBD,M,
Boys,89.81,1,Cameron Carroll,Ponder,87.63,172.37,127.01,208.65,508.02,Single-ply,SBD,M,
Boys,89.81,2,Daniel Mora,Alvord,84.64,113.4,86.18,140.61,340.19,Single-ply,SBD,M,
Boys,89.81,3,Hayden Sands,Alvord,89.81,129.27,79.38,108.86,317.51,Single-ply,SBD,M,
Boys,99.79,1,Jacob Ramos #2,Paradise,91.17,213.19,127.01,215.46,555.65,Single-ply,SBD,M,
Boys,99.79,2,Nicky Licea,Paradise,99.16,183.7,120.2,170.1,474,Single-ply,SBD,M,
Boys,99.79,3,Ezra Fox,Alvord,93.17,197.31,124.74,147.42,469.47,Single-ply,SBD,M,
Boys,109.77,1,Carson Tiney,Paradise,106.68,215.46,124.74,206.38,546.58,Single-ply,SBD,M,
Boys,109.77,2,Carlos Castro,Nocona,102.33,215.46,104.33,185.97,505.76,Single-ply,SBD,M,
Boys,109.77,3,Carlos Winters,Nocona,109.77,181.44,117.93,167.83,467.2,Single-ply,SBD,M,
Boys,109.77,4,Jonathan Rodriguez,Paradise,106.5,190.51,111.13,142.88,444.52,Single-ply,SBD,M,
Boys,109.77,5,Hunter Wade,Bowie,105.14,158.76,102.06,127.01,387.82,Single-ply,SBD,M,
Boys,109.77,DQ,Alan Rodriguez,Ponder,104.33,181.44,,,,Single-ply,SBD,M,
Boys,124.74,1,Clayton Godwin,Paradise,120.38,235.87,170.1,226.8,632.76,Single-ply,SBD,M,
Boys,124.74,2,Bartolo Guevara,Boyd,122.92,256.28,145.15,217.72,619.15,Single-ply,SBD,M,
Boys,124.74,3,Bryan Arellano,Bowie,112.76,238.14,165.56,183.7,587.4,Single-ply,SBD,M,
Boys,124.74,4,Kaleb Crable,Alvord,117.21,226.8,122.47,192.78,542.04,Single-ply,SBD,M,
Boys,124.74,5,Bryan DeLeon,Ponder,117.93,204.12,117.93,163.29,485.34,Single-ply,SBD,M,
Boys,124.74,6,Josh Cortez,Ponder,115.3,201.85,92.99,170.1,464.93,Single-ply,SBD,M,
Boys,124.74,7,Coleton Price,Bowie,113.13,183.7,115.67,161.03,460.4,Single-ply,SBD,M,
Boys,124.74,8,William Estel,Boyd,117.48,181.44,99.79,158.76,439.98,Single-ply,SBD,M,
Boys,124.74,9,Keylan Chambers,Alvord,114.94,142.88,74.84,140.61,358.34,Single-ply,SBD,M,
Boys,124.74+,1,Tyson Herron,Bowie,155.22,192.78,149.69,204.12,546.58,Single-ply,SBD,M,
Boys,,NS,Jake Lytle,Boyd,,,,,,Single-ply,SBD,M,
Boys,,NS,Luke Langham,Alvord,,,,,,Single-ply,SBD,M,
